i281_main/dump.vcd
$date
	Sat Nov 22 12:13:26 2025
$end
$version
	Icarus Verilog
$end
$timescale
	1ps
$end
$scope module i281_toplevel_tb $end
$var wire 16 ! switches [15:0] $end
$var reg 1 " clock $end
$var reg 1 # reset $end
$var reg 1 $ run $end
$scope module dut $end
$var wire 1 " clock $end
$var wire 1 # reset $end
$var wire 1 $ run $end
$var wire 16 % switches [15:0] $end
$var wire 8 & register_output_two [7:0] $end
$var wire 8 ' reg_in [7:0] $end
$var wire 27 ( op_in [26:0] $end
$var wire 6 ) next_pc [5:0] $end
$var wire 16 * instruction [15:0] $end
$var wire 4 + flag_in [3:0] $end
$var wire 8 , dmem_input_mux_out [7:0] $end
$var wire 8 - data_memory_out [7:0] $end
$var wire 6 . current_pc [5:0] $end
$var wire 18 / ctrl_out [1:18] $end
$var wire 8 0 alu_result_mux_out [7:0] $end
$var wire 8 1 alu_result [7:0] $end
$var wire 8 2 alu_in_two [7:0] $end
$var wire 8 3 alu_in_one [7:0] $end
$var wire 4 4 alu_flags [3:0] $end
$scope module ALU $end
$var wire 1 5 c12 $end
$var wire 1 6 c13 $end
$var wire 8 7 alu_in_two [7:0] $end
$var wire 8 8 alu_in_one [7:0] $end
$var reg 4 9 alu_flags [3:0] $end
$var reg 8 : alu_result [7:0] $end
$var reg 9 ; catch_flags [8:0] $end
$upscope $end
$scope module ALU_Result_Mux $end
$var wire 8 < a [7:0] $end
$var wire 8 = b [7:0] $end
$var wire 1 > s $end
$var wire 8 ? out [7:0] $end
$upscope $end
$scope module ALU_Source_Mux $end
$var wire 8 @ b [7:0] $end
$var wire 1 A s $end
$var wire 8 B out [7:0] $end
$var wire 8 C a [7:0] $end
$upscope $end
$scope module CODE_MEMORY $end
$var wire 1 D c1 $end
$var wire 1 " clock $end
$var wire 16 E curr_instruction [15:0] $end
$var wire 16 F inp [15:0] $end
$var wire 1 # reset $end
$var wire 1 $ run $end
$var wire 6 G write_select [5:0] $end
$var wire 6 H read_select [5:0] $end
$var integer 32 I i [31:0] $end
$scope module add17to32 $end
$var wire 16 J b0I [15:0] $end
$var wire 16 K b10I [15:0] $end
$var wire 16 L b11I [15:0] $end
$var wire 16 M b12I [15:0] $end
$var wire 16 N b13I [15:0] $end
$var wire 16 O b14I [15:0] $end
$var wire 16 P b15I [15:0] $end
$var wire 16 Q b1I [15:0] $end
$var wire 16 R b2I [15:0] $end
$var wire 16 S b3I [15:0] $end
$var wire 16 T b4I [15:0] $end
$var wire 16 U b5I [15:0] $end
$var wire 16 V b6I [15:0] $end
$var wire 16 W b7I [15:0] $end
$var wire 16 X b8I [15:0] $end
$var wire 16 Y b9I [15:0] $end
$upscope $end
$scope module add1to16 $end
$var wire 16 Z b0I [15:0] $end
$var wire 16 [ b10I [15:0] $end
$var wire 16 \ b11I [15:0] $end
$var wire 16 ] b12I [15:0] $end
$var wire 16 ^ b13I [15:0] $end
$var wire 16 _ b14I [15:0] $end
$var wire 16 ` b15I [15:0] $end
$var wire 16 a b1I [15:0] $end
$var wire 16 b b2I [15:0] $end
$var wire 16 c b3I [15:0] $end
$var wire 16 d b4I [15:0] $end
$var wire 16 e b5I [15:0] $end
$var wire 16 f b6I [15:0] $end
$var wire 16 g b7I [15:0] $end
$var wire 16 h b8I [15:0] $end
$var wire 16 i b9I [15:0] $end
$upscope $end
$scope module add33to48 $end
$var wire 16 j b0I [15:0] $end
$var wire 16 k b10I [15:0] $end
$var wire 16 l b11I [15:0] $end
$var wire 16 m b12I [15:0] $end
$var wire 16 n b13I [15:0] $end
$var wire 16 o b14I [15:0] $end
$var wire 16 p b15I [15:0] $end
$var wire 16 q b1I [15:0] $end
$var wire 16 r b2I [15:0] $end
$var wire 16 s b3I [15:0] $end
$var wire 16 t b4I [15:0] $end
$var wire 16 u b5I [15:0] $end
$var wire 16 v b6I [15:0] $end
$var wire 16 w b7I [15:0] $end
$var wire 16 x b8I [15:0] $end
$var wire 16 y b9I [15:0] $end
$upscope $end
$scope module add49to64 $end
$var wire 16 z b0I [15:0] $end
$var wire 16 { b10I [15:0] $end
$var wire 16 | b11I [15:0] $end
$var wire 16 } b12I [15:0] $end
$var wire 16 ~ b13I [15:0] $end
$var wire 16 !" b14I [15:0] $end
$var wire 16 "" b15I [15:0] $end
$var wire 16 #" b1I [15:0] $end
$var wire 16 $" b2I [15:0] $end
$var wire 16 %" b3I [15:0] $end
$var wire 16 &" b4I [15:0] $end
$var wire 16 '" b5I [15:0] $end
$var wire 16 (" b6I [15:0] $end
$var wire 16 )" b7I [15:0] $end
$var wire 16 *" b8I [15:0] $end
$var wire 16 +" b9I [15:0] $end
$upscope $end
$upscope $end
$scope module CONTROL_LOGIC $end
$var wire 27 ," op_in [26:0] $end
$var wire 4 -" flag_in [3:0] $end
$var reg 18 ." ctrl_out [1:18] $end
$upscope $end
$scope module DATA_MEMORY $end
$var wire 1 /" c17 $end
$var wire 1 " clock $end
$var wire 8 0" data_memory_output [7:0] $end
$var wire 4 1" read_select [3:0] $end
$var wire 1 # reset $end
$var wire 1 $ run $end
$var wire 4 2" write_select [3:0] $end
$var wire 8 3" inp [7:0] $end
$var integer 32 4" i [31:0] $end
$scope module addr $end
$var wire 8 5" b0I [7:0] $end
$var wire 8 6" b10I [7:0] $end
$var wire 8 7" b11I [7:0] $end
$var wire 8 8" b12I [7:0] $end
$var wire 8 9" b13I [7:0] $end
$var wire 8 :" b14I [7:0] $end
$var wire 8 ;" b15I [7:0] $end
$var wire 8 <" b1I [7:0] $end
$var wire 8 =" b2I [7:0] $end
$var wire 8 >" b3I [7:0] $end
$var wire 8 ?" b4I [7:0] $end
$var wire 8 @" b5I [7:0] $end
$var wire 8 A" b6I [7:0] $end
$var wire 8 B" b7I [7:0] $end
$var wire 8 C" b8I [7:0] $end
$var wire 8 D" b9I [7:0] $end
$upscope $end
$upscope $end
$scope module DMEM_Input_Mux $end
$var wire 8 E" b [7:0] $end
$var wire 1 F" s $end
$var wire 8 G" out [7:0] $end
$var wire 8 H" a [7:0] $end
$upscope $end
$scope module FLAGS $end
$var wire 1 I" c14 $end
$var wire 1 " clock $end
$var wire 4 J" flag_input [3:0] $end
$var wire 1 # reset $end
$var wire 1 $ run $end
$var reg 4 K" flag_reg [3:0] $end
$upscope $end
$scope module OPCODE_DECODER $end
$var wire 1 L" dec_en $end
$var wire 8 M" opcode_in [7:0] $end
$var wire 1 N" y15 $end
$var wire 1 O" y12 $end
$var wire 1 P" y1 $end
$var wire 27 Q" opcode_out [26:0] $end
$scope module decoder1 $end
$var wire 1 L" dec_en $end
$var wire 4 R" dec_in [3:0] $end
$var wire 16 S" dec_out [15:0] $end
$upscope $end
$scope module decoder2 $end
$var wire 1 P" dec_en $end
$var wire 2 T" dec_in [1:0] $end
$var wire 4 U" dec_out [3:0] $end
$upscope $end
$scope module decoder3 $end
$var wire 1 O" dec_en $end
$var wire 1 V" dec_in $end
$var wire 2 W" dec_out [1:0] $end
$upscope $end
$scope module decoder4 $end
$var wire 1 N" dec_en $end
$var wire 2 X" dec_in [1:0] $end
$var wire 4 Y" dec_out [3:0] $end
$upscope $end
$upscope $end
$scope module PC_UPDATE $end
$var wire 1 Z" c2 $end
$var wire 6 [" offset [5:0] $end
$var wire 6 \" next_pc [5:0] $end
$var wire 6 ]" current_pc_plus_1 [5:0] $end
$var wire 6 ^" current_pc [5:0] $end
$upscope $end
$scope module PROGRAM_COUNTER $end
$var wire 1 _" c3 $end
$var wire 1 " clock $end
$var wire 6 `" pc_input [5:0] $end
$var wire 1 # reset $end
$var wire 1 $ run $end
$var reg 6 a" pc_reg [5:0] $end
$upscope $end
$scope module REGISTERS $end
$var wire 1 b" c10 $end
$var wire 1 c" c4 $end
$var wire 1 d" c5 $end
$var wire 1 e" c6 $end
$var wire 1 f" c7 $end
$var wire 1 g" c8 $end
$var wire 1 h" c9 $end
$var wire 1 " clock $end
$var wire 1 # reset $end
$var wire 1 $ run $end
$var wire 8 i" inp [7:0] $end
$var reg 8 j" A [7:0] $end
$var reg 8 k" B [7:0] $end
$var reg 8 l" C [7:0] $end
$var reg 8 m" D [7:0] $end
$var reg 8 n" output_one [7:0] $end
$var reg 8 o" output_two [7:0] $end
$upscope $end
$scope module REG_Writeback_Mux $end
$var wire 8 p" a [7:0] $end
$var wire 8 q" b [7:0] $end
$var wire 1 r" s $end
$var wire 8 s" out [7:0] $end
$upscope $end
$upscope $end
$upscope $end
$enddefinitions $end
#0
$dumpvars
b0 s"
0r"
b111 q"
b0 p"
b0 o"
b0 n"
b0 m"
b0 l"
b0 k"
b0 j"
b0 i"
0h"
0g"
0f"
0e"
0d"
0c"
1b"
b100000 a"
b100001 `"
1_"
b100000 ^"
b100001 ]"
b100001 \"
b0 ["
0Z"
b0 Y"
b0 X"
b0 W"
0V"
b0 U"
b0 T"
b1000 S"
b11 R"
b1000000 Q"
0P"
0O"
0N"
b110000 M"
1L"
b0 K"
b1 J"
0I"
b0 H"
b0 G"
0F"
b0 E"
b0 D"
b111 C"
b1000 B"
b101 A"
b100 @"
b110 ?"
b1 >"
b10 ="
b11 <"
b0 ;"
b0 :"
b0 9"
b0 8"
b0 7"
b0 6"
b111 5"
b10000 4"
b0 3"
b0 2"
b0 1"
b111 0"
0/"
b1000000100001000 ."
b0 -"
b1000000 ,"
b0 +"
b0 *"
b0 )"
b0 ("
b0 '"
b0 &"
b0 %"
b1110000011101110 $"
b101000000000001 #"
b0 ""
b0 !"
b0 ~
b0 }
b0 |
b0 {
b1110000011110100 z
b1001100100000000 y
b1111001100001000 x
b1101011100000000 w
b110110000000000 v
b1000110000001000 u
b1111001100001110 t
b1101001100000000 s
b11010000000000 r
b1000110000001000 q
b101010000000001 p
b1011100100000001 o
b1011110100000000 n
b1111001100000010 m
b1101111000000000 l
b1001110100000001 k
b11000000000000 j
b0 i
b0 h
b0 g
b0 f
b0 e
b0 d
b0 c
b0 b
b1110000000011110 a
b0 `
b0 _
b0 ^
b0 ]
b0 \
b0 [
b0 Z
b0 Y
b0 X
b0 W
b0 V
b0 U
b0 T
b0 S
b0 R
b0 Q
b0 P
b0 O
b0 N
b0 M
b0 L
b0 K
b0 J
b1000000 I
b100000 H
b0 G
b0 F
b11000000000000 E
0D
b0 C
b0 B
0A
b0 @
b0 ?
1>
b0 =
b0 <
b0 ;
b0 :
b1 9
b0 8
b0 7
06
05
b1 4
b0 3
b0 2
b0 1
b0 0
b1000000100001000 /
b100000 .
b111 -
b0 ,
b0 +
b11000000000000 *
b100001 )
b1000000 (
b0 '
b0 &
b0 %
0$
1#
0"
b0 !
$end
#10000
b10000 4"
b1000000 I
1"
#20000
0"
#30000
b1000000 I
b10000 4"
1"
#40000
0"
0#
#45000
1$
#50000
1r"
1h"
1g"
b111 '
b111 i"
b111 s"
b1000 1"
b1000 2"
b1000 G
b1000011100001001 /
b1000011100001001 ."
b1000 0
b1000 ?
b1000 p"
b110000000000000100000000000 (
b110000000000000100000000000 ,"
b110000000000000100000000000 Q"
b100000000 S"
b1000 R"
b100010 )
b100010 \"
b100010 `"
b1000 ["
b1000 =
b1000 @
b10001100 M"
b100010 ]"
b1000110000001000 *
b1000110000001000 E
b100001 .
b100001 H
b100001 ^"
b100001 a"
b0 4"
b0 I
1"
#60000
0"
#70000
b0 '
b0 i"
b0 s"
0r"
0g"
b0 1"
b0 2"
b0 G
b1000001100001000 /
b1000001100001000 ."
b0 0
b0 ?
b0 p"
b10000000000000000001000000 (
b10000000000000000001000000 ,"
b10000000000000000001000000 Q"
b1000 S"
b11 R"
b100011 )
b100011 \"
b100011 `"
b0 ["
b0 =
b0 @
b110100 M"
b111 m"
b100011 ]"
b11010000000000 *
b11010000000000 E
b100010 .
b100010 H
b100010 ^"
b100010 a"
1"
#80000
0"
#90000
b11111001 '
b11111001 i"
b11111001 s"
b0 -
b0 0"
b0 q"
b1001 1"
b1001 2"
b111001 G
b11111001 0
b11111001 ?
b11111001 p"
b11111001 1
b11111001 :
b11111001 <
b111 ,
b111 3"
b111 G"
b111 2
b111 7
b111 B
b11111001 ;
b10 4
b10 9
b10 J"
b111 &
b111 C
b111 H"
b111 o"
1I"
16
15
1f"
1e"
0>
0b"
0h"
b1001100001110000 /
b1001100001110000 ."
b1100000100000000000000000 (
b1100000100000000000000000 ,"
b1100000100000000000000000 Q"
b10000000000000 S"
b1101 R"
b11 T"
1V"
b11 X"
b100100 )
b100100 \"
b100100 `"
b11010011 M"
b100100 ]"
b1101001100000000 *
b1101001100000000 E
b100011 .
b100011 H
b100011 ^"
b100011 a"
1"
#100000
0"
#110000
b0 '
b0 i"
b0 s"
b111 -
b111 0"
b111 q"
b0 1"
b0 2"
b0 G
b0 ,
b0 3"
b0 G"
b0 2
b0 7
b0 B
b0 0
b0 ?
b0 p"
b0 &
b0 C
b0 H"
b0 o"
b0 ;
b1 4
b1 9
b1 J"
b0 1
b0 :
b0 <
0f"
0e"
0I"
06
05
b1000 Y"
b1110000000000000000000000 (
b1110000000000000000000000 ,"
b1110000000000000000000000 Q"
1N"
b1000000000000000 S"
b1111 R"
b1000000000000000 /
b1000000000000000 ."
b100101 )
b100101 \"
b100101 `"
b1110 ["
b1110 =
b1110 @
b11110011 M"
b10 +
b10 -"
b10 K"
b100101 ]"
b1111001100001110 *
b1111001100001110 E
b100100 .
b100100 H
b100100 ^"
b100100 a"
1"
#120000
0"
#130000
b1000 1"
b1000 2"
b1000 G
b111 '
b111 i"
b111 s"
b1000 0
b1000 ?
b1000 p"
1r"
1>
1b"
1h"
1g"
b1000011100001001 /
b1000011100001001 ."
0N"
b0 Y"
b110000000000000100000000000 (
b110000000000000100000000000 ,"
b110000000000000100000000000 Q"
b100000000 S"
b1000 R"
b0 T"
0V"
b0 X"
b100110 )
b100110 \"
b100110 `"
b1000 ["
b1000 =
b1000 @
b10001100 M"
b100110 ]"
b1000110000001000 *
b1000110000001000 E
b100101 .
b100101 H
b100101 ^"
b100101 a"
1"
#140000
0"
#150000
b1000 -
b1000 0"
b1000 q"
b111 1
b111 :
b111 <
b100000111 ;
b1000 4
b1000 9
b1000 J"
b111 3
b111 8
b111 n"
b111 '
b111 i"
b111 s"
1I"
16
15
1d"
1c"
0r"
0>
b1110011101110000 /
b1110011101110000 ."
b111 1"
b111 2"
b111 G
b110000000000000001000000000 (
b110000000000000001000000000 ,"
b110000000000000001000000000 Q"
b111 0
b111 ?
b111 p"
b1000000 S"
b110 R"
b100111 )
b100111 \"
b100111 `"
b0 ["
b0 =
b0 @
b1101100 M"
b100111 ]"
b110110000000000 *
b110110000000000 E
b100110 .
b100110 H
b100110 ^"
b100110 a"
1"
#160000
0"
#170000
b11111001 '
b11111001 i"
b11111001 s"
b0 -
b0 0"
b0 q"
b1001 1"
b1001 2"
b111001 G
b11111001 0
b11111001 ?
b11111001 p"
b111 ,
b111 3"
b111 G"
b111 2
b111 7
b111 B
b11111001 ;
b10 4
b10 9
b10 J"
b11111001 1
b11111001 :
b11111001 <
b111 &
b111 C
b111 H"
b111 o"
b0 3
b0 8
b0 n"
1f"
1e"
0c"
0b"
0h"
0g"
b11100000100000000000000000 (
b11100000100000000000000000 ,"
b11100000100000000000000000 Q"
b10000000000000 S"
b1101 R"
b11 T"
1V"
b11 X"
b101000 )
b101000 \"
b101000 `"
b11010111 M"
b1011100001110000 /
b1011100001110000 ."
b101000 ]"
b1101011100000000 *
b1101011100000000 E
b100111 .
b100111 H
b100111 ^"
b100111 a"
b1000 +
b1000 -"
b1000 K"
1"
#180000
0"
#190000
b0 '
b0 i"
b0 s"
b111 -
b111 0"
b111 q"
b0 1"
b0 2"
b0 G
b0 ,
b0 3"
b0 G"
b0 2
b0 7
b0 B
b0 0
b0 ?
b0 p"
b0 &
b0 C
b0 H"
b0 o"
b0 ;
b1 4
b1 9
b1 J"
b0 1
b0 :
b0 <
0f"
0e"
0d"
0I"
06
05
b1000 Y"
1N"
b1110000000000000000000000 (
b1110000000000000000000000 ,"
b1110000000000000000000000 Q"
b1000000000000000 S"
b1111 R"
b1000000000000000 /
b1000000000000000 ."
b101001 )
b101001 \"
b101001 `"
b1000 ["
b1000 =
b1000 @
b11110011 M"
b10 +
b10 -"
b10 K"
b101001 ]"
b1111001100001000 *
b1111001100001000 E
b101000 .
b101000 H
b101000 ^"
b101000 a"
1"
#200000
0"
#210000
b111 '
b111 i"
b111 s"
b1 4
b1 9
b1 J"
1r"
15
1A
1b"
1g"
1d"
0Z"
b1010010111000001 /
b1010010111000001 ."
0N"
b0 Y"
b100100000000001000000000000 (
b100100000000001000000000000 ,"
b100100000000001000000000000 Q"
b1000000000 S"
b1001 R"
b1 T"
b1 X"
b101010 )
b101010 \"
b101010 `"
b0 ["
b0 =
b0 @
b10011001 M"
b101010 ]"
b1001100100000000 *
b1001100100000000 E
b101001 .
b101001 H
b101001 ^"
b101001 a"
1"
#220000
0"
#230000
b11 '
b11 i"
b11 s"
b11 -
b11 0"
b11 q"
b1 1"
b1 2"
b1 G
b1 0
b1 ?
b1 p"
1h"
b1 1
b1 :
b1 <
b1 ;
b0 4
b0 9
b0 J"
b1010011111000001 /
b1010011111000001 ."
b1 2
b1 7
b1 B
b110100000000001000000000000 (
b110100000000001000000000000 ,"
b110100000000001000000000000 Q"
b101011 )
b101011 \"
b101011 `"
b1 ["
b1 =
b1 @
b10011101 M"
b111 l"
b101011 ]"
b1001110100000001 *
b1001110100000001 E
b101010 .
b101010 H
b101010 ^"
b101010 a"
1"
#240000
0"
#250000
b111 ,
b111 3"
b111 G"
b0 -
b0 0"
b0 q"
b1100 1"
b1100 2"
b111100 G
b111 &
b111 C
b111 H"
b111 o"
b11 3
b11 8
b11 n"
b11111100 '
b11111100 i"
b11111100 s"
b11111100 0
b11111100 ?
b11111100 p"
1I"
16
1e"
1c"
0r"
0A
0b"
0h"
0g"
b10 4
b10 9
b10 J"
b11111100 ;
b11111100 1
b11111100 :
b11111100 <
b1111000001110000 /
b1111000001110000 ."
b111 2
b111 7
b111 B
b111000000100000000000000000 (
b111000000100000000000000000 ,"
b111000000100000000000000000 Q"
b10000000000000 S"
b1101 R"
b10 T"
0V"
b10 X"
b101100 )
b101100 \"
b101100 `"
b0 ["
b0 =
b0 @
b11011110 M"
b101100 ]"
b1101111000000000 *
b1101111000000000 E
b101011 .
b101011 H
b101011 ^"
b101011 a"
b11 m"
1"
#260000
0"
#270000
b0 '
b0 i"
b0 s"
b111 -
b111 0"
b111 q"
b0 1"
b0 2"
b0 G
b0 ,
b0 3"
b0 G"
b0 2
b0 7
b0 B
b0 0
b0 ?
b0 p"
b0 &
b0 C
b0 H"
b0 o"
b0 3
b0 8
b0 n"
b0 ;
b1 4
b1 9
b1 J"
b0 1
b0 :
b0 <
0e"
0d"
0c"
0I"
06
05
b1000 Y"
b1000000000000000 /
b1000000000000000 ."
1N"
b1110000000000000000000000 (
b1110000000000000000000000 ,"
b1110000000000000000000000 Q"
b1000000000000000 S"
b1111 R"
b11 T"
1V"
b11 X"
b101101 )
b101101 \"
b101101 `"
b10 ["
b10 =
b10 @
b11110011 M"
b101101 ]"
b1111001100000010 *
b1111001100000010 E
b101100 .
b101100 H
b101100 ^"
b101100 a"
1"
#280000
0"
#290000
b11 ,
b11 3"
b11 G"
b1 4
b1 9
b1 J"
b11 &
b11 C
b11 H"
b11 o"
1/"
15
1A
1f"
1e"
0Z"
b1001100011000010 /
b1001100011000010 ."
0N"
b0 Y"
b110100000000100000000000000 (
b110100000000100000000000000 ,"
b110100000000100000000000000 Q"
b100000000000 S"
b1011 R"
b1 T"
b1 X"
b101110 )
b101110 \"
b101110 `"
b0 ["
b0 =
b0 @
b10111101 M"
b101110 ]"
b1011110100000000 *
b1011110100000000 E
b101101 .
b101101 H
b101101 ^"
b101101 a"
1"
#300000
0"
#310000
b111 ,
b111 3"
b111 G"
b1 '
b1 i"
b1 s"
b1 1"
b1 2"
b1 G
b111 &
b111 C
b111 H"
b111 o"
b1 0
b1 ?
b1 p"
0f"
b1 1
b1 :
b1 <
b1 ;
b0 4
b0 9
b0 J"
b1001000011000010 /
b1001000011000010 ."
b1 2
b1 7
b1 B
b100100000000100000000000000 (
b100100000000100000000000000 ,"
b100100000000100000000000000 Q"
b101111 )
b101111 \"
b101111 `"
b1 ["
b1 =
b1 @
b10111001 M"
b11 -
b11 0"
b11 q"
b101111 ]"
b1011100100000001 *
b1011100100000001 E
b101110 .
b101110 H
b101110 ^"
b101110 a"
1"
#320000
0"
#330000
b0 ,
b0 3"
b0 G"
b0 &
b0 C
b0 H"
b0 o"
1I"
1b"
1h"
1d"
0/"
0e"
b1010001111010000 /
b1010001111010000 ."
b10000000000000000100000000 (
b10000000000000000100000000 ,"
b10000000000000000100000000 Q"
b100000 S"
b101 R"
b0 T"
0V"
b0 X"
b110000 )
b110000 \"
b110000 `"
b1010100 M"
b110000 ]"
b101010000000001 *
b101010000000001 E
b101111 .
b101111 H
b101111 ^"
b101111 a"
b111 -
b111 0"
b111 q"
1"
#340000
0"
#350000
b0 '
b0 i"
b0 s"
b11 -
b11 0"
b11 q"
b0 1"
b0 2"
b0 G
b0 0
b0 ?
b0 p"
1Z"
0A
0d"
0b"
0h"
0I"
05
b1 4
b1 9
b1 J"
b0 ;
b0 1
b0 :
b0 <
b0 2
b0 7
b0 B
b1000000000000000000 (
b1000000000000000000 ,"
b1000000000000000000 Q"
b100000000000000 S"
b1110 R"
b11000000000000000 /
b11000000000000000 ."
b100101 )
b100101 \"
b100101 `"
b110100 ["
b11110100 =
b11110100 @
b11100000 M"
b0 +
b0 -"
b0 K"
b1 k"
b110001 ]"
b1110000011110100 *
b1110000011110100 E
b110000 .
b110000 H
b110000 ^"
b110000 a"
1"
#360000
0"
#370000
b111 -
b111 0"
b111 q"
b1000 1"
b1000 2"
b1000 G
b111 '
b111 i"
b111 s"
b1000 0
b1000 ?
b1000 p"
1r"
1>
1b"
1h"
1g"
0Z"
b1000011100001001 /
b1000011100001001 ."
b110000000000000100000000000 (
b110000000000000100000000000 ,"
b110000000000000100000000000 Q"
b100000000 S"
b1000 R"
b100110 )
b100110 \"
b100110 `"
b1000 ["
b1000 =
b1000 @
b10001100 M"
b100110 ]"
b1000110000001000 *
b1000110000001000 E
b100101 .
b100101 H
b100101 ^"
b100101 a"
1"
#380000
0"
#390000
b111 1
b111 :
b111 <
b100000111 ;
b1000 4
b1000 9
b1000 J"
b111 3
b111 8
b111 n"
1I"
16
15
1d"
1c"
0r"
0>
b111 '
b111 i"
b111 s"
b1110011101110000 /
b1110011101110000 ."
b1000 -
b1000 0"
b1000 q"
b111 1"
b111 2"
b111 G
b110000000000000001000000000 (
b110000000000000001000000000 ,"
b110000000000000001000000000 Q"
b111 0
b111 ?
b111 p"
b1000000 S"
b110 R"
b100111 )
b100111 \"
b100111 `"
b0 ["
b0 =
b0 @
b1101100 M"
b111 m"
b100111 ]"
b110110000000000 *
b110110000000000 E
b100110 .
b100110 H
b100110 ^"
b100110 a"
1"
#400000
0"
#410000
b11111010 '
b11111010 i"
b11111010 s"
b0 -
b0 0"
b0 q"
b1010 1"
b1010 2"
b111010 G
b11111010 0
b11111010 ?
b11111010 p"
b111 ,
b111 3"
b111 G"
b111 2
b111 7
b111 B
b11111010 ;
b10 4
b10 9
b10 J"
b11111010 1
b11111010 :
b11111010 <
b111 &
b111 C
b111 H"
b111 o"
b1 3
b1 8
b1 n"
1f"
1e"
0c"
0b"
0h"
0g"
b11100000100000000000000000 (
b11100000100000000000000000 ,"
b11100000100000000000000000 Q"
b10000000000000 S"
b1101 R"
b11 T"
1V"
b11 X"
b101000 )
b101000 \"
b101000 `"
b11010111 M"
b1011100001110000 /
b1011100001110000 ."
b101000 ]"
b1101011100000000 *
b1101011100000000 E
b100111 .
b100111 H
b100111 ^"
b100111 a"
b1000 +
b1000 -"
b1000 K"
1"
#420000
0"
#430000
b0 '
b0 i"
b0 s"
b11 -
b11 0"
b11 q"
b0 1"
b0 2"
b0 G
b0 ,
b0 3"
b0 G"
b0 2
b0 7
b0 B
b0 0
b0 ?
b0 p"
b0 &
b0 C
b0 H"
b0 o"
b0 3
b0 8
b0 n"
b0 ;
b1 4
b1 9
b1 J"
b0 1
b0 :
b0 <
0f"
0e"
0d"
0I"
06
05
b1000 Y"
1N"
b1110000000000000000000000 (
b1110000000000000000000000 ,"
b1110000000000000000000000 Q"
b1000000000000000 S"
b1111 R"
b1000000000000000 /
b1000000000000000 ."
b101001 )
b101001 \"
b101001 `"
b1000 ["
b1000 =
b1000 @
b11110011 M"
b10 +
b10 -"
b10 K"
b101001 ]"
b1111001100001000 *
b1111001100001000 E
b101000 .
b101000 H
b101000 ^"
b101000 a"
1"
#440000
0"
#450000
b111 -
b111 0"
b111 q"
b1 1"
b1 2"
b1 G
b1 0
b1 ?
b1 p"
b111 '
b111 i"
b111 s"
b1 1
b1 :
b1 <
b1 ;
b0 4
b0 9
b0 J"
b1 3
b1 8
b1 n"
1r"
15
1A
1b"
1g"
1d"
0Z"
b1010010111000001 /
b1010010111000001 ."
0N"
b0 Y"
b100100000000001000000000000 (
b100100000000001000000000000 ,"
b100100000000001000000000000 Q"
b1000000000 S"
b1001 R"
b1 T"
b1 X"
b101010 )
b101010 \"
b101010 `"
b0 ["
b0 =
b0 @
b10011001 M"
b101010 ]"
b1001100100000000 *
b1001100100000000 E
b101001 .
b101001 H
b101001 ^"
b101001 a"
1"
#460000
0"
#470000
b10 '
b10 i"
b10 s"
b10 -
b10 0"
b10 q"
b10 1"
b10 2"
b10 G
b10 0
b10 ?
b10 p"
1h"
b10 ;
b10 1
b10 :
b10 <
b1010011111000001 /
b1010011111000001 ."
b1 2
b1 7
b1 B
b110100000000001000000000000 (
b110100000000001000000000000 ,"
b110100000000001000000000000 Q"
b101011 )
b101011 \"
b101011 `"
b1 ["
b1 =
b1 @
b10011101 M"
b101011 ]"
b1001110100000001 *
b1001110100000001 E
b101010 .
b101010 H
b101010 ^"
b101010 a"
1"
#480000
0"
#490000
b111 ,
b111 3"
b111 G"
b0 -
b0 0"
b0 q"
b1011 1"
b1011 2"
b111011 G
b10 4
b10 9
b10 J"
b111 &
b111 C
b111 H"
b111 o"
b10 3
b10 8
b10 n"
b11111011 '
b11111011 i"
b11111011 s"
b11111011 0
b11111011 ?
b11111011 p"
1I"
16
1e"
1c"
0r"
0A
0b"
0h"
0g"
b11111011 ;
b11111011 1
b11111011 :
b11111011 <
b1111000001110000 /
b1111000001110000 ."
b111 2
b111 7
b111 B
b111000000100000000000000000 (
b111000000100000000000000000 ,"
b111000000100000000000000000 Q"
b10000000000000 S"
b1101 R"
b10 T"
0V"
b10 X"
b101100 )
b101100 \"
b101100 `"
b0 ["
b0 =
b0 @
b11011110 M"
b101100 ]"
b1101111000000000 *
b1101111000000000 E
b101011 .
b101011 H
b101011 ^"
b101011 a"
b10 m"
1"
#500000
0"
#510000
b0 '
b0 i"
b0 s"
b11 -
b11 0"
b11 q"
b0 1"
b0 2"
b0 G
b0 ,
b0 3"
b0 G"
b0 2
b0 7
b0 B
b0 0
b0 ?
b0 p"
b0 &
b0 C
b0 H"
b0 o"
b0 3
b0 8
b0 n"
b0 ;
b1 4
b1 9
b1 J"
b0 1
b0 :
b0 <
0e"
0d"
0c"
0I"
06
05
b1000 Y"
b1000000000000000 /
b1000000000000000 ."
1N"
b1110000000000000000000000 (
b1110000000000000000000000 ,"
b1110000000000000000000000 Q"
b1000000000000000 S"
b1111 R"
b11 T"
1V"
b11 X"
b101101 )
b101101 \"
b101101 `"
b10 ["
b10 =
b10 @
b11110011 M"
b101101 ]"
b1111001100000010 *
b1111001100000010 E
b101100 .
b101100 H
b101100 ^"
b101100 a"
1"
#520000
0"
#530000
b10 ,
b10 3"
b10 G"
b1 4
b1 9
b1 J"
b10 &
b10 C
b10 H"
b10 o"
1/"
15
1A
1f"
1e"
0Z"
b1001100011000010 /
b1001100011000010 ."
0N"
b0 Y"
b110100000000100000000000000 (
b110100000000100000000000000 ,"
b110100000000100000000000000 Q"
b100000000000 S"
b1011 R"
b1 T"
b1 X"
b101110 )
b101110 \"
b101110 `"
b0 ["
b0 =
b0 @
b10111101 M"
b101110 ]"
b1011110100000000 *
b1011110100000000 E
b101101 .
b101101 H
b101101 ^"
b101101 a"
1"
#540000
0"
#550000
b111 ,
b111 3"
b111 G"
b1 '
b1 i"
b1 s"
b1 1"
b1 2"
b1 G
b111 &
b111 C
b111 H"
b111 o"
b1 0
b1 ?
b1 p"
0f"
b1 1
b1 :
b1 <
b1 ;
b0 4
b0 9
b0 J"
b1001000011000010 /
b1001000011000010 ."
b1 2
b1 7
b1 B
b100100000000100000000000000 (
b100100000000100000000000000 ,"
b100100000000100000000000000 Q"
b101111 )
b101111 \"
b101111 `"
b1 ["
b1 =
b1 @
b10111001 M"
b111 -
b111 0"
b111 q"
b101111 ]"
b1011100100000001 *
b1011100100000001 E
b101110 .
b101110 H
b101110 ^"
b101110 a"
1"
#560000
0"
#570000
b10 '
b10 i"
b10 s"
b10 -
b10 0"
b10 q"
b10 1"
b10 2"
b10 G
b10 0
b10 ?
b10 p"
b0 ,
b0 3"
b0 G"
b10 ;
b10 1
b10 :
b10 <
b0 &
b0 C
b0 H"
b0 o"
b1 3
b1 8
b1 n"
1I"
1b"
1h"
1d"
0/"
0e"
b1010001111010000 /
b1010001111010000 ."
b10000000000000000100000000 (
b10000000000000000100000000 ,"
b10000000000000000100000000 Q"
b100000 S"
b101 R"
b0 T"
0V"
b0 X"
b110000 )
b110000 \"
b110000 `"
b1010100 M"
b110000 ]"
b101010000000001 *
b101010000000001 E
b101111 .
b101111 H
b101111 ^"
b101111 a"
1"
#580000
0"
