i281_main/dump.vcd
$date
	Sat Nov 22 13:47:43 2025
$end
$version
	Icarus Verilog
$end
$timescale
	1ps
$end
$scope module i281_toplevel_tb $end
$var wire 16 ! switches [15:0] $end
$var wire 8 " datamem9 [7:0] $end
$var wire 8 # datamem8 [7:0] $end
$var wire 8 $ datamem7 [7:0] $end
$var wire 8 % datamem6 [7:0] $end
$var wire 8 & datamem5 [7:0] $end
$var wire 8 ' datamem4 [7:0] $end
$var wire 8 ( datamem3 [7:0] $end
$var wire 8 ) datamem2 [7:0] $end
$var wire 8 * datamem15 [7:0] $end
$var wire 8 + datamem14 [7:0] $end
$var wire 8 , datamem13 [7:0] $end
$var wire 8 - datamem12 [7:0] $end
$var wire 8 . datamem11 [7:0] $end
$var wire 8 / datamem10 [7:0] $end
$var wire 8 0 datamem1 [7:0] $end
$var wire 8 1 datamem0 [7:0] $end
$var reg 1 2 clock $end
$var reg 1 3 reset $end
$var reg 1 4 run $end
$scope module dut $end
$var wire 1 2 clock $end
$var wire 1 3 reset $end
$var wire 1 4 run $end
$var wire 16 5 switches [15:0] $end
$var wire 8 6 register_output_two [7:0] $end
$var wire 8 7 reg_in [7:0] $end
$var wire 27 8 op_in [26:0] $end
$var wire 6 9 next_pc [5:0] $end
$var wire 16 : instruction [15:0] $end
$var wire 4 ; flag_in [3:0] $end
$var wire 8 < dmem_input_mux_out [7:0] $end
$var wire 8 = datamem9 [7:0] $end
$var wire 8 > datamem8 [7:0] $end
$var wire 8 ? datamem7 [7:0] $end
$var wire 8 @ datamem6 [7:0] $end
$var wire 8 A datamem5 [7:0] $end
$var wire 8 B datamem4 [7:0] $end
$var wire 8 C datamem3 [7:0] $end
$var wire 8 D datamem2 [7:0] $end
$var wire 8 E datamem15 [7:0] $end
$var wire 8 F datamem14 [7:0] $end
$var wire 8 G datamem13 [7:0] $end
$var wire 8 H datamem12 [7:0] $end
$var wire 8 I datamem11 [7:0] $end
$var wire 8 J datamem10 [7:0] $end
$var wire 8 K datamem1 [7:0] $end
$var wire 8 L datamem0 [7:0] $end
$var wire 8 M data_memory_out [7:0] $end
$var wire 6 N current_pc [5:0] $end
$var wire 18 O ctrl_out [1:18] $end
$var wire 8 P alu_result_mux_out [7:0] $end
$var wire 8 Q alu_result [7:0] $end
$var wire 8 R alu_in_two [7:0] $end
$var wire 8 S alu_in_one [7:0] $end
$var wire 4 T alu_flags [3:0] $end
$scope module ALU $end
$var wire 1 U c12 $end
$var wire 1 V c13 $end
$var wire 8 W alu_in_two [7:0] $end
$var wire 8 X alu_in_one [7:0] $end
$var reg 4 Y alu_flags [3:0] $end
$var reg 8 Z alu_result [7:0] $end
$var reg 9 [ catch_flags [8:0] $end
$upscope $end
$scope module ALU_Result_Mux $end
$var wire 8 \ a [7:0] $end
$var wire 8 ] b [7:0] $end
$var wire 1 ^ s $end
$var wire 8 _ out [7:0] $end
$upscope $end
$scope module ALU_Source_Mux $end
$var wire 8 ` b [7:0] $end
$var wire 1 a s $end
$var wire 8 b out [7:0] $end
$var wire 8 c a [7:0] $end
$upscope $end
$scope module CODE_MEMORY $end
$var wire 1 d c1 $end
$var wire 1 2 clock $end
$var wire 16 e curr_instruction [15:0] $end
$var wire 16 f inp [15:0] $end
$var wire 1 3 reset $end
$var wire 1 4 run $end
$var wire 6 g write_select [5:0] $end
$var wire 6 h read_select [5:0] $end
$var integer 32 i i [31:0] $end
$scope module add17to32 $end
$var wire 16 j b0I [15:0] $end
$var wire 16 k b10I [15:0] $end
$var wire 16 l b11I [15:0] $end
$var wire 16 m b12I [15:0] $end
$var wire 16 n b13I [15:0] $end
$var wire 16 o b14I [15:0] $end
$var wire 16 p b15I [15:0] $end
$var wire 16 q b1I [15:0] $end
$var wire 16 r b2I [15:0] $end
$var wire 16 s b3I [15:0] $end
$var wire 16 t b4I [15:0] $end
$var wire 16 u b5I [15:0] $end
$var wire 16 v b6I [15:0] $end
$var wire 16 w b7I [15:0] $end
$var wire 16 x b8I [15:0] $end
$var wire 16 y b9I [15:0] $end
$upscope $end
$scope module add1to16 $end
$var wire 16 z b0I [15:0] $end
$var wire 16 { b10I [15:0] $end
$var wire 16 | b11I [15:0] $end
$var wire 16 } b12I [15:0] $end
$var wire 16 ~ b13I [15:0] $end
$var wire 16 !" b14I [15:0] $end
$var wire 16 "" b15I [15:0] $end
$var wire 16 #" b1I [15:0] $end
$var wire 16 $" b2I [15:0] $end
$var wire 16 %" b3I [15:0] $end
$var wire 16 &" b4I [15:0] $end
$var wire 16 '" b5I [15:0] $end
$var wire 16 (" b6I [15:0] $end
$var wire 16 )" b7I [15:0] $end
$var wire 16 *" b8I [15:0] $end
$var wire 16 +" b9I [15:0] $end
$upscope $end
$scope module add33to48 $end
$var wire 16 ," b0I [15:0] $end
$var wire 16 -" b10I [15:0] $end
$var wire 16 ." b11I [15:0] $end
$var wire 16 /" b12I [15:0] $end
$var wire 16 0" b13I [15:0] $end
$var wire 16 1" b14I [15:0] $end
$var wire 16 2" b15I [15:0] $end
$var wire 16 3" b1I [15:0] $end
$var wire 16 4" b2I [15:0] $end
$var wire 16 5" b3I [15:0] $end
$var wire 16 6" b4I [15:0] $end
$var wire 16 7" b5I [15:0] $end
$var wire 16 8" b6I [15:0] $end
$var wire 16 9" b7I [15:0] $end
$var wire 16 :" b8I [15:0] $end
$var wire 16 ;" b9I [15:0] $end
$upscope $end
$scope module add49to64 $end
$var wire 16 <" b0I [15:0] $end
$var wire 16 =" b10I [15:0] $end
$var wire 16 >" b11I [15:0] $end
$var wire 16 ?" b12I [15:0] $end
$var wire 16 @" b13I [15:0] $end
$var wire 16 A" b14I [15:0] $end
$var wire 16 B" b15I [15:0] $end
$var wire 16 C" b1I [15:0] $end
$var wire 16 D" b2I [15:0] $end
$var wire 16 E" b3I [15:0] $end
$var wire 16 F" b4I [15:0] $end
$var wire 16 G" b5I [15:0] $end
$var wire 16 H" b6I [15:0] $end
$var wire 16 I" b7I [15:0] $end
$var wire 16 J" b8I [15:0] $end
$var wire 16 K" b9I [15:0] $end
$upscope $end
$upscope $end
$scope module CONTROL_LOGIC $end
$var wire 27 L" op_in [26:0] $end
$var wire 4 M" flag_in [3:0] $end
$var reg 18 N" ctrl_out [1:18] $end
$upscope $end
$scope module DATA_MEMORY $end
$var wire 1 O" c17 $end
$var wire 1 2 clock $end
$var wire 8 P" data_memory_output [7:0] $end
$var wire 8 Q" datamem0 [7:0] $end
$var wire 8 R" datamem1 [7:0] $end
$var wire 8 S" datamem10 [7:0] $end
$var wire 8 T" datamem11 [7:0] $end
$var wire 8 U" datamem12 [7:0] $end
$var wire 8 V" datamem13 [7:0] $end
$var wire 8 W" datamem14 [7:0] $end
$var wire 8 X" datamem15 [7:0] $end
$var wire 8 Y" datamem2 [7:0] $end
$var wire 8 Z" datamem3 [7:0] $end
$var wire 8 [" datamem4 [7:0] $end
$var wire 8 \" datamem5 [7:0] $end
$var wire 8 ]" datamem6 [7:0] $end
$var wire 8 ^" datamem7 [7:0] $end
$var wire 8 _" datamem8 [7:0] $end
$var wire 8 `" datamem9 [7:0] $end
$var wire 4 a" read_select [3:0] $end
$var wire 1 3 reset $end
$var wire 1 4 run $end
$var wire 4 b" write_select [3:0] $end
$var wire 8 c" inp [7:0] $end
$var integer 32 d" i [31:0] $end
$scope module addr $end
$var wire 8 e" b0I [7:0] $end
$var wire 8 f" b10I [7:0] $end
$var wire 8 g" b11I [7:0] $end
$var wire 8 h" b12I [7:0] $end
$var wire 8 i" b13I [7:0] $end
$var wire 8 j" b14I [7:0] $end
$var wire 8 k" b15I [7:0] $end
$var wire 8 l" b1I [7:0] $end
$var wire 8 m" b2I [7:0] $end
$var wire 8 n" b3I [7:0] $end
$var wire 8 o" b4I [7:0] $end
$var wire 8 p" b5I [7:0] $end
$var wire 8 q" b6I [7:0] $end
$var wire 8 r" b7I [7:0] $end
$var wire 8 s" b8I [7:0] $end
$var wire 8 t" b9I [7:0] $end
$upscope $end
$upscope $end
$scope module DMEM_Input_Mux $end
$var wire 8 u" b [7:0] $end
$var wire 1 v" s $end
$var wire 8 w" out [7:0] $end
$var wire 8 x" a [7:0] $end
$upscope $end
$scope module FLAGS $end
$var wire 1 y" c14 $end
$var wire 1 2 clock $end
$var wire 4 z" flag_input [3:0] $end
$var wire 1 3 reset $end
$var wire 1 4 run $end
$var reg 4 {" flag_reg [3:0] $end
$upscope $end
$scope module OPCODE_DECODER $end
$var wire 1 |" dec_en $end
$var wire 8 }" opcode_in [7:0] $end
$var wire 1 ~" y15 $end
$var wire 1 !# y12 $end
$var wire 1 "# y1 $end
$var wire 27 ## opcode_out [26:0] $end
$scope module decoder1 $end
$var wire 1 |" dec_en $end
$var wire 4 $# dec_in [3:0] $end
$var wire 16 %# dec_out [15:0] $end
$upscope $end
$scope module decoder2 $end
$var wire 1 "# dec_en $end
$var wire 2 &# dec_in [1:0] $end
$var wire 4 '# dec_out [3:0] $end
$upscope $end
$scope module decoder3 $end
$var wire 1 !# dec_en $end
$var wire 1 (# dec_in $end
$var wire 2 )# dec_out [1:0] $end
$upscope $end
$scope module decoder4 $end
$var wire 1 ~" dec_en $end
$var wire 2 *# dec_in [1:0] $end
$var wire 4 +# dec_out [3:0] $end
$upscope $end
$upscope $end
$scope module PC_UPDATE $end
$var wire 1 ,# c2 $end
$var wire 6 -# offset [5:0] $end
$var wire 6 .# next_pc [5:0] $end
$var wire 6 /# current_pc_plus_1 [5:0] $end
$var wire 6 0# current_pc [5:0] $end
$upscope $end
$scope module PROGRAM_COUNTER $end
$var wire 1 1# c3 $end
$var wire 1 2 clock $end
$var wire 6 2# pc_input [5:0] $end
$var wire 1 3 reset $end
$var wire 1 4 run $end
$var reg 6 3# pc_reg [5:0] $end
$upscope $end
$scope module REGISTERS $end
$var wire 1 4# c10 $end
$var wire 1 5# c4 $end
$var wire 1 6# c5 $end
$var wire 1 7# c6 $end
$var wire 1 8# c7 $end
$var wire 1 9# c8 $end
$var wire 1 :# c9 $end
$var wire 1 2 clock $end
$var wire 1 3 reset $end
$var wire 1 4 run $end
$var wire 8 ;# inp [7:0] $end
$var reg 8 <# A [7:0] $end
$var reg 8 =# B [7:0] $end
$var reg 8 ># C [7:0] $end
$var reg 8 ?# D [7:0] $end
$var reg 8 @# output_one [7:0] $end
$var reg 8 A# output_two [7:0] $end
$upscope $end
$scope module REG_Writeback_Mux $end
$var wire 8 B# a [7:0] $end
$var wire 8 C# b [7:0] $end
$var wire 1 D# s $end
$var wire 8 E# out [7:0] $end
$upscope $end
$upscope $end
$upscope $end
$enddefinitions $end
#0
$dumpvars
b0 E#
0D#
b111 C#
b0 B#
b0 A#
b0 @#
b0 ?#
b0 >#
b0 =#
b0 <#
b0 ;#
0:#
09#
08#
07#
06#
05#
14#
b100000 3#
b100001 2#
11#
b100000 0#
b100001 /#
b100001 .#
b0 -#
0,#
b0 +#
b0 *#
b0 )#
0(#
b0 '#
b0 &#
b1000 %#
b11 $#
b1000000 ##
0"#
0!#
0~"
b110000 }"
1|"
b0 {"
b1 z"
0y"
b0 x"
b0 w"
0v"
b0 u"
b0 t"
b111 s"
b1000 r"
b101 q"
b100 p"
b110 o"
b1 n"
b10 m"
b11 l"
b0 k"
b0 j"
b0 i"
b0 h"
b0 g"
b0 f"
b111 e"
b10000 d"
b0 c"
b0 b"
b0 a"
b0 `"
b111 _"
b1000 ^"
b101 ]"
b100 \"
b110 ["
b1 Z"
b10 Y"
b0 X"
b0 W"
b0 V"
b0 U"
b0 T"
b0 S"
b11 R"
b111 Q"
b111 P"
0O"
b1000000100001000 N"
b0 M"
b1000000 L"
b0 K"
b0 J"
b0 I"
b0 H"
b0 G"
b0 F"
b0 E"
b1110000011101110 D"
b101000000000001 C"
b0 B"
b0 A"
b0 @"
b0 ?"
b0 >"
b0 ="
b1110000011110100 <"
b1001100100000000 ;"
b1111001100001000 :"
b1101011100000000 9"
b110110000000000 8"
b1000110000001000 7"
b1111001100001110 6"
b1101001100000000 5"
b11010000000000 4"
b1000110000001000 3"
b101010000000001 2"
b1011100100000001 1"
b1011110100000000 0"
b1111001100000010 /"
b1101111000000000 ."
b1001110100000001 -"
b11000000000000 ,"
b0 +"
b0 *"
b0 )"
b0 ("
b0 '"
b0 &"
b0 %"
b0 $"
b1110000000011110 #"
b0 ""
b0 !"
b0 ~
b0 }
b0 |
b0 {
b0 z
b0 y
b0 x
b0 w
b0 v
b0 u
b0 t
b0 s
b0 r
b0 q
b0 p
b0 o
b0 n
b0 m
b0 l
b0 k
b0 j
b1000000 i
b100000 h
b0 g
b0 f
b11000000000000 e
0d
b0 c
b0 b
0a
b0 `
b0 _
1^
b0 ]
b0 \
b0 [
b0 Z
b1 Y
b0 X
b0 W
0V
0U
b1 T
b0 S
b0 R
b0 Q
b0 P
b1000000100001000 O
b100000 N
b111 M
b111 L
b11 K
b0 J
b0 I
b0 H
b0 G
b0 F
b0 E
b10 D
b1 C
b110 B
b100 A
b101 @
b1000 ?
b111 >
b0 =
b0 <
b0 ;
b11000000000000 :
b100001 9
b1000000 8
b0 7
b0 6
b0 5
04
13
02
b111 1
b11 0
b0 /
b0 .
b0 -
b0 ,
b0 +
b0 *
b10 )
b1 (
b110 '
b100 &
b101 %
b1000 $
b111 #
b0 "
b0 !
$end
#10000
b10000 d"
b1000000 i
12
#20000
02
#30000
b1000000 i
b10000 d"
12
#40000
02
03
#45000
14
#50000
1D#
1:#
19#
b111 7
b111 ;#
b111 E#
b1000 a"
b1000 b"
b1000 g
b1000011100001001 O
b1000011100001001 N"
b1000 P
b1000 _
b1000 B#
b110000000000000100000000000 8
b110000000000000100000000000 L"
b110000000000000100000000000 ##
b100000000 %#
b1000 $#
b100010 9
b100010 .#
b100010 2#
b1000 -#
b1000 ]
b1000 `
b10001100 }"
b100010 /#
b1000110000001000 :
b1000110000001000 e
b100001 N
b100001 h
b100001 0#
b100001 3#
b0 d"
b0 i
12
#60000
02
#70000
b0 7
b0 ;#
b0 E#
0D#
09#
b0 a"
b0 b"
b0 g
b1000001100001000 O
b1000001100001000 N"
b0 P
b0 _
b0 B#
b10000000000000000001000000 8
b10000000000000000001000000 L"
b10000000000000000001000000 ##
b1000 %#
b11 $#
b100011 9
b100011 .#
b100011 2#
b0 -#
b0 ]
b0 `
b110100 }"
b111 ?#
b100011 /#
b11010000000000 :
b11010000000000 e
b100010 N
b100010 h
b100010 0#
b100010 3#
12
#80000
02
#90000
b11111001 7
b11111001 ;#
b11111001 E#
b0 M
b0 P"
b0 C#
b1001 a"
b1001 b"
b111001 g
b11111001 P
b11111001 _
b11111001 B#
b11111001 Q
b11111001 Z
b11111001 \
b111 <
b111 c"
b111 w"
b111 R
b111 W
b111 b
b11111001 [
b10 T
b10 Y
b10 z"
b111 6
b111 c
b111 x"
b111 A#
1y"
1V
1U
18#
17#
0^
04#
0:#
b1001100001110000 O
b1001100001110000 N"
b1100000100000000000000000 8
b1100000100000000000000000 L"
b1100000100000000000000000 ##
b10000000000000 %#
b1101 $#
b11 &#
1(#
b11 *#
b100100 9
b100100 .#
b100100 2#
b11010011 }"
b100100 /#
b1101001100000000 :
b1101001100000000 e
b100011 N
b100011 h
b100011 0#
b100011 3#
12
#100000
02
#110000
b0 7
b0 ;#
b0 E#
b111 M
b111 P"
b111 C#
b0 a"
b0 b"
b0 g
b0 <
b0 c"
b0 w"
b0 R
b0 W
b0 b
b0 P
b0 _
b0 B#
b0 6
b0 c
b0 x"
b0 A#
b0 [
b1 T
b1 Y
b1 z"
b0 Q
b0 Z
b0 \
08#
07#
0y"
0V
0U
b1000 +#
b1110000000000000000000000 8
b1110000000000000000000000 L"
b1110000000000000000000000 ##
1~"
b1000000000000000 %#
b1111 $#
b1000000000000000 O
b1000000000000000 N"
b100101 9
b100101 .#
b100101 2#
b1110 -#
b1110 ]
b1110 `
b11110011 }"
b10 ;
b10 M"
b10 {"
b100101 /#
b1111001100001110 :
b1111001100001110 e
b100100 N
b100100 h
b100100 0#
b100100 3#
12
#120000
02
#130000
b1000 a"
b1000 b"
b1000 g
b111 7
b111 ;#
b111 E#
b1000 P
b1000 _
b1000 B#
1D#
1^
14#
1:#
19#
b1000011100001001 O
b1000011100001001 N"
0~"
b0 +#
b110000000000000100000000000 8
b110000000000000100000000000 L"
b110000000000000100000000000 ##
b100000000 %#
b1000 $#
b0 &#
0(#
b0 *#
b100110 9
b100110 .#
b100110 2#
b1000 -#
b1000 ]
b1000 `
b10001100 }"
b100110 /#
b1000110000001000 :
b1000110000001000 e
b100101 N
b100101 h
b100101 0#
b100101 3#
12
#140000
02
#150000
b1000 M
b1000 P"
b1000 C#
b111 Q
b111 Z
b111 \
b100000111 [
b1000 T
b1000 Y
b1000 z"
b111 S
b111 X
b111 @#
b111 7
b111 ;#
b111 E#
1y"
1V
1U
16#
15#
0D#
0^
b1110011101110000 O
b1110011101110000 N"
b111 a"
b111 b"
b111 g
b110000000000000001000000000 8
b110000000000000001000000000 L"
b110000000000000001000000000 ##
b111 P
b111 _
b111 B#
b1000000 %#
b110 $#
b100111 9
b100111 .#
b100111 2#
b0 -#
b0 ]
b0 `
b1101100 }"
b100111 /#
b110110000000000 :
b110110000000000 e
b100110 N
b100110 h
b100110 0#
b100110 3#
12
#160000
02
#170000
b11111001 7
b11111001 ;#
b11111001 E#
b0 M
b0 P"
b0 C#
b1001 a"
b1001 b"
b111001 g
b11111001 P
b11111001 _
b11111001 B#
b111 <
b111 c"
b111 w"
b111 R
b111 W
b111 b
b11111001 [
b10 T
b10 Y
b10 z"
b11111001 Q
b11111001 Z
b11111001 \
b111 6
b111 c
b111 x"
b111 A#
b0 S
b0 X
b0 @#
18#
17#
05#
04#
0:#
09#
b11100000100000000000000000 8
b11100000100000000000000000 L"
b11100000100000000000000000 ##
b10000000000000 %#
b1101 $#
b11 &#
1(#
b11 *#
b101000 9
b101000 .#
b101000 2#
b11010111 }"
b1011100001110000 O
b1011100001110000 N"
b101000 /#
b1101011100000000 :
b1101011100000000 e
b100111 N
b100111 h
b100111 0#
b100111 3#
b1000 ;
b1000 M"
b1000 {"
12
#180000
02
#190000
b0 7
b0 ;#
b0 E#
b111 M
b111 P"
b111 C#
b0 a"
b0 b"
b0 g
b0 <
b0 c"
b0 w"
b0 R
b0 W
b0 b
b0 P
b0 _
b0 B#
b0 6
b0 c
b0 x"
b0 A#
b0 [
b1 T
b1 Y
b1 z"
b0 Q
b0 Z
b0 \
08#
07#
06#
0y"
0V
0U
b1000 +#
1~"
b1110000000000000000000000 8
b1110000000000000000000000 L"
b1110000000000000000000000 ##
b1000000000000000 %#
b1111 $#
b1000000000000000 O
b1000000000000000 N"
b101001 9
b101001 .#
b101001 2#
b1000 -#
b1000 ]
b1000 `
b11110011 }"
b10 ;
b10 M"
b10 {"
b101001 /#
b1111001100001000 :
b1111001100001000 e
b101000 N
b101000 h
b101000 0#
b101000 3#
12
#200000
02
#210000
b111 7
b111 ;#
b111 E#
b1 T
b1 Y
b1 z"
1D#
1U
1a
14#
19#
16#
0,#
b1010010111000001 O
b1010010111000001 N"
0~"
b0 +#
b100100000000001000000000000 8
b100100000000001000000000000 L"
b100100000000001000000000000 ##
b1000000000 %#
b1001 $#
b1 &#
b1 *#
b101010 9
b101010 .#
b101010 2#
b0 -#
b0 ]
b0 `
b10011001 }"
b101010 /#
b1001100100000000 :
b1001100100000000 e
b101001 N
b101001 h
b101001 0#
b101001 3#
12
#220000
02
#230000
b11 7
b11 ;#
b11 E#
b11 M
b11 P"
b11 C#
b1 a"
b1 b"
b1 g
b1 P
b1 _
b1 B#
1:#
b1 Q
b1 Z
b1 \
b1 [
b0 T
b0 Y
b0 z"
b1010011111000001 O
b1010011111000001 N"
b1 R
b1 W
b1 b
b110100000000001000000000000 8
b110100000000001000000000000 L"
b110100000000001000000000000 ##
b101011 9
b101011 .#
b101011 2#
b1 -#
b1 ]
b1 `
b10011101 }"
b111 >#
b101011 /#
b1001110100000001 :
b1001110100000001 e
b101010 N
b101010 h
b101010 0#
b101010 3#
12
#240000
02
#250000
b111 <
b111 c"
b111 w"
b0 M
b0 P"
b0 C#
b1100 a"
b1100 b"
b111100 g
b111 6
b111 c
b111 x"
b111 A#
b11 S
b11 X
b11 @#
b11111100 7
b11111100 ;#
b11111100 E#
b11111100 P
b11111100 _
b11111100 B#
1y"
1V
17#
15#
0D#
0a
04#
0:#
09#
b10 T
b10 Y
b10 z"
b11111100 [
b11111100 Q
b11111100 Z
b11111100 \
b1111000001110000 O
b1111000001110000 N"
b111 R
b111 W
b111 b
b111000000100000000000000000 8
b111000000100000000000000000 L"
b111000000100000000000000000 ##
b10000000000000 %#
b1101 $#
b10 &#
0(#
b10 *#
b101100 9
b101100 .#
b101100 2#
b0 -#
b0 ]
b0 `
b11011110 }"
b101100 /#
b1101111000000000 :
b1101111000000000 e
b101011 N
b101011 h
b101011 0#
b101011 3#
b11 ?#
12
#260000
02
#270000
b0 7
b0 ;#
b0 E#
b111 M
b111 P"
b111 C#
b0 a"
b0 b"
b0 g
b0 <
b0 c"
b0 w"
b0 R
b0 W
b0 b
b0 P
b0 _
b0 B#
b0 6
b0 c
b0 x"
b0 A#
b0 S
b0 X
b0 @#
b0 [
b1 T
b1 Y
b1 z"
b0 Q
b0 Z
b0 \
07#
06#
05#
0y"
0V
0U
b1000 +#
b1000000000000000 O
b1000000000000000 N"
1~"
b1110000000000000000000000 8
b1110000000000000000000000 L"
b1110000000000000000000000 ##
b1000000000000000 %#
b1111 $#
b11 &#
1(#
b11 *#
b101101 9
b101101 .#
b101101 2#
b10 -#
b10 ]
b10 `
b11110011 }"
b101101 /#
b1111001100000010 :
b1111001100000010 e
b101100 N
b101100 h
b101100 0#
b101100 3#
12
#280000
02
#290000
b11 <
b11 c"
b11 w"
b1 T
b1 Y
b1 z"
b11 6
b11 c
b11 x"
b11 A#
1O"
1U
1a
18#
17#
0,#
b1001100011000010 O
b1001100011000010 N"
0~"
b0 +#
b110100000000100000000000000 8
b110100000000100000000000000 L"
b110100000000100000000000000 ##
b100000000000 %#
b1011 $#
b1 &#
b1 *#
b101110 9
b101110 .#
b101110 2#
b0 -#
b0 ]
b0 `
b10111101 }"
b101110 /#
b1011110100000000 :
b1011110100000000 e
b101101 N
b101101 h
b101101 0#
b101101 3#
12
#300000
02
#310000
b111 <
b111 c"
b111 w"
b1 7
b1 ;#
b1 E#
b1 a"
b1 b"
b1 g
b111 6
b111 c
b111 x"
b111 A#
b1 P
b1 _
b1 B#
08#
b1 Q
b1 Z
b1 \
b1 [
b0 T
b0 Y
b0 z"
b1001000011000010 O
b1001000011000010 N"
b1 R
b1 W
b1 b
b100100000000100000000000000 8
b100100000000100000000000000 L"
b100100000000100000000000000 ##
b101111 9
b101111 .#
b101111 2#
b1 -#
b1 ]
b1 `
b10111001 }"
b11 M
b11 P"
b11 C#
b11 1
b11 L
b11 Q"
b101111 /#
b1011100100000001 :
b1011100100000001 e
b101110 N
b101110 h
b101110 0#
b101110 3#
12
#320000
02
#330000
b0 <
b0 c"
b0 w"
b0 6
b0 c
b0 x"
b0 A#
1y"
14#
1:#
16#
0O"
07#
b1010001111010000 O
b1010001111010000 N"
b10000000000000000100000000 8
b10000000000000000100000000 L"
b10000000000000000100000000 ##
b100000 %#
b101 $#
b0 &#
0(#
b0 *#
b110000 9
b110000 .#
b110000 2#
b1010100 }"
b110000 /#
b101010000000001 :
b101010000000001 e
b101111 N
b101111 h
b101111 0#
b101111 3#
b111 M
b111 P"
b111 C#
b111 0
b111 K
b111 R"
12
#340000
02
#350000
b0 7
b0 ;#
b0 E#
b11 M
b11 P"
b11 C#
b0 a"
b0 b"
b0 g
b0 P
b0 _
b0 B#
1,#
0a
06#
04#
0:#
0y"
0U
b1 T
b1 Y
b1 z"
b0 [
b0 Q
b0 Z
b0 \
b0 R
b0 W
b0 b
b1000000000000000000 8
b1000000000000000000 L"
b1000000000000000000 ##
b100000000000000 %#
b1110 $#
b11000000000000000 O
b11000000000000000 N"
b100101 9
b100101 .#
b100101 2#
b110100 -#
b11110100 ]
b11110100 `
b11100000 }"
b0 ;
b0 M"
b0 {"
b1 =#
b110001 /#
b1110000011110100 :
b1110000011110100 e
b110000 N
b110000 h
b110000 0#
b110000 3#
12
#360000
02
#370000
b111 M
b111 P"
b111 C#
b1000 a"
b1000 b"
b1000 g
b111 7
b111 ;#
b111 E#
b1000 P
b1000 _
b1000 B#
1D#
1^
14#
1:#
19#
0,#
b1000011100001001 O
b1000011100001001 N"
b110000000000000100000000000 8
b110000000000000100000000000 L"
b110000000000000100000000000 ##
b100000000 %#
b1000 $#
b100110 9
b100110 .#
b100110 2#
b1000 -#
b1000 ]
b1000 `
b10001100 }"
b100110 /#
b1000110000001000 :
b1000110000001000 e
b100101 N
b100101 h
b100101 0#
b100101 3#
12
#380000
02
#390000
b111 Q
b111 Z
b111 \
b100000111 [
b1000 T
b1000 Y
b1000 z"
b111 S
b111 X
b111 @#
1y"
1V
1U
16#
15#
0D#
0^
b111 7
b111 ;#
b111 E#
b1110011101110000 O
b1110011101110000 N"
b1000 M
b1000 P"
b1000 C#
b111 a"
b111 b"
b111 g
b110000000000000001000000000 8
b110000000000000001000000000 L"
b110000000000000001000000000 ##
b111 P
b111 _
b111 B#
b1000000 %#
b110 $#
b100111 9
b100111 .#
b100111 2#
b0 -#
b0 ]
b0 `
b1101100 }"
b111 ?#
b100111 /#
b110110000000000 :
b110110000000000 e
b100110 N
b100110 h
b100110 0#
b100110 3#
12
#400000
02
#410000
b11111010 7
b11111010 ;#
b11111010 E#
b0 M
b0 P"
b0 C#
b1010 a"
b1010 b"
b111010 g
b11111010 P
b11111010 _
b11111010 B#
b111 <
b111 c"
b111 w"
b111 R
b111 W
b111 b
b11111010 [
b10 T
b10 Y
b10 z"
b11111010 Q
b11111010 Z
b11111010 \
b111 6
b111 c
b111 x"
b111 A#
b1 S
b1 X
b1 @#
18#
17#
05#
04#
0:#
09#
b11100000100000000000000000 8
b11100000100000000000000000 L"
b11100000100000000000000000 ##
b10000000000000 %#
b1101 $#
b11 &#
1(#
b11 *#
b101000 9
b101000 .#
b101000 2#
b11010111 }"
b1011100001110000 O
b1011100001110000 N"
b101000 /#
b1101011100000000 :
b1101011100000000 e
b100111 N
b100111 h
b100111 0#
b100111 3#
b1000 ;
b1000 M"
b1000 {"
12
#420000
02
#430000
b0 7
b0 ;#
b0 E#
b11 M
b11 P"
b11 C#
b0 a"
b0 b"
b0 g
b0 <
b0 c"
b0 w"
b0 R
b0 W
b0 b
b0 P
b0 _
b0 B#
b0 6
b0 c
b0 x"
b0 A#
b0 S
b0 X
b0 @#
b0 [
b1 T
b1 Y
b1 z"
b0 Q
b0 Z
b0 \
08#
07#
06#
0y"
0V
0U
b1000 +#
1~"
b1110000000000000000000000 8
b1110000000000000000000000 L"
b1110000000000000000000000 ##
b1000000000000000 %#
b1111 $#
b1000000000000000 O
b1000000000000000 N"
b101001 9
b101001 .#
b101001 2#
b1000 -#
b1000 ]
b1000 `
b11110011 }"
b10 ;
b10 M"
b10 {"
b101001 /#
b1111001100001000 :
b1111001100001000 e
b101000 N
b101000 h
b101000 0#
b101000 3#
12
#440000
02
#450000
b111 M
b111 P"
b111 C#
b1 a"
b1 b"
b1 g
b1 P
b1 _
b1 B#
b111 7
b111 ;#
b111 E#
b1 Q
b1 Z
b1 \
b1 [
b0 T
b0 Y
b0 z"
b1 S
b1 X
b1 @#
1D#
1U
1a
14#
19#
16#
0,#
b1010010111000001 O
b1010010111000001 N"
0~"
b0 +#
b100100000000001000000000000 8
b100100000000001000000000000 L"
b100100000000001000000000000 ##
b1000000000 %#
b1001 $#
b1 &#
b1 *#
b101010 9
b101010 .#
b101010 2#
b0 -#
b0 ]
b0 `
b10011001 }"
b101010 /#
b1001100100000000 :
b1001100100000000 e
b101001 N
b101001 h
b101001 0#
b101001 3#
12
#460000
02
#470000
b10 7
b10 ;#
b10 E#
b10 M
b10 P"
b10 C#
b10 a"
b10 b"
b10 g
b10 P
b10 _
b10 B#
1:#
b10 [
b10 Q
b10 Z
b10 \
b1010011111000001 O
b1010011111000001 N"
b1 R
b1 W
b1 b
b110100000000001000000000000 8
b110100000000001000000000000 L"
b110100000000001000000000000 ##
b101011 9
b101011 .#
b101011 2#
b1 -#
b1 ]
b1 `
b10011101 }"
b101011 /#
b1001110100000001 :
b1001110100000001 e
b101010 N
b101010 h
b101010 0#
b101010 3#
12
#480000
02
#490000
b111 <
b111 c"
b111 w"
b0 M
b0 P"
b0 C#
b1011 a"
b1011 b"
b111011 g
b10 T
b10 Y
b10 z"
b111 6
b111 c
b111 x"
b111 A#
b10 S
b10 X
b10 @#
b11111011 7
b11111011 ;#
b11111011 E#
b11111011 P
b11111011 _
b11111011 B#
1y"
1V
17#
15#
0D#
0a
04#
0:#
09#
b11111011 [
b11111011 Q
b11111011 Z
b11111011 \
b1111000001110000 O
b1111000001110000 N"
b111 R
b111 W
b111 b
b111000000100000000000000000 8
b111000000100000000000000000 L"
b111000000100000000000000000 ##
b10000000000000 %#
b1101 $#
b10 &#
0(#
b10 *#
b101100 9
b101100 .#
b101100 2#
b0 -#
b0 ]
b0 `
b11011110 }"
b101100 /#
b1101111000000000 :
b1101111000000000 e
b101011 N
b101011 h
b101011 0#
b101011 3#
b10 ?#
12
#500000
02
