i281_multicycle/dump.vcd
$date
	Tue Nov 25 16:50:09 2025
$end
$version
	Icarus Verilog
$end
$timescale
	1ps
$end
$scope module i281_toplevel_tb $end
$var wire 8 ! datamem9 [7:0] $end
$var wire 8 " datamem8 [7:0] $end
$var wire 8 # datamem7 [7:0] $end
$var wire 8 $ datamem6 [7:0] $end
$var wire 8 % datamem5 [7:0] $end
$var wire 8 & datamem4 [7:0] $end
$var wire 8 ' datamem3 [7:0] $end
$var wire 8 ( datamem2 [7:0] $end
$var wire 8 ) datamem15 [7:0] $end
$var wire 8 * datamem14 [7:0] $end
$var wire 8 + datamem13 [7:0] $end
$var wire 8 , datamem12 [7:0] $end
$var wire 8 - datamem11 [7:0] $end
$var wire 8 . datamem10 [7:0] $end
$var wire 8 / datamem1 [7:0] $end
$var wire 8 0 datamem0 [7:0] $end
$var reg 1 1 clock $end
$var reg 1 2 reset $end
$var reg 1 3 run $end
$var integer 32 4 cycle [31:0] $end
$scope function instr_name $end
$var reg 64 5 instr_name [63:0] $end
$var reg 5 6 instruction [4:0] $end
$upscope $end
$scope function state_name $end
$var reg 6 7 state [5:0] $end
$var reg 72 8 state_name [71:0] $end
$upscope $end
$scope module dut $end
$var wire 1 1 clock $end
$var wire 1 2 reset $end
$var wire 1 3 run $end
$var wire 8 9 rightinputreg_register [7:0] $end
$var wire 8 : rightinputreg [7:0] $end
$var wire 8 ; reg_in [7:0] $end
$var wire 6 < pc_new [5:0] $end
$var wire 6 = pc [5:0] $end
$var wire 27 > op_in [26:0] $end
$var wire 8 ? leftinputreg_register [7:0] $end
$var wire 8 @ leftinputreg [7:0] $end
$var wire 16 A instruction [15:0] $end
$var wire 16 B imem_register [15:0] $end
$var wire 4 C flag_in [3:0] $end
$var wire 8 D dmem_register [7:0] $end
$var wire 8 E datamem9 [7:0] $end
$var wire 8 F datamem8 [7:0] $end
$var wire 8 G datamem7 [7:0] $end
$var wire 8 H datamem6 [7:0] $end
$var wire 8 I datamem5 [7:0] $end
$var wire 8 J datamem4 [7:0] $end
$var wire 8 K datamem3 [7:0] $end
$var wire 8 L datamem2 [7:0] $end
$var wire 8 M datamem15 [7:0] $end
$var wire 8 N datamem14 [7:0] $end
$var wire 8 O datamem13 [7:0] $end
$var wire 8 P datamem12 [7:0] $end
$var wire 8 Q datamem11 [7:0] $end
$var wire 8 R datamem10 [7:0] $end
$var wire 8 S datamem1 [7:0] $end
$var wire 8 T datamem0 [7:0] $end
$var wire 8 U data_memory_out [7:0] $end
$var wire 24 V ctrl_out [24:1] $end
$var wire 8 W alu_result [7:0] $end
$var wire 8 X alu_out_register [7:0] $end
$var wire 8 Y alu_in_two [7:0] $end
$var wire 8 Z alu_in_one [7:0] $end
$var wire 4 [ alu_flags [3:0] $end
$scope module ALU $end
$var wire 1 \ c12 $end
$var wire 1 ] c13 $end
$var wire 8 ^ alu_in_two [7:0] $end
$var wire 8 _ alu_in_one [7:0] $end
$var reg 4 ` alu_flags [3:0] $end
$var reg 8 a alu_result [7:0] $end
$var reg 9 b catch_flags [8:0] $end
$upscope $end
$scope module ALU_OUT_REG $end
$var wire 8 c alu_output [7:0] $end
$var wire 1 d c22 $end
$var wire 1 1 clock $end
$var wire 1 2 reset $end
$var wire 1 3 run $end
$var reg 8 e alu_out_register [7:0] $end
$upscope $end
$scope module CODE_MEMORY $end
$var wire 1 f c1 $end
$var wire 1 1 clock $end
$var wire 16 g curr_instruction [15:0] $end
$var wire 1 2 reset $end
$var wire 1 3 run $end
$var wire 6 h read_select [5:0] $end
$var integer 32 i i [31:0] $end
$scope module add17to32 $end
$var wire 16 j b0I [15:0] $end
$var wire 16 k b10I [15:0] $end
$var wire 16 l b11I [15:0] $end
$var wire 16 m b12I [15:0] $end
$var wire 16 n b13I [15:0] $end
$var wire 16 o b14I [15:0] $end
$var wire 16 p b15I [15:0] $end
$var wire 16 q b1I [15:0] $end
$var wire 16 r b2I [15:0] $end
$var wire 16 s b3I [15:0] $end
$var wire 16 t b4I [15:0] $end
$var wire 16 u b5I [15:0] $end
$var wire 16 v b6I [15:0] $end
$var wire 16 w b7I [15:0] $end
$var wire 16 x b8I [15:0] $end
$var wire 16 y b9I [15:0] $end
$upscope $end
$scope module add1to16 $end
$var wire 16 z b0I [15:0] $end
$var wire 16 { b10I [15:0] $end
$var wire 16 | b11I [15:0] $end
$var wire 16 } b12I [15:0] $end
$var wire 16 ~ b13I [15:0] $end
$var wire 16 !" b14I [15:0] $end
$var wire 16 "" b15I [15:0] $end
$var wire 16 #" b1I [15:0] $end
$var wire 16 $" b2I [15:0] $end
$var wire 16 %" b3I [15:0] $end
$var wire 16 &" b4I [15:0] $end
$var wire 16 '" b5I [15:0] $end
$var wire 16 (" b6I [15:0] $end
$var wire 16 )" b7I [15:0] $end
$var wire 16 *" b8I [15:0] $end
$var wire 16 +" b9I [15:0] $end
$upscope $end
$scope module add33to48 $end
$var wire 16 ," b0I [15:0] $end
$var wire 16 -" b10I [15:0] $end
$var wire 16 ." b11I [15:0] $end
$var wire 16 /" b12I [15:0] $end
$var wire 16 0" b13I [15:0] $end
$var wire 16 1" b14I [15:0] $end
$var wire 16 2" b15I [15:0] $end
$var wire 16 3" b1I [15:0] $end
$var wire 16 4" b2I [15:0] $end
$var wire 16 5" b3I [15:0] $end
$var wire 16 6" b4I [15:0] $end
$var wire 16 7" b5I [15:0] $end
$var wire 16 8" b6I [15:0] $end
$var wire 16 9" b7I [15:0] $end
$var wire 16 :" b8I [15:0] $end
$var wire 16 ;" b9I [15:0] $end
$upscope $end
$scope module add49to64 $end
$var wire 16 <" b0I [15:0] $end
$var wire 16 =" b10I [15:0] $end
$var wire 16 >" b11I [15:0] $end
$var wire 16 ?" b12I [15:0] $end
$var wire 16 @" b13I [15:0] $end
$var wire 16 A" b14I [15:0] $end
$var wire 16 B" b15I [15:0] $end
$var wire 16 C" b1I [15:0] $end
$var wire 16 D" b2I [15:0] $end
$var wire 16 E" b3I [15:0] $end
$var wire 16 F" b4I [15:0] $end
$var wire 16 G" b5I [15:0] $end
$var wire 16 H" b6I [15:0] $end
$var wire 16 I" b7I [15:0] $end
$var wire 16 J" b8I [15:0] $end
$var wire 16 K" b9I [15:0] $end
$upscope $end
$upscope $end
$scope module CONTROL_LOGIC $end
$var wire 1 1 clock $end
$var wire 1 2 reset $end
$var wire 1 3 run $end
$var wire 27 L" opcode_in [26:0] $end
$var wire 4 M" flags_reg [3:0] $end
$var reg 24 N" c [24:1] $end
$var reg 5 O" instruction [4:0] $end
$var reg 6 P" next_state [5:0] $end
$var reg 6 Q" state [5:0] $end
$upscope $end
$scope module DATA_MEMORY $end
$var wire 1 R" c17 $end
$var wire 1 1 clock $end
$var wire 8 S" data_memory_output [7:0] $end
$var wire 8 T" datamem0 [7:0] $end
$var wire 8 U" datamem1 [7:0] $end
$var wire 8 V" datamem10 [7:0] $end
$var wire 8 W" datamem11 [7:0] $end
$var wire 8 X" datamem12 [7:0] $end
$var wire 8 Y" datamem13 [7:0] $end
$var wire 8 Z" datamem14 [7:0] $end
$var wire 8 [" datamem15 [7:0] $end
$var wire 8 \" datamem2 [7:0] $end
$var wire 8 ]" datamem3 [7:0] $end
$var wire 8 ^" datamem4 [7:0] $end
$var wire 8 _" datamem5 [7:0] $end
$var wire 8 `" datamem6 [7:0] $end
$var wire 8 a" datamem7 [7:0] $end
$var wire 8 b" datamem8 [7:0] $end
$var wire 8 c" datamem9 [7:0] $end
$var wire 4 d" read_select [3:0] $end
$var wire 1 2 reset $end
$var wire 1 3 run $end
$var wire 4 e" write_select [3:0] $end
$var wire 8 f" inp [7:0] $end
$var integer 32 g" i [31:0] $end
$scope module addr $end
$var wire 8 h" b0I [7:0] $end
$var wire 8 i" b10I [7:0] $end
$var wire 8 j" b11I [7:0] $end
$var wire 8 k" b12I [7:0] $end
$var wire 8 l" b13I [7:0] $end
$var wire 8 m" b14I [7:0] $end
$var wire 8 n" b15I [7:0] $end
$var wire 8 o" b1I [7:0] $end
$var wire 8 p" b2I [7:0] $end
$var wire 8 q" b3I [7:0] $end
$var wire 8 r" b4I [7:0] $end
$var wire 8 s" b5I [7:0] $end
$var wire 8 t" b6I [7:0] $end
$var wire 8 u" b7I [7:0] $end
$var wire 8 v" b8I [7:0] $end
$var wire 8 w" b9I [7:0] $end
$upscope $end
$upscope $end
$scope module DMEM_MUX_TO_REG $end
$var wire 8 x" a [7:0] $end
$var wire 8 y" b [7:0] $end
$var wire 1 z" s $end
$var wire 8 {" out [7:0] $end
$upscope $end
$scope module DMEM_REGISTER $end
$var wire 1 |" c23 $end
$var wire 1 1 clock $end
$var wire 8 }" datamemory [7:0] $end
$var wire 1 2 reset $end
$var wire 1 3 run $end
$var reg 8 ~" dmem_register [7:0] $end
$upscope $end
$scope module FLAGS $end
$var wire 1 !# c14 $end
$var wire 1 1 clock $end
$var wire 4 "# flag_input [3:0] $end
$var wire 1 2 reset $end
$var wire 1 3 run $end
$var reg 4 ## flag_reg [3:0] $end
$upscope $end
$scope module IMEM_REG $end
$var wire 1 $# c16 $end
$var wire 1 1 clock $end
$var wire 16 %# instruction [15:0] $end
$var wire 1 2 reset $end
$var wire 1 3 run $end
$var reg 16 &# imem_register [15:0] $end
$upscope $end
$scope module IMEM_REG_TO_ALU_MUX $end
$var wire 8 '# a [7:0] $end
$var wire 8 (# c [7:0] $end
$var wire 8 )# d [7:0] $end
$var wire 1 *# s1 $end
$var wire 1 +# s2 $end
$var wire 8 ,# b [7:0] $end
$var reg 8 -# out [7:0] $end
$upscope $end
$scope module LEFT_REG $end
$var wire 1 .# c11 $end
$var wire 1 1 clock $end
$var wire 1 2 reset $end
$var wire 1 3 run $end
$var wire 8 /# reginputleft [7:0] $end
$var reg 8 0# leftinputreg_register [7:0] $end
$upscope $end
$scope module OPCODE_DECODER $end
$var wire 1 1# dec_en $end
$var wire 8 2# opcode_in [7:0] $end
$var wire 1 3# y15 $end
$var wire 1 4# y12 $end
$var wire 1 5# y1 $end
$var wire 27 6# opcode_out [26:0] $end
$scope module decoder1 $end
$var wire 1 1# dec_en $end
$var wire 4 7# dec_in [3:0] $end
$var wire 16 8# dec_out [15:0] $end
$upscope $end
$scope module decoder2 $end
$var wire 1 5# dec_en $end
$var wire 2 9# dec_in [1:0] $end
$var wire 4 :# dec_out [3:0] $end
$upscope $end
$scope module decoder3 $end
$var wire 1 4# dec_en $end
$var wire 1 ;# dec_in $end
$var wire 2 <# dec_out [1:0] $end
$upscope $end
$scope module decoder4 $end
$var wire 1 3# dec_en $end
$var wire 2 =# dec_in [1:0] $end
$var wire 4 ># dec_out [3:0] $end
$upscope $end
$upscope $end
$scope module PC_IN_MUX $end
$var wire 6 ?# a [5:0] $end
$var wire 6 @# b [5:0] $end
$var wire 1 A# s $end
$var wire 6 B# out [5:0] $end
$upscope $end
$scope module PC_REG_TO_ALU_MUX $end
$var wire 8 C# a [7:0] $end
$var wire 8 D# b [7:0] $end
$var wire 8 E# c [7:0] $end
$var wire 8 F# d [7:0] $end
$var wire 1 G# s1 $end
$var wire 1 H# s2 $end
$var reg 8 I# out [7:0] $end
$upscope $end
$scope module PROGRAM_COUNTER $end
$var wire 1 J# c3 $end
$var wire 1 1 clock $end
$var wire 6 K# pc_new [5:0] $end
$var wire 1 2 reset $end
$var wire 1 3 run $end
$var reg 6 L# pc [5:0] $end
$upscope $end
$scope module REGISTERS $end
$var wire 1 M# c10 $end
$var wire 1 N# c4 $end
$var wire 1 O# c5 $end
$var wire 1 P# c6 $end
$var wire 1 Q# c7 $end
$var wire 1 R# c8 $end
$var wire 1 S# c9 $end
$var wire 1 1 clock $end
$var wire 8 T# inp [7:0] $end
$var wire 1 2 reset $end
$var wire 1 3 run $end
$var reg 8 U# A [7:0] $end
$var reg 8 V# B [7:0] $end
$var reg 8 W# C [7:0] $end
$var reg 8 X# D [7:0] $end
$var reg 8 Y# output_one [7:0] $end
$var reg 8 Z# output_two [7:0] $end
$upscope $end
$scope module RIGHT_REG $end
$var wire 1 [# c15 $end
$var wire 1 1 clock $end
$var wire 8 \# reginputright [7:0] $end
$var wire 1 2 reset $end
$var wire 1 3 run $end
$var reg 8 ]# rightinputreg_register [7:0] $end
$upscope $end
$upscope $end
$upscope $end
$enddefinitions $end
#0
$dumpvars
b0 ]#
b0 \#
0[#
b0 Z#
b0 Y#
b0 X#
b0 W#
b0 V#
b0 U#
b0 T#
0S#
0R#
0Q#
0P#
0O#
0N#
0M#
b100000 L#
b0 K#
1J#
b100000 I#
0H#
0G#
b0 F#
b1 E#
b0 D#
b100000 C#
b0 B#
0A#
b0 @#
b0 ?#
b0 >#
b0 =#
b0 <#
0;#
b0 :#
b0 9#
b1 8#
b0 7#
b1 6#
05#
04#
03#
b0 2#
11#
b0 0#
b0 /#
0.#
b1 -#
b0 ,#
0+#
1*#
b0 )#
b1 (#
b0 '#
b0 &#
b1000000000000000 %#
1$#
b0 ##
b0 "#
0!#
b0 ~"
b10111011 }"
0|"
b0 {"
0z"
b10111011 y"
b0 x"
b0 w"
b0 v"
b0 u"
b0 t"
b0 s"
b0 r"
b0 q"
b0 p"
b1110111 o"
b0 n"
b0 m"
b0 l"
b0 k"
b0 j"
b0 i"
b10111011 h"
b10000 g"
b0 f"
b0 e"
b0 d"
b0 c"
b0 b"
b0 a"
b0 `"
b0 _"
b0 ^"
b0 ]"
b0 \"
b0 ["
b0 Z"
b0 Y"
b0 X"
b0 W"
b0 V"
b1110111 U"
b10111011 T"
b10111011 S"
0R"
b0 Q"
b1 P"
b0 O"
b1010001000100000000100 N"
b0 M"
b1 L"
b0 K"
b0 J"
b0 I"
b0 H"
b0 G"
b0 F"
b0 E"
b1110000011101110 D"
b101000000000001 C"
b0 B"
b0 A"
b0 @"
b0 ?"
b0 >"
b0 ="
b1110000011110100 <"
b0 ;"
b0 :"
b0 9"
b0 8"
b0 7"
b0 6"
b0 5"
b1000100000010 4"
b1000010000000001 3"
b0 2"
b0 1"
b0 0"
b0 /"
b0 ."
b0 -"
b1000000000000000 ,"
b0 +"
b0 *"
b0 )"
b0 ("
b0 '"
b0 &"
b0 %"
b0 $"
b1110000000011110 #"
b0 ""
b0 !"
b0 ~
b0 }
b0 |
b0 {
b0 z
b0 y
b0 x
b0 w
b0 v
b0 u
b0 t
b0 s
b0 r
b0 q
b0 p
b0 o
b0 n
b0 m
b0 l
b0 k
b0 j
b1000000 i
b100000 h
b1000000000000000 g
0f
b0 e
1d
b100001 c
b100001 b
b100001 a
b0 `
b100000 _
b1 ^
0]
1\
b0 [
b100000 Z
b1 Y
b0 X
b100001 W
b1010001000100000000100 V
b10111011 U
b10111011 T
b1110111 S
b0 R
b0 Q
b0 P
b0 O
b0 N
b0 M
b0 L
b0 K
b0 J
b0 I
b0 H
b0 G
b0 F
b0 E
b0 D
b0 C
b0 B
b1000000000000000 A
b0 @
b0 ?
b1 >
b100000 =
b0 <
b0 ;
b0 :
b0 9
bx 8
bx 7
bx 6
bx 5
b0 4
03
12
01
b10111011 0
b1110111 /
b0 .
b0 -
b0 ,
b0 +
b0 *
b0 )
b0 (
b0 '
b0 &
b0 %
b0 $
b0 #
b0 "
b0 !
$end
#10000
b10000 g"
b1000000 i
b1 4
11
#11000
b10010010100011000100000001000000010000000100000001000000010000000100000 8
b0 7
b100111001001111010011110101000000100000001000000010000000100000 5
b0 6
#20000
01
#30000
b1000000 i
b10000 g"
b10 4
11
#40000
01
02
#45000
13
#50000
b1 [
b1 `
b1 "#
b1011 O"
b0 Y
b0 ^
b0 -#
b100000000000 >
b100000000000 L"
b100000000000 6#
b0 b
b0 W
b0 a
b0 c
b100001 <
b100001 B#
b100001 K#
1[#
1.#
0d
0*#
0$#
b100000000 8#
b1000 7#
b0 Z
b0 _
b0 I#
b100001 ;
b100001 {"
b100001 T#
b100001 ?#
b1110111 U
b1110111 S"
b1110111 y"
b1110111 }"
b1 d"
b1 e"
b100110000000100 V
b100110000000100 N"
b1010 P"
b10000000 2#
b0 A
b0 g
b0 %#
b0 C#
b0 =
b0 h
b0 L#
b100001 X
b100001 e
b100001 x"
b1 Q"
b1000000000000000 B
b1000000000000000 &#
b0 g"
b0 i
b11 4
11
#51000
b10010010100010000100000001000000010000000100000001000000010000000100000 8
b1 7
b100110001001111010000010100010000100000001000000010000000100000 5
b1011 6
#60000
01
#70000
1d
1H#
1G#
0J#
0[#
0.#
b0 W
b0 a
b0 c
b0 b
b1 [
b1 `
b1 "#
b101001000000100000000000 V
b101001000000100000000000 N"
b110 P"
b0 Z
b0 _
b0 I#
b1010 Q"
b1000010000000001 A
b1000010000000001 g
b1000010000000001 %#
b100001 C#
b100001 =
b100001 h
b100001 L#
b100 4
11
#71000
b10001010111100001001100010011110100000101000100001000000010000000100000 8
b1010 7
#80000
01
#90000
b1000010 W
b1000010 a
b1000010 c
b0 [
b0 `
b0 "#
b100001 Z
b100001 _
b100001 I#
b0 <
b0 B#
b0 K#
1|"
0d
0\
0H#
0G#
b0 ;
b0 {"
b0 T#
b0 ?#
b10111011 U
b10111011 S"
b10111011 y"
b10111011 }"
b0 d"
b0 e"
b10000000000000000000000 V
b10000000000000000000000 N"
b1001 P"
b0 X
b0 e
b0 x"
b110 Q"
b101 4
11
#91000
b10011010110010101101101010100100100010101000001010001000010000000100000 8
b110 7
#100000
01
#110000
b10111011 ;
b10111011 {"
b10111011 T#
1M#
1z"
0|"
b100000001000000000 V
b100000001000000000 N"
b0 P"
b1001 Q"
b10111011 D
b10111011 ~"
b110 4
11
#111000
b10101110110001001001100010011110100000101000100001000000010000000100000 8
b1001 7
#120000
01
#130000
b1 Y
b1 ^
b1 -#
b100010 b
b100010 W
b100010 a
b100010 c
b0 ;
b0 {"
b0 T#
1d
1*#
1$#
1\
1J#
0z"
0M#
b1010001000100000000100 V
b1010001000100000000100 N"
b1 P"
b10111011 U#
b0 Q"
b111 4
11
#131000
b10010010100011000100000001000000010000000100000001000000010000000100000 8
b0 7
#140000
01
#150000
b10111011 :
b10111011 Z#
b10111011 \#
1O#
b10000000000000100000000000 >
b10000000000000100000000000 L"
b10000000000000100000000000 6#
1[#
1.#
0d
0*#
0$#
b100010 <
b100010 B#
b100010 K#
b1 b
b1 W
b1 a
b1 c
b1 @#
b1 '#
b10000100 2#
b100110000010100 V
b100110000010100 N"
b1010 P"
b100010 ;
b100010 {"
b100010 T#
b100010 ?#
b0 U
b0 S"
b0 y"
b0 }"
b10 d"
b10 e"
b0 Z
b0 _
b0 I#
b1000010000000001 B
b1000010000000001 &#
b1 Q"
b100010 X
b100010 e
b100010 x"
b0 A
b0 g
b0 %#
b0 C#
b0 =
b0 h
b0 L#
b1000 4
11
#151000
b10010010100010000100000001000000010000000100000001000000010000000100000 8
b1 7
#160000
01
#170000
b10111011 @
b10111011 /#
b10111011 Y#
b1 b
b1 W
b1 a
b1 c
1d
1H#
1G#
0J#
0[#
0.#
0O#
b0 Z
b0 _
b0 I#
b101001000000100000000000 V
b101001000000100000000000 N"
b110 P"
b1000100000010 A
b1000100000010 g
b1000100000010 %#
b100010 C#
b100010 =
b100010 h
b100010 L#
b10111011 9
b10111011 f"
b10111011 ,#
b10111011 ]#
b1010 Q"
b1001 4
11
#171000
b10001010111100001001100010011110100000101000100001000000010000000100000 8
b1010 7
#180000
01
#190000
b0 b
b1000100 W
b1000100 a
b1000100 c
b100010 Z
b100010 _
b100010 I#
1|"
0d
0\
0H#
0G#
b1 <
b1 B#
b1 K#
b10000000000000000000000 V
b10000000000000000000000 N"
b1001 P"
b1 ;
b1 {"
b1 T#
b1 ?#
b1110111 U
b1110111 S"
b1110111 y"
b1110111 }"
b1 d"
b1 e"
b110 Q"
b1 X
b1 e
b1 x"
b1010 4
11
#191000
b10011010110010101101101010100100100010101000001010001000010000000100000 8
b110 7
#200000
01
#210000
b1110111 ;
b1110111 {"
b1110111 T#
1S#
1M#
1z"
0|"
b100000001100000000 V
b100000001100000000 N"
b0 P"
b1110111 D
b1110111 ~"
b1001 Q"
b1011 4
11
#211000
b10101110110001001001100010011110100000101000100001000000010000000100000 8
b1001 7
#220000
01
#230000
b100011 b
b100011 W
b100011 a
b100011 c
b1 ;
b1 {"
b1 T#
1d
1*#
1$#
1\
1J#
0z"
0M#
0S#
b1010001000100000000100 V
b1010001000100000000100 N"
b1 P"
b0 Q"
b1110111 V#
b1100 4
11
#231000
b10010010100011000100000001000000010000000100000001000000010000000100000 8
b0 7
#240000
01
#250000
b1110111 :
b1110111 Z#
b1110111 \#
1Q#
b10 :#
b10111011 @
b10111011 /#
b10111011 Y#
b10 Y
b10 ^
b10 -#
b100 O"
15#
b11 b
b11 W
b11 a
b11 c
b100011 <
b100011 B#
b100011 K#
0O#
1[#
1.#
0d
0*#
0$#
b100000000000000000000100 >
b100000000000000000000100 L"
b100000000000000000000100 6#
b10 8#
b1 7#
b1 9#
1;#
b1 =#
b1 Z
b1 _
b1 I#
b100011 ;
b100011 {"
b100011 T#
b100011 ?#
b0 U
b0 S"
b0 y"
b0 }"
b11 d"
b11 e"
b100110001000100 V
b100110001000100 N"
b10010 P"
b10 @#
b10 '#
b10001 2#
b1110000000011110 A
b1110000000011110 g
b1110000000011110 %#
b1 C#
b1 =
b1 h
b1 L#
b100011 X
b100011 e
b100011 x"
b1 Q"
b1000100000010 B
b1000100000010 &#
b1101 4
11
#251000
b10010010100010000100000001000000010000000100000001000000010000000100000 8
b1 7
b100011101000011010001000010000000100000001000000010000000100000 5
b100 6
#260000
01
#270000
b1100 [
b1100 `
b1100 "#
b1110111 Y
b1110111 ^
b1110111 -#
b10111011 :
b10111011 Z#
b10111011 \#
1!#
1d
1]
1+#
1H#
0J#
0[#
0.#
0Q#
b101000100 b
b1000100 W
b1000100 a
b1000100 c
b101100000011100000000000 V
b101100000011100000000000 N"
b10100 P"
b10111011 Z
b10111011 _
b10111011 I#
b10010 Q"
b10111011 ?
b10111011 0#
b10111011 D#
b1110111 9
b1110111 f"
b1110111 ,#
b1110111 ]#
b0 A
b0 g
b0 %#
b100011 C#
b100011 =
b100011 h
b100011 L#
b1110 4
11
#271000
b10001010111100001000011010011010101000000100000001000000010000000100000 8
b10010 7
#280000
01
#290000
b0 b
b0 [
b0 `
b0 "#
b1000110 W
b1000110 a
b1000110 c
b10 Y
b10 ^
b10 -#
b100011 Z
b100011 _
b100011 I#
b100 <
b100 B#
b100 K#
0!#
0d
0]
0\
0+#
0H#
b1000100 ;
b1000100 {"
b1000100 T#
b100 ?#
b100 d"
b100 e"
b0 V
b0 N"
b1000 P"
b1100 C
b1100 M"
b1100 ##
b1000100 X
b1000100 e
b1000100 x"
b10100 Q"
b1111 4
11
#291000
b10101110100000101001001010101000010000000100000001000000010000000100000 8
b10100 7
#300000
01
#310000
1M#
b1000000000 V
b1000000000 N"
b10011 P"
b1000 Q"
b10000 4
11
#311000
b10101110110001001000001010011000101010101011111010100100101100000100000 8
b1000 7
#320000
01
#330000
b1110111 :
b1110111 Z#
b1110111 \#
b1000100 @
b1000100 /#
b1000100 Y#
1[#
1.#
1Q#
0M#
b100010001000000 V
b100010001000000 N"
b10010 P"
b1000100 U#
b10011 Q"
b10001 4
11
#331000
b10001010111100001001100010100100010000000100000001000000010000000100000 8
b10011 7
#340000
01
#350000
b10 [
b10 `
b10 "#
b11001101 b
b11001101 W
b11001101 a
b11001101 c
b1110111 Y
b1110111 ^
b1110111 -#
b1000100 Z
b1000100 _
b1000100 I#
b1000100 :
b1000100 Z#
b1000100 \#
1!#
1d
1]
1\
1+#
1H#
0[#
0.#
0Q#
b101100000011100000000000 V
b101100000011100000000000 N"
b10100 P"
b10010 Q"
b1000100 ?
b1000100 0#
b1000100 D#
b10010 4
11
#351000
b10001010111100001000011010011010101000000100000001000000010000000100000 8
b10010 7
#360000
01
#370000
b0 b
b0 [
b0 `
b0 "#
b1000110 W
b1000110 a
b1000110 c
b10 Y
b10 ^
b10 -#
b100011 Z
b100011 _
b100011 I#
b1101 <
b1101 B#
b1101 K#
0!#
0d
0]
0\
0+#
0H#
b11001101 ;
b11001101 {"
b11001101 T#
b1101 ?#
b1101 d"
b1101 e"
b0 V
b0 N"
b1110 P"
b10 C
b10 M"
b10 ##
b11001101 X
b11001101 e
b11001101 x"
b10100 Q"
b10011 4
11
#371000
b10101110100000101001001010101000010000000100000001000000010000000100000 8
b10100 7
#380000
01
#390000
b1000 [
b1000 `
b1000 "#
b100100001 b
b100001 W
b100001 a
b100001 c
b1110111 @
b1110111 /#
b1110111 Y#
1d
1]
1\
1[#
1.#
1O#
b1000000101110000010000 V
b1000000101110000010000 N"
b10110 P"
b1110 Q"
b10100 4
11
#391000
b10001010111100001010011010101110100000101010000010100100100010101000111 8
b1110 7
#400000
01
#410000
b100110011 b
b1000 [
b1000 `
b1000 "#
b110011 W
b110011 a
b110011 c
b1110111 Z
b1110111 _
b1110111 I#
b1000100 Y
b1000100 ^
b1000100 -#
b1000100 @
b1000100 /#
b1000100 Y#
b100001 <
b100001 B#
b100001 K#
1H#
1+#
0[#
0.#
0O#
b100001 ;
b100001 {"
b100001 T#
b100001 ?#
b1110111 U
b1110111 S"
b1110111 y"
b1110111 }"
b1 d"
b1 e"
b101100000001100000000000 V
b101100000001100000000000 N"
b10101 P"
b1000100 9
b1000100 f"
b1000100 ,#
b1000100 ]#
b1110111 ?
b1110111 0#
b1110111 D#
b100001 X
b100001 e
b100001 x"
b10110 Q"
b10101 4
11
#411000
b10001010111100001000011010011110100110101010000010101010101010001000101 8
b10110 7
#420000
01
#430000
b0 b
b0 [
b0 `
b0 "#
b1000110 W
b1000110 a
b1000110 c
b10 Y
b10 ^
b10 -#
b100011 Z
b100011 _
b100011 I#
1S#
1M#
0d
0]
0\
0+#
0H#
b110011 <
b110011 B#
b110011 K#
b1100000000 V
b1100000000 N"
b10011 P"
b110011 ;
b110011 {"
b110011 T#
b110011 ?#
b0 U
b0 S"
b0 y"
b0 }"
b11 d"
b11 e"
b10101 Q"
b110011 X
b110011 e
b110011 x"
b10110 4
11
#431000
b10101110110001001000001010011000101010101011111010100100101100100100000 8
b10101 7
#440000
01
#450000
b110011 :
b110011 Z#
b110011 \#
1[#
1.#
1Q#
0M#
0S#
b100010001000000 V
b100010001000000 N"
b10010 P"
b110011 V#
b10011 Q"
b10111 4
11
#451000
b10001010111100001001100010100100010000000100000001000000010000000100000 8
b10011 7
#460000
01
#470000
b1000 [
b1000 `
b1000 "#
b100010001 b
b10001 W
b10001 a
b10001 c
b110011 Y
b110011 ^
b110011 -#
b1000100 Z
b1000100 _
b1000100 I#
b1000100 :
b1000100 Z#
b1000100 \#
1!#
1d
1]
1\
1+#
1H#
0[#
0.#
0Q#
b101100000011100000000000 V
b101100000011100000000000 N"
b10100 P"
b10010 Q"
b1000100 ?
b1000100 0#
b1000100 D#
b110011 9
b110011 f"
b110011 ,#
b110011 ]#
b11000 4
11
#471000
b10001010111100001000011010011010101000000100000001000000010000000100000 8
b10010 7
#480000
01
#490000
b0 b
b0 [
b0 `
b0 "#
b1000110 W
b1000110 a
b1000110 c
b10 Y
b10 ^
b10 -#
b100011 Z
b100011 _
b100011 I#
b10001 <
b10001 B#
b10001 K#
0!#
0d
0]
0\
0+#
0H#
b10001 ;
b10001 {"
b10001 T#
b10001 ?#
b1110111 U
b1110111 S"
b1110111 y"
b1110111 }"
b1 d"
b1 e"
b0 V
b0 N"
b1000 P"
b1000 C
b1000 M"
b1000 ##
b10001 X
b10001 e
b10001 x"
b10100 Q"
b11001 4
11
#491000
b10101110100000101001001010101000010000000100000001000000010000000100000 8
b10100 7
#500000
01
#510000
1M#
b1000000000 V
b1000000000 N"
b10011 P"
b1000 Q"
b11010 4
11
#511000
b10101110110001001000001010011000101010101011111010100100101100000100000 8
b1000 7
#520000
01
#530000
b110011 :
b110011 Z#
b110011 \#
b10001 @
b10001 /#
b10001 Y#
1[#
1.#
1Q#
0M#
b100010001000000 V
b100010001000000 N"
b10010 P"
b10001 U#
b10011 Q"
b11011 4
11
#531000
b10001010111100001001100010100100010000000100000001000000010000000100000 8
b10011 7
#540000
01
#550000
b10 [
b10 `
b10 "#
b11011110 b
b11011110 W
b11011110 a
b11011110 c
b110011 Y
b110011 ^
b110011 -#
b10001 Z
b10001 _
b10001 I#
b10001 :
b10001 Z#
b10001 \#
1!#
1d
1]
1\
1+#
1H#
0[#
0.#
0Q#
b101100000011100000000000 V
b101100000011100000000000 N"
b10100 P"
b10010 Q"
b10001 ?
b10001 0#
b10001 D#
b11100 4
11
#551000
b10001010111100001000011010011010101000000100000001000000010000000100000 8
b10010 7
#560000
01
#570000
b0 b
b0 [
b0 `
b0 "#
b1000110 W
b1000110 a
b1000110 c
b10 Y
b10 ^
b10 -#
b100011 Z
b100011 _
b100011 I#
b11110 <
b11110 B#
b11110 K#
0!#
0d
0]
0\
0+#
0H#
b11011110 ;
b11011110 {"
b11011110 T#
b11110 ?#
b0 U
b0 S"
b0 y"
b0 }"
b1110 d"
b1110 e"
b0 V
b0 N"
b1110 P"
b10 C
b10 M"
b10 ##
b11011110 X
b11011110 e
b11011110 x"
b10100 Q"
b11101 4
11
#571000
b10101110100000101001001010101000010000000100000001000000010000000100000 8
b10100 7
#580000
01
#590000
b1000 [
b1000 `
b1000 "#
b100100001 b
b100001 W
b100001 a
b100001 c
b110011 @
b110011 /#
b110011 Y#
1d
1]
1\
1[#
1.#
1O#
b1000000101110000010000 V
b1000000101110000010000 N"
b10110 P"
b1110 Q"
b11110 4
11
#591000
b10001010111100001010011010101110100000101010000010100100100010101000111 8
b1110 7
#600000
01
