i281_multicycle/dump.vcd
$date
	Sun Nov 23 22:23:24 2025
$end
$version
	Icarus Verilog
$end
$timescale
	1ps
$end
$scope module i281_toplevel_tb $end
$var wire 8 ! datamem9 [7:0] $end
$var wire 8 " datamem8 [7:0] $end
$var wire 8 # datamem7 [7:0] $end
$var wire 8 $ datamem6 [7:0] $end
$var wire 8 % datamem5 [7:0] $end
$var wire 8 & datamem4 [7:0] $end
$var wire 8 ' datamem3 [7:0] $end
$var wire 8 ( datamem2 [7:0] $end
$var wire 8 ) datamem15 [7:0] $end
$var wire 8 * datamem14 [7:0] $end
$var wire 8 + datamem13 [7:0] $end
$var wire 8 , datamem12 [7:0] $end
$var wire 8 - datamem11 [7:0] $end
$var wire 8 . datamem10 [7:0] $end
$var wire 8 / datamem1 [7:0] $end
$var wire 8 0 datamem0 [7:0] $end
$var reg 1 1 clock $end
$var reg 1 2 reset $end
$var reg 1 3 run $end
$scope module dut $end
$var wire 1 1 clock $end
$var wire 1 2 reset $end
$var wire 1 3 run $end
$var wire 8 4 rightinputreg_register [7:0] $end
$var wire 8 5 rightinputreg [7:0] $end
$var wire 8 6 reg_in [7:0] $end
$var wire 6 7 pc_new [5:0] $end
$var wire 6 8 pc [5:0] $end
$var wire 27 9 op_in [26:0] $end
$var wire 8 : leftinputreg_register [7:0] $end
$var wire 8 ; leftinputreg [7:0] $end
$var wire 16 < instruction [15:0] $end
$var wire 16 = imem_register [15:0] $end
$var wire 4 > flag_in [3:0] $end
$var wire 8 ? dmem_register [7:0] $end
$var wire 8 @ datamem9 [7:0] $end
$var wire 8 A datamem8 [7:0] $end
$var wire 8 B datamem7 [7:0] $end
$var wire 8 C datamem6 [7:0] $end
$var wire 8 D datamem5 [7:0] $end
$var wire 8 E datamem4 [7:0] $end
$var wire 8 F datamem3 [7:0] $end
$var wire 8 G datamem2 [7:0] $end
$var wire 8 H datamem15 [7:0] $end
$var wire 8 I datamem14 [7:0] $end
$var wire 8 J datamem13 [7:0] $end
$var wire 8 K datamem12 [7:0] $end
$var wire 8 L datamem11 [7:0] $end
$var wire 8 M datamem10 [7:0] $end
$var wire 8 N datamem1 [7:0] $end
$var wire 8 O datamem0 [7:0] $end
$var wire 8 P data_memory_out [7:0] $end
$var wire 24 Q ctrl_out [24:1] $end
$var wire 8 R alu_result [7:0] $end
$var wire 8 S alu_out_register [7:0] $end
$var wire 8 T alu_in_two [7:0] $end
$var wire 8 U alu_in_one [7:0] $end
$var wire 4 V alu_flags [3:0] $end
$scope module ALU $end
$var wire 1 W c12 $end
$var wire 1 X c13 $end
$var wire 8 Y alu_in_two [7:0] $end
$var wire 8 Z alu_in_one [7:0] $end
$var reg 4 [ alu_flags [3:0] $end
$var reg 8 \ alu_result [7:0] $end
$var reg 9 ] catch_flags [8:0] $end
$upscope $end
$scope module ALU_OUT_REG $end
$var wire 8 ^ alu_output [7:0] $end
$var wire 1 _ c22 $end
$var wire 1 1 clock $end
$var wire 1 2 reset $end
$var wire 1 3 run $end
$var reg 8 ` alu_out_register [7:0] $end
$upscope $end
$scope module CODE_MEMORY $end
$var wire 1 a c1 $end
$var wire 1 1 clock $end
$var wire 16 b curr_instruction [15:0] $end
$var wire 1 2 reset $end
$var wire 1 3 run $end
$var wire 6 c read_select [5:0] $end
$var integer 32 d i [31:0] $end
$scope module add17to32 $end
$var wire 16 e b0I [15:0] $end
$var wire 16 f b10I [15:0] $end
$var wire 16 g b11I [15:0] $end
$var wire 16 h b12I [15:0] $end
$var wire 16 i b13I [15:0] $end
$var wire 16 j b14I [15:0] $end
$var wire 16 k b15I [15:0] $end
$var wire 16 l b1I [15:0] $end
$var wire 16 m b2I [15:0] $end
$var wire 16 n b3I [15:0] $end
$var wire 16 o b4I [15:0] $end
$var wire 16 p b5I [15:0] $end
$var wire 16 q b6I [15:0] $end
$var wire 16 r b7I [15:0] $end
$var wire 16 s b8I [15:0] $end
$var wire 16 t b9I [15:0] $end
$upscope $end
$scope module add1to16 $end
$var wire 16 u b0I [15:0] $end
$var wire 16 v b10I [15:0] $end
$var wire 16 w b11I [15:0] $end
$var wire 16 x b12I [15:0] $end
$var wire 16 y b13I [15:0] $end
$var wire 16 z b14I [15:0] $end
$var wire 16 { b15I [15:0] $end
$var wire 16 | b1I [15:0] $end
$var wire 16 } b2I [15:0] $end
$var wire 16 ~ b3I [15:0] $end
$var wire 16 !" b4I [15:0] $end
$var wire 16 "" b5I [15:0] $end
$var wire 16 #" b6I [15:0] $end
$var wire 16 $" b7I [15:0] $end
$var wire 16 %" b8I [15:0] $end
$var wire 16 &" b9I [15:0] $end
$upscope $end
$scope module add33to48 $end
$var wire 16 '" b0I [15:0] $end
$var wire 16 (" b10I [15:0] $end
$var wire 16 )" b11I [15:0] $end
$var wire 16 *" b12I [15:0] $end
$var wire 16 +" b13I [15:0] $end
$var wire 16 ," b14I [15:0] $end
$var wire 16 -" b15I [15:0] $end
$var wire 16 ." b1I [15:0] $end
$var wire 16 /" b2I [15:0] $end
$var wire 16 0" b3I [15:0] $end
$var wire 16 1" b4I [15:0] $end
$var wire 16 2" b5I [15:0] $end
$var wire 16 3" b6I [15:0] $end
$var wire 16 4" b7I [15:0] $end
$var wire 16 5" b8I [15:0] $end
$var wire 16 6" b9I [15:0] $end
$upscope $end
$scope module add49to64 $end
$var wire 16 7" b0I [15:0] $end
$var wire 16 8" b10I [15:0] $end
$var wire 16 9" b11I [15:0] $end
$var wire 16 :" b12I [15:0] $end
$var wire 16 ;" b13I [15:0] $end
$var wire 16 <" b14I [15:0] $end
$var wire 16 =" b15I [15:0] $end
$var wire 16 >" b1I [15:0] $end
$var wire 16 ?" b2I [15:0] $end
$var wire 16 @" b3I [15:0] $end
$var wire 16 A" b4I [15:0] $end
$var wire 16 B" b5I [15:0] $end
$var wire 16 C" b6I [15:0] $end
$var wire 16 D" b7I [15:0] $end
$var wire 16 E" b8I [15:0] $end
$var wire 16 F" b9I [15:0] $end
$upscope $end
$upscope $end
$scope module CONTROL_LOGIC $end
$var wire 1 1 clock $end
$var wire 1 2 reset $end
$var wire 1 3 run $end
$var wire 27 G" opcode_in [26:0] $end
$var wire 4 H" flags_reg [3:0] $end
$var reg 24 I" c [24:1] $end
$var reg 5 J" instruction [4:0] $end
$var reg 6 K" next_state [5:0] $end
$var reg 6 L" state [5:0] $end
$upscope $end
$scope module DATA_MEMORY $end
$var wire 1 M" c17 $end
$var wire 1 1 clock $end
$var wire 8 N" data_memory_output [7:0] $end
$var wire 8 O" datamem0 [7:0] $end
$var wire 8 P" datamem1 [7:0] $end
$var wire 8 Q" datamem10 [7:0] $end
$var wire 8 R" datamem11 [7:0] $end
$var wire 8 S" datamem12 [7:0] $end
$var wire 8 T" datamem13 [7:0] $end
$var wire 8 U" datamem14 [7:0] $end
$var wire 8 V" datamem15 [7:0] $end
$var wire 8 W" datamem2 [7:0] $end
$var wire 8 X" datamem3 [7:0] $end
$var wire 8 Y" datamem4 [7:0] $end
$var wire 8 Z" datamem5 [7:0] $end
$var wire 8 [" datamem6 [7:0] $end
$var wire 8 \" datamem7 [7:0] $end
$var wire 8 ]" datamem8 [7:0] $end
$var wire 8 ^" datamem9 [7:0] $end
$var wire 4 _" read_select [3:0] $end
$var wire 1 2 reset $end
$var wire 1 3 run $end
$var wire 4 `" write_select [3:0] $end
$var wire 8 a" inp [7:0] $end
$var integer 32 b" i [31:0] $end
$scope module addr $end
$var wire 8 c" b0I [7:0] $end
$var wire 8 d" b10I [7:0] $end
$var wire 8 e" b11I [7:0] $end
$var wire 8 f" b12I [7:0] $end
$var wire 8 g" b13I [7:0] $end
$var wire 8 h" b14I [7:0] $end
$var wire 8 i" b15I [7:0] $end
$var wire 8 j" b1I [7:0] $end
$var wire 8 k" b2I [7:0] $end
$var wire 8 l" b3I [7:0] $end
$var wire 8 m" b4I [7:0] $end
$var wire 8 n" b5I [7:0] $end
$var wire 8 o" b6I [7:0] $end
$var wire 8 p" b7I [7:0] $end
$var wire 8 q" b8I [7:0] $end
$var wire 8 r" b9I [7:0] $end
$upscope $end
$upscope $end
$scope module DMEM_MUX_TO_REG $end
$var wire 8 s" a [7:0] $end
$var wire 8 t" b [7:0] $end
$var wire 1 u" s $end
$var wire 8 v" out [7:0] $end
$upscope $end
$scope module DMEM_REGISTER $end
$var wire 1 w" c23 $end
$var wire 1 1 clock $end
$var wire 8 x" datamemory [7:0] $end
$var wire 1 2 reset $end
$var wire 1 3 run $end
$var reg 8 y" dmem_register [7:0] $end
$upscope $end
$scope module FLAGS $end
$var wire 1 z" c14 $end
$var wire 1 1 clock $end
$var wire 4 {" flag_input [3:0] $end
$var wire 1 2 reset $end
$var wire 1 3 run $end
$var reg 4 |" flag_reg [3:0] $end
$upscope $end
$scope module IMEM_REG $end
$var wire 1 }" c16 $end
$var wire 1 1 clock $end
$var wire 16 ~" instruction [15:0] $end
$var wire 1 2 reset $end
$var wire 1 3 run $end
$var reg 16 !# imem_register [15:0] $end
$upscope $end
$scope module IMEM_REG_TO_ALU_MUX $end
$var wire 8 "# a [7:0] $end
$var wire 8 ## c [7:0] $end
$var wire 8 $# d [7:0] $end
$var wire 1 %# s1 $end
$var wire 1 &# s2 $end
$var wire 8 '# b [7:0] $end
$var reg 8 (# out [7:0] $end
$upscope $end
$scope module LEFT_REG $end
$var wire 1 )# c11 $end
$var wire 1 1 clock $end
$var wire 1 2 reset $end
$var wire 1 3 run $end
$var wire 8 *# reginputleft [7:0] $end
$var reg 8 +# leftinputreg_register [7:0] $end
$upscope $end
$scope module OPCODE_DECODER $end
$var wire 1 ,# dec_en $end
$var wire 8 -# opcode_in [7:0] $end
$var wire 1 .# y15 $end
$var wire 1 /# y12 $end
$var wire 1 0# y1 $end
$var wire 27 1# opcode_out [26:0] $end
$scope module decoder1 $end
$var wire 1 ,# dec_en $end
$var wire 4 2# dec_in [3:0] $end
$var wire 16 3# dec_out [15:0] $end
$upscope $end
$scope module decoder2 $end
$var wire 1 0# dec_en $end
$var wire 2 4# dec_in [1:0] $end
$var wire 4 5# dec_out [3:0] $end
$upscope $end
$scope module decoder3 $end
$var wire 1 /# dec_en $end
$var wire 1 6# dec_in $end
$var wire 2 7# dec_out [1:0] $end
$upscope $end
$scope module decoder4 $end
$var wire 1 .# dec_en $end
$var wire 2 8# dec_in [1:0] $end
$var wire 4 9# dec_out [3:0] $end
$upscope $end
$upscope $end
$scope module PC_IN_MUX $end
$var wire 6 :# a [5:0] $end
$var wire 6 ;# b [5:0] $end
$var wire 1 <# s $end
$var wire 6 =# out [5:0] $end
$upscope $end
$scope module PC_REG_TO_ALU_MUX $end
$var wire 8 ># a [7:0] $end
$var wire 8 ?# b [7:0] $end
$var wire 8 @# c [7:0] $end
$var wire 8 A# d [7:0] $end
$var wire 1 B# s1 $end
$var wire 1 C# s2 $end
$var reg 8 D# out [7:0] $end
$upscope $end
$scope module PROGRAM_COUNTER $end
$var wire 1 E# c3 $end
$var wire 1 1 clock $end
$var wire 6 F# pc_new [5:0] $end
$var wire 1 2 reset $end
$var wire 1 3 run $end
$var reg 6 G# pc [5:0] $end
$upscope $end
$scope module REGISTERS $end
$var wire 1 H# c10 $end
$var wire 1 I# c4 $end
$var wire 1 J# c5 $end
$var wire 1 K# c6 $end
$var wire 1 L# c7 $end
$var wire 1 M# c8 $end
$var wire 1 N# c9 $end
$var wire 1 1 clock $end
$var wire 8 O# inp [7:0] $end
$var wire 1 2 reset $end
$var wire 1 3 run $end
$var reg 8 P# A [7:0] $end
$var reg 8 Q# B [7:0] $end
$var reg 8 R# C [7:0] $end
$var reg 8 S# D [7:0] $end
$var reg 8 T# output_one [7:0] $end
$var reg 8 U# output_two [7:0] $end
$upscope $end
$scope module RIGHT_REG $end
$var wire 1 V# c15 $end
$var wire 1 1 clock $end
$var wire 8 W# reginputright [7:0] $end
$var wire 1 2 reset $end
$var wire 1 3 run $end
$var reg 8 X# rightinputreg_register [7:0] $end
$upscope $end
$upscope $end
$upscope $end
$enddefinitions $end
#0
$dumpvars
b0 X#
b0 W#
0V#
b0 U#
b0 T#
b0 S#
b0 R#
b0 Q#
b0 P#
b0 O#
0N#
0M#
0L#
0K#
0J#
0I#
0H#
b100000 G#
b0 F#
1E#
b100000 D#
0C#
0B#
b0 A#
b1 @#
b0 ?#
b100000 >#
b0 =#
0<#
b0 ;#
b0 :#
b0 9#
b0 8#
b0 7#
06#
b0 5#
b0 4#
b1 3#
b0 2#
b1 1#
00#
0/#
0.#
b0 -#
1,#
b0 +#
b0 *#
0)#
b1 (#
b0 '#
0&#
1%#
b0 $#
b1 ##
b0 "#
b0 !#
b11000000000000 ~"
1}"
b0 |"
b0 {"
0z"
b0 y"
b111 x"
0w"
b0 v"
0u"
b111 t"
b0 s"
b0 r"
b111 q"
b1000 p"
b101 o"
b100 n"
b110 m"
b1 l"
b10 k"
b11 j"
b0 i"
b0 h"
b0 g"
b0 f"
b0 e"
b0 d"
b111 c"
b10000 b"
b0 a"
b0 `"
b0 _"
b0 ^"
b111 ]"
b1000 \"
b101 ["
b100 Z"
b110 Y"
b1 X"
b10 W"
b0 V"
b0 U"
b0 T"
b0 S"
b0 R"
b0 Q"
b11 P"
b111 O"
b111 N"
0M"
b0 L"
b1 K"
b0 J"
b1010001000100000000100 I"
b0 H"
b1 G"
b0 F"
b0 E"
b0 D"
b0 C"
b0 B"
b0 A"
b0 @"
b1110000011101110 ?"
b101000000000001 >"
b0 ="
b0 <"
b0 ;"
b0 :"
b0 9"
b0 8"
b1110000011110100 7"
b1001100100000000 6"
b1111001100001000 5"
b1101011100000000 4"
b110110000000000 3"
b1000110000001000 2"
b1111001100001110 1"
b1101001100000000 0"
b11010000000000 /"
b1000110000001000 ."
b101010000000001 -"
b1011100100000001 ,"
b1011110100000000 +"
b1111001100000010 *"
b1101111000000000 )"
b1001110100000001 ("
b11000000000000 '"
b0 &"
b0 %"
b0 $"
b0 #"
b0 ""
b0 !"
b0 ~
b0 }
b1110000000011110 |
b0 {
b0 z
b0 y
b0 x
b0 w
b0 v
b0 u
b0 t
b0 s
b0 r
b0 q
b0 p
b0 o
b0 n
b0 m
b0 l
b0 k
b0 j
b0 i
b0 h
b0 g
b0 f
b0 e
b1000000 d
b100000 c
b11000000000000 b
0a
b0 `
1_
b100001 ^
b100001 ]
b100001 \
b0 [
b100000 Z
b1 Y
0X
1W
b0 V
b100000 U
b1 T
b0 S
b100001 R
b1010001000100000000100 Q
b111 P
b111 O
b11 N
b0 M
b0 L
b0 K
b0 J
b0 I
b0 H
b10 G
b1 F
b110 E
b100 D
b101 C
b1000 B
b111 A
b0 @
b0 ?
b0 >
b0 =
b11000000000000 <
b0 ;
b0 :
b1 9
b100000 8
b0 7
b0 6
b0 5
b0 4
03
12
01
b111 0
b11 /
b0 .
b0 -
b0 ,
b0 +
b0 *
b0 )
b10 (
b1 '
b110 &
b100 %
b101 $
b1000 #
b111 "
b0 !
$end
#10000
b10000 b"
b1000000 d
11
#20000
01
#30000
b1000000 d
b10000 b"
11
#40000
01
02
#45000
13
#50000
b1 V
b1 [
b1 {"
b110 J"
b0 T
b0 Y
b0 (#
b1000000 9
b1000000 G"
b1000000 1#
b0 ]
b0 R
b0 \
b0 ^
b100001 7
b100001 =#
b100001 F#
1V#
1)#
0%#
0}"
b1000 3#
b11 2#
b0 U
b0 Z
b0 D#
b100001 6
b100001 v"
b100001 O#
b100001 :#
b11 P
b11 N"
b11 t"
b11 x"
b1 _"
b1 `"
b1000000100110000000100 Q
b1000000100110000000100 I"
b1011 K"
b110000 -#
b0 <
b0 b
b0 ~"
b0 >#
b0 8
b0 c
b0 G#
b100001 S
b100001 `
b100001 s"
b1 L"
b11000000000000 =
b11000000000000 !#
b0 b"
b0 d
11
#60000
01
#70000
1B#
0E#
0V#
0)#
b0 7
b0 =#
b0 F#
b1 R
b1 \
b1 ^
b1 ]
b0 V
b0 [
b0 {"
b1001000000100000000000 Q
b1001000000100000000000 I"
b1000 K"
b0 6
b0 v"
b0 O#
b0 :#
b111 P
b111 N"
b111 t"
b111 x"
b0 _"
b0 `"
b1 U
b1 Z
b1 D#
b1011 L"
b0 S
b0 `
b0 s"
b1000110000001000 <
b1000110000001000 b
b1000110000001000 ~"
b100001 >#
b100001 8
b100001 c
b100001 G#
11
#80000
01
#90000
b0 ]
b1000010 R
b1000010 \
b1000010 ^
b100001 U
b100001 Z
b100001 D#
b1 7
b1 =#
b1 F#
1H#
0_
0W
0B#
b1 6
b1 v"
b1 O#
b1 :#
b11 P
b11 N"
b11 t"
b11 x"
b1 _"
b1 `"
b1000000000 Q
b1000000000 I"
b0 K"
b1 S
b1 `
b1 s"
b1000 L"
11
#100000
01
#110000
b1 T
b1 Y
b1 (#
b100010 ]
b100010 R
b100010 \
b100010 ^
1_
1%#
1}"
1W
1E#
0H#
b1010001000100000000100 Q
b1010001000100000000100 I"
b1 K"
b0 L"
b1 P#
11
#120000
01
#130000
b1 5
b1 U#
b1 W#
1J#
1I#
b1000 T
b1000 Y
b1000 (#
b1011 J"
b1001 ]
b1001 R
b1001 \
b1001 ^
b100010 7
b100010 =#
b100010 F#
1V#
1)#
0%#
0}"
b110000000000000100000000000 9
b110000000000000100000000000 G"
b110000000000000100000000000 1#
b100000000 3#
b1000 2#
b1 U
b1 Z
b1 D#
b100010 6
b100010 v"
b100010 O#
b100010 :#
b10 P
b10 N"
b10 t"
b10 x"
b10 _"
b10 `"
b1000000100110000011100 Q
b1000000100110000011100 I"
b1010 K"
b1000 ;#
b1000 "#
b10001100 -#
b1110000000011110 <
b1110000000011110 b
b1110000000011110 ~"
b1 >#
b1 8
b1 c
b1 G#
b100010 S
b100010 `
b100010 s"
b1 L"
b1000110000001000 =
b1000110000001000 !#
11
#140000
01
#150000
b1 ;
b1 *#
b1 T#
1z"
1C#
1B#
0E#
0V#
0)#
0J#
0I#
b1001 7
b1001 =#
b1001 F#
b1000 ]
b1000 R
b1000 \
b1000 ^
b101001000010100000000000 Q
b101001000010100000000000 I"
b110 K"
b1001 6
b1001 v"
b1001 O#
b1001 :#
b0 P
b0 N"
b0 t"
b0 x"
b1001 _"
b1001 `"
b0 U
b0 Z
b0 D#
b1010 L"
b1001 S
b1001 `
b1001 s"
b1 4
b1 '#
b1 X#
b11010000000000 <
b11010000000000 b
b11010000000000 ~"
b100010 >#
b100010 8
b100010 c
b100010 G#
11
#160000
01
#170000
b0 ]
b1000100 R
b1000100 \
b1000100 ^
b100010 U
b100010 Z
b100010 D#
b1000 7
b1000 =#
b1000 F#
1w"
0z"
0_
0W
0C#
0B#
b1000 6
b1000 v"
b1000 O#
b1000 :#
b111 P
b111 N"
b111 t"
b111 x"
b1000 _"
b1000 `"
b10000000000000000000000 Q
b10000000000000000000000 I"
b1001 K"
b1000 S
b1000 `
b1000 s"
b110 L"
11
#180000
01
#190000
b111 6
b111 v"
b111 O#
1N#
1M#
1H#
1u"
0w"
b100000001110000000 Q
b100000001110000000 I"
b0 K"
b1001 L"
b111 ?
b111 y"
11
#200000
01
#210000
b1 T
b1 Y
b1 (#
b100011 ]
b100011 R
b100011 \
b100011 ^
b1000 6
b1000 v"
b1000 O#
1_
1%#
1}"
1W
1E#
0u"
0H#
0N#
0M#
b1010001000100000000100 Q
b1010001000100000000100 I"
b1 K"
b111 S#
b0 L"
11
#220000
01
#230000
b110 J"
b0 ;
b0 *#
b0 T#
b0 T
b0 Y
b0 (#
b10000000000000000001000000 9
b10000000000000000001000000 G"
b10000000000000000001000000 1#
b1000 3#
b11 2#
1J#
0I#
1V#
1)#
0%#
0}"
b100011 7
b100011 =#
b100011 F#
b1000 ]
b1000 R
b1000 \
b1000 ^
b0 ;#
b0 "#
b110100 -#
b1000000100110000010100 Q
b1000000100110000010100 I"
b1011 K"
b100011 6
b100011 v"
b100011 O#
b100011 :#
b1 P
b1 N"
b1 t"
b1 x"
b11 _"
b11 `"
b1000 U
b1000 Z
b1000 D#
b11010000000000 =
b11010000000000 !#
b1 L"
b100011 S
b100011 `
b100011 s"
b0 <
b0 b
b0 ~"
b1000 >#
b1000 8
b1000 c
b1000 G#
11
#240000
01
#250000
b1 ;
b1 *#
b1 T#
b1 ]
b1 R
b1 \
b1 ^
b1000 7
b1000 =#
b1000 F#
1B#
0E#
0V#
0)#
0J#
b1 U
b1 Z
b1 D#
b1000 6
b1000 v"
b1000 O#
b1000 :#
b111 P
b111 N"
b111 t"
b111 x"
b1000 _"
b1000 `"
b1001000000100000000000 Q
b1001000000100000000000 I"
b1000 K"
b1101001100000000 <
b1101001100000000 b
b1101001100000000 ~"
b100011 >#
b100011 8
b100011 c
b100011 G#
b1000 S
b1000 `
b1000 s"
b1011 L"
11
#260000
01
#270000
b0 ]
b1000110 R
b1000110 \
b1000110 ^
b100011 U
b100011 Z
b100011 D#
1N#
1H#
0_
0W
0B#
b1 7
b1 =#
b1 F#
b1100000000 Q
b1100000000 I"
b0 K"
b1 6
b1 v"
b1 O#
b1 :#
b11 P
b11 N"
b11 t"
b11 x"
b1 _"
b1 `"
b1000 L"
b1 S
b1 `
b1 s"
11
#280000
01
#290000
b1 T
b1 Y
b1 (#
b100100 ]
b100100 R
b100100 \
b100100 ^
1_
1%#
1}"
1W
1E#
0H#
0N#
b1010001000100000000100 Q
b1010001000100000000100 I"
b1 K"
b1 Q#
b0 L"
11
#300000
01
#310000
b111 5
b111 U#
b111 W#
1L#
1K#
b10001 J"
b0 T
b0 Y
b0 (#
b1100000100000000000000000 9
b1100000100000000000000000 G"
b1100000100000000000000000 1#
b10000000000000 3#
b1101 2#
b11 4#
16#
b11 8#
0J#
1V#
1)#
0%#
0}"
b100100 7
b100100 =#
b100100 F#
b1 ]
b1 R
b1 \
b1 ^
b11010011 -#
b1000000100110001100100 Q
b1000000100110001100100 I"
b10 K"
b100100 6
b100100 v"
b100100 O#
b100100 :#
b110 P
b110 N"
b110 t"
b110 x"
b100 _"
b100 `"
b1 U
b1 Z
b1 D#
b1101001100000000 =
b1101001100000000 !#
b1 L"
b100100 S
b100100 `
b100100 s"
b1110000000011110 <
b1110000000011110 b
b1110000000011110 ~"
b1 >#
b1 8
b1 c
b1 G#
11
#320000
01
#330000
b111 T
b111 Y
b111 (#
b1 5
b1 U#
b1 W#
b10 V
b10 [
b10 {"
b11111010 ]
b11111010 R
b11111010 \
b11111010 ^
b1 7
b1 =#
b1 F#
1&#
1C#
1z"
1X
0E#
0V#
0)#
0L#
0K#
b1 U
b1 Z
b1 D#
b1 6
b1 v"
b1 O#
b1 :#
b11 P
b11 N"
b11 t"
b11 x"
b1 _"
b1 `"
b101100000011100000000000 Q
b101100000011100000000000 I"
b0 K"
b1111001100001110 <
b1111001100001110 b
b1111001100001110 ~"
b100100 >#
b100100 8
b100100 c
b100100 G#
b111 4
b111 '#
b111 X#
b1 :
b1 a"
b1 +#
b1 ?#
b1 S
b1 `
b1 s"
b10 L"
11
#340000
01
#350000
b100101 ]
b0 V
b0 [
b0 {"
b100101 R
b100101 \
b100101 ^
b1 T
b1 Y
b1 (#
b100100 U
b100100 Z
b100100 D#
1%#
1}"
1E#
0z"
0X
0&#
0C#
b111010 7
b111010 =#
b111010 F#
b1010001000100000000100 Q
b1010001000100000000100 I"
b11111010 6
b11111010 v"
b11111010 O#
b111010 :#
b0 P
b0 N"
b0 t"
b0 x"
b1010 _"
b1010 `"
b1 K"
b0 L"
b11111010 S
b11111010 `
b11111010 s"
b10 >
b10 H"
b10 |"
11
#360000
01
#370000
b10110 J"
b1000 9#
b111 5
b111 U#
b111 W#
b1110 T
b1110 Y
b1110 (#
b1110000000000000000000000 9
b1110000000000000000000000 G"
b1110000000000000000000000 1#
1.#
b1001000 ]
b1001000 R
b1001000 \
b1001000 ^
b100101 7
b100101 =#
b100101 F#
1L#
1K#
1V#
1)#
0%#
0}"
b1000000000000000 3#
b1111 2#
b111010 U
b111010 Z
b111010 D#
b100101 6
b100101 v"
b100101 O#
b100101 :#
b100 P
b100 N"
b100 t"
b100 x"
b101 _"
b101 `"
b1000000100110001100100 Q
b1000000100110001100100 I"
b0 K"
b1110 ;#
b1110 "#
b11110011 -#
b0 <
b0 b
b0 ~"
b111010 >#
b111010 8
b111010 c
b111010 G#
b100101 S
b100101 `
b100101 s"
b1 L"
b1111001100001110 =
b1111001100001110 !#
11
#380000
01
#390000
b1 T
b1 Y
b1 (#
b1 5
b1 U#
b1 W#
1%#
1}"
0V#
0)#
0L#
0K#
b1000 7
b1000 =#
b1000 F#
b100110 ]
b100110 R
b100110 \
b100110 ^
b1010001000100000000100 Q
b1010001000100000000100 I"
b1 K"
b1001000 6
b1001000 v"
b1001000 O#
b1000 :#
b111 P
b111 N"
b111 t"
b111 x"
b1000 _"
b1000 `"
b100101 U
b100101 Z
b100101 D#
b0 L"
b1001000 S
b1001000 `
b1001000 s"
b1000110000001000 <
b1000110000001000 b
b1000110000001000 ~"
b100101 >#
b100101 8
b100101 c
b100101 G#
11
#400000
01
#410000
b111 ;
b111 *#
b111 T#
1J#
1I#
b1 5
b1 U#
b1 W#
b1000 T
b1000 Y
b1000 (#
b1011 J"
0.#
b0 9#
b10000 ]
b10000 R
b10000 \
b10000 ^
b100110 7
b100110 =#
b100110 F#
0L#
0K#
1V#
1)#
0%#
0}"
b110000000000000100000000000 9
b110000000000000100000000000 G"
b110000000000000100000000000 1#
b100000000 3#
b1000 2#
b0 4#
06#
b0 8#
b1000 U
b1000 Z
b1000 D#
b100110 6
b100110 v"
b100110 O#
b100110 :#
b101 P
b101 N"
b101 t"
b101 x"
b110 _"
b110 `"
b1000000100110000011100 Q
b1000000100110000011100 I"
b1010 K"
b1000 ;#
b1000 "#
b10001100 -#
b0 <
b0 b
b0 ~"
b1000 >#
b1000 8
b1000 c
b1000 G#
b100110 S
b100110 `
b100110 s"
b1 L"
b1000110000001000 =
b1000110000001000 !#
11
#420000
01
#430000
b1 ;
b1 *#
b1 T#
1z"
1C#
1B#
0E#
0V#
0)#
0J#
0I#
b10000 7
b10000 =#
b10000 F#
b1000 ]
b1000 R
b1000 \
b1000 ^
b101001000010100000000000 Q
b101001000010100000000000 I"
b110 K"
b10000 6
b10000 v"
b10000 O#
b10000 :#
b111 P
b111 N"
b111 t"
b111 x"
b0 _"
b0 `"
b0 U
b0 Z
b0 D#
b1010 L"
b10000 S
b10000 `
b10000 s"
b111 :
b111 a"
b111 +#
b111 ?#
b1 4
b1 '#
b1 X#
b110110000000000 <
b110110000000000 b
b110110000000000 ~"
b100110 >#
b100110 8
b100110 c
b100110 G#
11
#440000
01
#450000
b0 ]
b1001100 R
b1001100 \
b1001100 ^
b100110 U
b100110 Z
b100110 D#
b1000 7
b1000 =#
b1000 F#
1w"
0z"
0_
0W
0C#
0B#
b1000 6
b1000 v"
b1000 O#
b1000 :#
b1000 _"
b1000 `"
b10000000000000000000000 Q
b10000000000000000000000 I"
b1001 K"
b0 >
b0 H"
b0 |"
b1000 S
b1000 `
b1000 s"
b110 L"
11
#460000
01
#470000
b111 6
b111 v"
b111 O#
1N#
1M#
1H#
1u"
0w"
b100000001110000000 Q
b100000001110000000 I"
b0 K"
b1001 L"
11
#480000
01
#490000
b1 T
b1 Y
b1 (#
b100111 ]
b100111 R
b100111 \
b100111 ^
b1000 6
b1000 v"
b1000 O#
1_
1%#
1}"
1W
1E#
0u"
0H#
0N#
0M#
b1010001000100000000100 Q
b1010001000100000000100 I"
b1 K"
b0 L"
11
#500000
01
#510000
b1001 J"
b110000000000000001000000000 9
b110000000000000001000000000 G"
b110000000000000001000000000 1#
b111 ;
b111 *#
b111 T#
b0 T
b0 Y
b0 (#
b1000000 3#
b110 2#
1J#
1I#
1V#
1)#
0%#
0}"
b100111 7
b100111 =#
b100111 F#
b1000 ]
b1000 R
b1000 \
b1000 ^
b0 ;#
b0 "#
b1101100 -#
b1000000100110000011100 Q
b1000000100110000011100 I"
b10 K"
b100111 6
b100111 v"
b100111 O#
b100111 :#
b1000 P
b1000 N"
b1000 t"
b1000 x"
b111 _"
b111 `"
b1000 U
b1000 Z
b1000 D#
b110110000000000 =
b110110000000000 !#
b1 L"
b100111 S
b100111 `
b100111 s"
b0 <
b0 b
b0 ~"
b1000 >#
b1000 8
b1000 c
b1000 G#
11
#520000
01
#530000
b1 T
b1 Y
b1 (#
b1 ;
b1 *#
b1 T#
b1000 V
b1000 [
b1000 {"
b100000110 ]
b110 R
b110 \
b110 ^
b1000 7
b1000 =#
b1000 F#
1&#
1C#
1z"
1X
0E#
0V#
0)#
0J#
0I#
b111 U
b111 Z
b111 D#
b1000 6
b1000 v"
b1000 O#
b1000 :#
b111 P
b111 N"
b111 t"
b111 x"
b1000 _"
b1000 `"
b101100000011100000000000 Q
b101100000011100000000000 I"
b1000 K"
b1101011100000000 <
b1101011100000000 b
b1101011100000000 ~"
b100111 >#
b100111 8
b100111 c
b100111 G#
b1000 S
b1000 `
b1000 s"
b10 L"
11
#540000
01
#550000
b0 ]
b0 V
b0 [
b0 {"
b1001110 R
b1001110 \
b1001110 ^
b0 T
b0 Y
b0 (#
b100111 U
b100111 Z
b100111 D#
1N#
1M#
1H#
0z"
0_
0X
0W
0&#
0C#
b110 7
b110 =#
b110 F#
b1110000000 Q
b1110000000 I"
b110 6
b110 v"
b110 O#
b110 :#
b101 P
b101 N"
b101 t"
b101 x"
b110 _"
b110 `"
b0 K"
b1000 L"
b110 S
b110 `
b110 s"
b1000 >
b1000 H"
b1000 |"
11
#560000
01
#570000
b1 T
b1 Y
b1 (#
b101000 ]
b101000 R
b101000 \
b101000 ^
1_
1%#
1}"
1W
1E#
0H#
0N#
0M#
b1010001000100000000100 Q
b1010001000100000000100 I"
b1 K"
b110 S#
b0 L"
11
#580000
01
