i281_multicycle/dump.vcd
$date
	Sun Nov 23 21:23:52 2025
$end
$version
	Icarus Verilog
$end
$timescale
	1ps
$end
$scope module i281_toplevel_tb $end
$var wire 8 ! datamem9 [7:0] $end
$var wire 8 " datamem8 [7:0] $end
$var wire 8 # datamem7 [7:0] $end
$var wire 8 $ datamem6 [7:0] $end
$var wire 8 % datamem5 [7:0] $end
$var wire 8 & datamem4 [7:0] $end
$var wire 8 ' datamem3 [7:0] $end
$var wire 8 ( datamem2 [7:0] $end
$var wire 8 ) datamem15 [7:0] $end
$var wire 8 * datamem14 [7:0] $end
$var wire 8 + datamem13 [7:0] $end
$var wire 8 , datamem12 [7:0] $end
$var wire 8 - datamem11 [7:0] $end
$var wire 8 . datamem10 [7:0] $end
$var wire 8 / datamem1 [7:0] $end
$var wire 8 0 datamem0 [7:0] $end
$var reg 1 1 clock $end
$var reg 1 2 reset $end
$var reg 1 3 run $end
$scope module dut $end
$var wire 1 1 clock $end
$var wire 1 2 reset $end
$var wire 1 3 run $end
$var wire 8 4 rightinputreg_register [7:0] $end
$var wire 8 5 rightinputreg [7:0] $end
$var wire 8 6 reg_in [7:0] $end
$var wire 6 7 pc_new [5:0] $end
$var wire 6 8 pc [5:0] $end
$var wire 27 9 op_in [26:0] $end
$var wire 8 : leftinputreg_register [7:0] $end
$var wire 8 ; leftinputreg [7:0] $end
$var wire 16 < instruction [15:0] $end
$var wire 16 = imem_register [15:0] $end
$var wire 4 > flag_in [3:0] $end
$var wire 8 ? dmem_register [7:0] $end
$var wire 8 @ datamem9 [7:0] $end
$var wire 8 A datamem8 [7:0] $end
$var wire 8 B datamem7 [7:0] $end
$var wire 8 C datamem6 [7:0] $end
$var wire 8 D datamem5 [7:0] $end
$var wire 8 E datamem4 [7:0] $end
$var wire 8 F datamem3 [7:0] $end
$var wire 8 G datamem2 [7:0] $end
$var wire 8 H datamem15 [7:0] $end
$var wire 8 I datamem14 [7:0] $end
$var wire 8 J datamem13 [7:0] $end
$var wire 8 K datamem12 [7:0] $end
$var wire 8 L datamem11 [7:0] $end
$var wire 8 M datamem10 [7:0] $end
$var wire 8 N datamem1 [7:0] $end
$var wire 8 O datamem0 [7:0] $end
$var wire 8 P data_memory_out [7:0] $end
$var wire 24 Q ctrl_out [24:1] $end
$var wire 8 R alu_result [7:0] $end
$var wire 8 S alu_out_register [7:0] $end
$var wire 8 T alu_in_two [7:0] $end
$var wire 8 U alu_in_one [7:0] $end
$var wire 4 V alu_flags [3:0] $end
$scope module ALU $end
$var wire 1 W c12 $end
$var wire 1 X c13 $end
$var wire 8 Y alu_in_two [7:0] $end
$var wire 8 Z alu_in_one [7:0] $end
$var reg 4 [ alu_flags [3:0] $end
$var reg 8 \ alu_result [7:0] $end
$var reg 9 ] catch_flags [8:0] $end
$upscope $end
$scope module ALU_OUT_REG $end
$var wire 8 ^ alu_output [7:0] $end
$var wire 1 _ c22 $end
$var wire 1 1 clock $end
$var wire 1 2 reset $end
$var wire 1 3 run $end
$var reg 8 ` alu_out_register [7:0] $end
$upscope $end
$scope module CODE_MEMORY $end
$var wire 1 a c1 $end
$var wire 1 1 clock $end
$var wire 16 b curr_instruction [15:0] $end
$var wire 1 2 reset $end
$var wire 1 3 run $end
$var wire 6 c read_select [5:0] $end
$var integer 32 d i [31:0] $end
$scope module add17to32 $end
$var wire 16 e b0I [15:0] $end
$var wire 16 f b10I [15:0] $end
$var wire 16 g b11I [15:0] $end
$var wire 16 h b12I [15:0] $end
$var wire 16 i b13I [15:0] $end
$var wire 16 j b14I [15:0] $end
$var wire 16 k b15I [15:0] $end
$var wire 16 l b1I [15:0] $end
$var wire 16 m b2I [15:0] $end
$var wire 16 n b3I [15:0] $end
$var wire 16 o b4I [15:0] $end
$var wire 16 p b5I [15:0] $end
$var wire 16 q b6I [15:0] $end
$var wire 16 r b7I [15:0] $end
$var wire 16 s b8I [15:0] $end
$var wire 16 t b9I [15:0] $end
$upscope $end
$scope module add1to16 $end
$var wire 16 u b0I [15:0] $end
$var wire 16 v b10I [15:0] $end
$var wire 16 w b11I [15:0] $end
$var wire 16 x b12I [15:0] $end
$var wire 16 y b13I [15:0] $end
$var wire 16 z b14I [15:0] $end
$var wire 16 { b15I [15:0] $end
$var wire 16 | b1I [15:0] $end
$var wire 16 } b2I [15:0] $end
$var wire 16 ~ b3I [15:0] $end
$var wire 16 !" b4I [15:0] $end
$var wire 16 "" b5I [15:0] $end
$var wire 16 #" b6I [15:0] $end
$var wire 16 $" b7I [15:0] $end
$var wire 16 %" b8I [15:0] $end
$var wire 16 &" b9I [15:0] $end
$upscope $end
$scope module add33to48 $end
$var wire 16 '" b0I [15:0] $end
$var wire 16 (" b10I [15:0] $end
$var wire 16 )" b11I [15:0] $end
$var wire 16 *" b12I [15:0] $end
$var wire 16 +" b13I [15:0] $end
$var wire 16 ," b14I [15:0] $end
$var wire 16 -" b15I [15:0] $end
$var wire 16 ." b1I [15:0] $end
$var wire 16 /" b2I [15:0] $end
$var wire 16 0" b3I [15:0] $end
$var wire 16 1" b4I [15:0] $end
$var wire 16 2" b5I [15:0] $end
$var wire 16 3" b6I [15:0] $end
$var wire 16 4" b7I [15:0] $end
$var wire 16 5" b8I [15:0] $end
$var wire 16 6" b9I [15:0] $end
$upscope $end
$scope module add49to64 $end
$var wire 16 7" b0I [15:0] $end
$var wire 16 8" b10I [15:0] $end
$var wire 16 9" b11I [15:0] $end
$var wire 16 :" b12I [15:0] $end
$var wire 16 ;" b13I [15:0] $end
$var wire 16 <" b14I [15:0] $end
$var wire 16 =" b15I [15:0] $end
$var wire 16 >" b1I [15:0] $end
$var wire 16 ?" b2I [15:0] $end
$var wire 16 @" b3I [15:0] $end
$var wire 16 A" b4I [15:0] $end
$var wire 16 B" b5I [15:0] $end
$var wire 16 C" b6I [15:0] $end
$var wire 16 D" b7I [15:0] $end
$var wire 16 E" b8I [15:0] $end
$var wire 16 F" b9I [15:0] $end
$upscope $end
$upscope $end
$scope module CONTROL_LOGIC $end
$var wire 1 1 clock $end
$var wire 1 2 reset $end
$var wire 1 3 run $end
$var wire 27 G" opcode_in [26:0] $end
$var wire 4 H" flags_reg [3:0] $end
$var reg 24 I" c [24:1] $end
$var reg 5 J" instruction [4:0] $end
$var reg 6 K" next_state [5:0] $end
$var reg 6 L" state [5:0] $end
$upscope $end
$scope module DATA_MEMORY $end
$var wire 1 M" c17 $end
$var wire 1 1 clock $end
$var wire 8 N" data_memory_output [7:0] $end
$var wire 8 O" datamem0 [7:0] $end
$var wire 8 P" datamem1 [7:0] $end
$var wire 8 Q" datamem10 [7:0] $end
$var wire 8 R" datamem11 [7:0] $end
$var wire 8 S" datamem12 [7:0] $end
$var wire 8 T" datamem13 [7:0] $end
$var wire 8 U" datamem14 [7:0] $end
$var wire 8 V" datamem15 [7:0] $end
$var wire 8 W" datamem2 [7:0] $end
$var wire 8 X" datamem3 [7:0] $end
$var wire 8 Y" datamem4 [7:0] $end
$var wire 8 Z" datamem5 [7:0] $end
$var wire 8 [" datamem6 [7:0] $end
$var wire 8 \" datamem7 [7:0] $end
$var wire 8 ]" datamem8 [7:0] $end
$var wire 8 ^" datamem9 [7:0] $end
$var wire 4 _" read_select [3:0] $end
$var wire 1 2 reset $end
$var wire 1 3 run $end
$var wire 4 `" write_select [3:0] $end
$var wire 8 a" inp [7:0] $end
$var integer 32 b" i [31:0] $end
$scope module addr $end
$var wire 8 c" b0I [7:0] $end
$var wire 8 d" b10I [7:0] $end
$var wire 8 e" b11I [7:0] $end
$var wire 8 f" b12I [7:0] $end
$var wire 8 g" b13I [7:0] $end
$var wire 8 h" b14I [7:0] $end
$var wire 8 i" b15I [7:0] $end
$var wire 8 j" b1I [7:0] $end
$var wire 8 k" b2I [7:0] $end
$var wire 8 l" b3I [7:0] $end
$var wire 8 m" b4I [7:0] $end
$var wire 8 n" b5I [7:0] $end
$var wire 8 o" b6I [7:0] $end
$var wire 8 p" b7I [7:0] $end
$var wire 8 q" b8I [7:0] $end
$var wire 8 r" b9I [7:0] $end
$upscope $end
$upscope $end
$scope module DMEM_MUX_TO_REG $end
$var wire 8 s" a [7:0] $end
$var wire 8 t" b [7:0] $end
$var wire 1 u" s $end
$var wire 8 v" out [7:0] $end
$upscope $end
$scope module DMEM_REGISTER $end
$var wire 1 w" c23 $end
$var wire 1 1 clock $end
$var wire 8 x" datamemory [7:0] $end
$var wire 1 2 reset $end
$var wire 1 3 run $end
$var reg 8 y" dmem_register [7:0] $end
$upscope $end
$scope module FLAGS $end
$var wire 1 z" c14 $end
$var wire 1 1 clock $end
$var wire 4 {" flag_input [3:0] $end
$var wire 1 2 reset $end
$var wire 1 3 run $end
$var reg 4 |" flag_reg [3:0] $end
$upscope $end
$scope module IMEM_REG $end
$var wire 1 }" c16 $end
$var wire 1 1 clock $end
$var wire 16 ~" instruction [15:0] $end
$var wire 1 2 reset $end
$var wire 1 3 run $end
$var reg 16 !# imem_register [15:0] $end
$upscope $end
$scope module IMEM_REG_TO_ALU_MUX $end
$var wire 8 "# a [7:0] $end
$var wire 8 ## c [7:0] $end
$var wire 8 $# d [7:0] $end
$var wire 1 %# s1 $end
$var wire 1 &# s2 $end
$var wire 8 '# b [7:0] $end
$var reg 8 (# out [7:0] $end
$upscope $end
$scope module LEFT_REG $end
$var wire 1 )# c11 $end
$var wire 1 1 clock $end
$var wire 1 2 reset $end
$var wire 1 3 run $end
$var wire 8 *# reginputleft [7:0] $end
$var reg 8 +# leftinputreg_register [7:0] $end
$upscope $end
$scope module OPCODE_DECODER $end
$var wire 1 ,# dec_en $end
$var wire 8 -# opcode_in [7:0] $end
$var wire 1 .# y15 $end
$var wire 1 /# y12 $end
$var wire 1 0# y1 $end
$var wire 27 1# opcode_out [26:0] $end
$scope module decoder1 $end
$var wire 1 ,# dec_en $end
$var wire 4 2# dec_in [3:0] $end
$var wire 16 3# dec_out [15:0] $end
$upscope $end
$scope module decoder2 $end
$var wire 1 0# dec_en $end
$var wire 2 4# dec_in [1:0] $end
$var wire 4 5# dec_out [3:0] $end
$upscope $end
$scope module decoder3 $end
$var wire 1 /# dec_en $end
$var wire 1 6# dec_in $end
$var wire 2 7# dec_out [1:0] $end
$upscope $end
$scope module decoder4 $end
$var wire 1 .# dec_en $end
$var wire 2 8# dec_in [1:0] $end
$var wire 4 9# dec_out [3:0] $end
$upscope $end
$upscope $end
$scope module PC_IN_MUX $end
$var wire 6 :# a [5:0] $end
$var wire 6 ;# b [5:0] $end
$var wire 1 <# s $end
$var wire 6 =# out [5:0] $end
$upscope $end
$scope module PC_REG_TO_ALU_MUX $end
$var wire 8 ># a [7:0] $end
$var wire 8 ?# b [7:0] $end
$var wire 8 @# c [7:0] $end
$var wire 8 A# d [7:0] $end
$var wire 1 B# s1 $end
$var wire 1 C# s2 $end
$var reg 8 D# out [7:0] $end
$upscope $end
$scope module PROGRAM_COUNTER $end
$var wire 1 E# c3 $end
$var wire 1 1 clock $end
$var wire 6 F# pc_new [5:0] $end
$var wire 1 2 reset $end
$var wire 1 3 run $end
$var reg 6 G# pc [5:0] $end
$upscope $end
$scope module REGISTERS $end
$var wire 1 H# c10 $end
$var wire 1 I# c4 $end
$var wire 1 J# c5 $end
$var wire 1 K# c6 $end
$var wire 1 L# c7 $end
$var wire 1 M# c8 $end
$var wire 1 N# c9 $end
$var wire 1 1 clock $end
$var wire 8 O# inp [7:0] $end
$var wire 1 2 reset $end
$var wire 1 3 run $end
$var reg 8 P# A [7:0] $end
$var reg 8 Q# B [7:0] $end
$var reg 8 R# C [7:0] $end
$var reg 8 S# D [7:0] $end
$var reg 8 T# output_one [7:0] $end
$var reg 8 U# output_two [7:0] $end
$upscope $end
$scope module RIGHT_REG $end
$var wire 1 V# c15 $end
$var wire 1 1 clock $end
$var wire 8 W# reginputright [7:0] $end
$var wire 1 2 reset $end
$var wire 1 3 run $end
$var reg 8 X# rightinputreg_register [7:0] $end
$upscope $end
$upscope $end
$upscope $end
$enddefinitions $end
#0
$dumpvars
b0 X#
bx W#
xV#
bx U#
bx T#
b0 S#
b0 R#
b0 Q#
b0 P#
b0xxx O#
xN#
xM#
xL#
xK#
xJ#
xI#
xH#
b0 G#
b0 F#
xE#
bx D#
xC#
xB#
b0 A#
b11111111 @#
b0 ?#
b0 >#
b0 =#
x<#
b0 ;#
b0 :#
b0 9#
b0 8#
b0 7#
06#
b0 5#
b0 4#
b1 3#
b0 2#
b1 1#
00#
0/#
0.#
b0 -#
1,#
b0 +#
bx *#
x)#
bx (#
b0 '#
x&#
x%#
b0 $#
b11111111 ##
b0 "#
b0 !#
b0 ~"
x}"
b0 |"
bx {"
xz"
b0 y"
b111 x"
xw"
b0xxx v"
xu"
b111 t"
b0 s"
b0 r"
b111 q"
b1000 p"
b101 o"
b100 n"
b110 m"
b1 l"
b10 k"
b11 j"
b0 i"
b0 h"
b0 g"
b0 f"
b0 e"
b0 d"
b111 c"
b10000 b"
b0 a"
b0 `"
b0 _"
b0 ^"
b111 ]"
b1000 \"
b101 ["
b100 Z"
b110 Y"
b1 X"
b10 W"
b0 V"
b0 U"
b0 T"
b0 S"
b0 R"
b0 Q"
b11 P"
b111 O"
b111 N"
xM"
b0 L"
b1 K"
b0 J"
bx I"
b0 H"
b1 G"
b0 F"
b0 E"
b0 D"
b0 C"
b0 B"
b0 A"
b0 @"
b1110000011101110 ?"
b101000000000001 >"
b0 ="
b0 <"
b0 ;"
b0 :"
b0 9"
b0 8"
b1110000011110100 7"
b1001100100000000 6"
b1111001100001000 5"
b1101011100000000 4"
b110110000000000 3"
b1000110000001000 2"
b1111001100001110 1"
b1101001100000000 0"
b11010000000000 /"
b1000110000001000 ."
b101010000000001 -"
b1011100100000001 ,"
b1011110100000000 +"
b1111001100000010 *"
b1101111000000000 )"
b1001110100000001 ("
b11000000000000 '"
b0 &"
b0 %"
b0 $"
b0 #"
b0 ""
b0 !"
b0 ~
b0 }
b1110000000011110 |
b0 {
b0 z
b0 y
b0 x
b0 w
b0 v
b0 u
b0 t
b0 s
b0 r
b0 q
b0 p
b0 o
b0 n
b0 m
b0 l
b0 k
b0 j
b0 i
b0 h
b0 g
b0 f
b0 e
b1000000 d
b0 c
b0 b
xa
b0 `
x_
bx ^
bx ]
bx \
bx [
bx Z
bx Y
xX
xW
bx V
bx U
bx T
b0 S
bx R
bx Q
b111 P
b111 O
b11 N
b0 M
b0 L
b0 K
b0 J
b0 I
b0 H
b10 G
b1 F
b110 E
b100 D
b101 C
b1000 B
b111 A
b0 @
b0 ?
b0 >
b0 =
b0 <
bx ;
b0 :
b1 9
b0 8
b0 7
b0xxx 6
bx 5
b0 4
03
12
01
b111 0
b11 /
b0 .
b0 -
b0 ,
b0 +
b0 *
b0 )
b10 (
b1 '
b110 &
b100 %
b101 $
b1000 #
b111 "
b0 !
$end
#10000
b10000 b"
b1000000 d
11
#20000
01
#30000
b1000000 d
b10000 b"
11
#40000
01
02
#45000
13
#50000
b0 6
b0 v"
b0 O#
b0 5
b0 U#
b0 W#
b0 ;
b0 *#
b0 T#
b11111111 ]
b10 V
b10 [
b10 {"
b11111111 R
b11111111 \
b11111111 ^
b11111111 T
b11111111 Y
b11111111 (#
b0 U
b0 Z
b0 D#
1E#
0<#
0M"
0w"
0u"
0V#
0)#
0L#
0K#
0J#
0I#
0H#
0N#
0M#
0z"
1_
0X
1W
0&#
1%#
0C#
0B#
1}"
0a
b0 K"
b1010001000100000000100 Q
b1010001000100000000100 I"
b1 L"
b0 b"
b0 d
11
#60000
01
#70000
b0 ]
b1 V
b1 [
b1 {"
b0 R
b0 \
b0 ^
b0 T
b0 Y
b0 (#
b111111 7
b111111 =#
b111111 F#
1V#
1)#
0%#
0}"
b1 K"
b11111111 6
b11111111 v"
b11111111 O#
b111111 :#
b0 P
b0 N"
b0 t"
b0 x"
b1111 _"
b1111 `"
b1000000100110000000100 Q
b1000000100110000000100 I"
b0 L"
b11111111 S
b11111111 `
b11111111 s"
11
#80000
01
#90000
b111110 R
b111110 \
b111110 ^
b100111110 ]
b1000 V
b1000 [
b1000 {"
b0 7
b0 =#
b0 F#
b11111111 T
b11111111 Y
b11111111 (#
b111111 U
b111111 Z
b111111 D#
b0 6
b0 v"
b0 O#
b0 :#
b111 P
b111 N"
b111 t"
b111 x"
b0 _"
b0 `"
1%#
1}"
0V#
0)#
b0 K"
b111111 >#
b111111 8
b111111 c
b111111 G#
b0 S
b0 `
b0 s"
b1010001000100000000100 Q
b1010001000100000000100 I"
b1 L"
11
#100000
01
#110000
b0 T
b0 Y
b0 (#
b111110 7
b111110 =#
b111110 F#
b0 ]
b1 V
b1 [
b1 {"
b0 R
b0 \
b0 ^
1V#
1)#
0%#
0}"
b1 K"
b111110 6
b111110 v"
b111110 O#
b111110 :#
b0 P
b0 N"
b0 t"
b0 x"
b1110 _"
b1110 `"
b0 U
b0 Z
b0 D#
b1000000100110000000100 Q
b1000000100110000000100 I"
b0 L"
b111110 S
b111110 `
b111110 s"
b0 >#
b0 8
b0 c
b0 G#
11
#120000
01
#130000
b111101 R
b111101 \
b111101 ^
b100111101 ]
b1000 V
b1000 [
b1000 {"
b0 7
b0 =#
b0 F#
b11111111 T
b11111111 Y
b11111111 (#
b111110 U
b111110 Z
b111110 D#
b0 6
b0 v"
b0 O#
b0 :#
b111 P
b111 N"
b111 t"
b111 x"
b0 _"
b0 `"
1%#
1}"
0V#
0)#
b0 K"
b111110 >#
b111110 8
b111110 c
b111110 G#
b0 S
b0 `
b0 s"
b1010001000100000000100 Q
b1010001000100000000100 I"
b1 L"
11
#140000
01
#150000
b0 T
b0 Y
b0 (#
b111101 7
b111101 =#
b111101 F#
b0 ]
b1 V
b1 [
b1 {"
b0 R
b0 \
b0 ^
1V#
1)#
0%#
0}"
b1 K"
b111101 6
b111101 v"
b111101 O#
b111101 :#
b0 P
b0 N"
b0 t"
b0 x"
b1101 _"
b1101 `"
b0 U
b0 Z
b0 D#
b1000000100110000000100 Q
b1000000100110000000100 I"
b0 L"
b111101 S
b111101 `
b111101 s"
b0 >#
b0 8
b0 c
b0 G#
11
#160000
01
#170000
b111100 R
b111100 \
b111100 ^
b100111100 ]
b1000 V
b1000 [
b1000 {"
b0 7
b0 =#
b0 F#
b11111111 T
b11111111 Y
b11111111 (#
b111101 U
b111101 Z
b111101 D#
b0 6
b0 v"
b0 O#
b0 :#
b111 P
b111 N"
b111 t"
b111 x"
b0 _"
b0 `"
1%#
1}"
0V#
0)#
b0 K"
b111101 >#
b111101 8
b111101 c
b111101 G#
b0 S
b0 `
b0 s"
b1010001000100000000100 Q
b1010001000100000000100 I"
b1 L"
11
#180000
01
#190000
b0 T
b0 Y
b0 (#
b111100 7
b111100 =#
b111100 F#
b0 ]
b1 V
b1 [
b1 {"
b0 R
b0 \
b0 ^
1V#
1)#
0%#
0}"
b1 K"
b111100 6
b111100 v"
b111100 O#
b111100 :#
b0 P
b0 N"
b0 t"
b0 x"
b1100 _"
b1100 `"
b0 U
b0 Z
b0 D#
b1000000100110000000100 Q
b1000000100110000000100 I"
b0 L"
b111100 S
b111100 `
b111100 s"
b0 >#
b0 8
b0 c
b0 G#
11
#200000
01
#210000
b111011 R
b111011 \
b111011 ^
b100111011 ]
b1000 V
b1000 [
b1000 {"
b0 7
b0 =#
b0 F#
b11111111 T
b11111111 Y
b11111111 (#
b111100 U
b111100 Z
b111100 D#
b0 6
b0 v"
b0 O#
b0 :#
b111 P
b111 N"
b111 t"
b111 x"
b0 _"
b0 `"
1%#
1}"
0V#
0)#
b0 K"
b111100 >#
b111100 8
b111100 c
b111100 G#
b0 S
b0 `
b0 s"
b1010001000100000000100 Q
b1010001000100000000100 I"
b1 L"
11
#220000
01
#230000
b0 T
b0 Y
b0 (#
b111011 7
b111011 =#
b111011 F#
b0 ]
b1 V
b1 [
b1 {"
b0 R
b0 \
b0 ^
1V#
1)#
0%#
0}"
b1 K"
b111011 6
b111011 v"
b111011 O#
b111011 :#
b0 P
b0 N"
b0 t"
b0 x"
b1011 _"
b1011 `"
b0 U
b0 Z
b0 D#
b1000000100110000000100 Q
b1000000100110000000100 I"
b0 L"
b111011 S
b111011 `
b111011 s"
b0 >#
b0 8
b0 c
b0 G#
11
#240000
01
#250000
b111010 R
b111010 \
b111010 ^
b100111010 ]
b1000 V
b1000 [
b1000 {"
b0 7
b0 =#
b0 F#
b11111111 T
b11111111 Y
b11111111 (#
b111011 U
b111011 Z
b111011 D#
b0 6
b0 v"
b0 O#
b0 :#
b111 P
b111 N"
b111 t"
b111 x"
b0 _"
b0 `"
1%#
1}"
0V#
0)#
b0 K"
b111011 >#
b111011 8
b111011 c
b111011 G#
b0 S
b0 `
b0 s"
b1010001000100000000100 Q
b1010001000100000000100 I"
b1 L"
11
#260000
01
#270000
b0 T
b0 Y
b0 (#
b111010 7
b111010 =#
b111010 F#
b0 ]
b1 V
b1 [
b1 {"
b0 R
b0 \
b0 ^
1V#
1)#
0%#
0}"
b1 K"
b111010 6
b111010 v"
b111010 O#
b111010 :#
b0 P
b0 N"
b0 t"
b0 x"
b1010 _"
b1010 `"
b0 U
b0 Z
b0 D#
b1000000100110000000100 Q
b1000000100110000000100 I"
b0 L"
b111010 S
b111010 `
b111010 s"
b0 >#
b0 8
b0 c
b0 G#
11
#280000
01
#290000
b111001 R
b111001 \
b111001 ^
b100111001 ]
b1000 V
b1000 [
b1000 {"
b0 7
b0 =#
b0 F#
b11111111 T
b11111111 Y
b11111111 (#
b111010 U
b111010 Z
b111010 D#
b0 6
b0 v"
b0 O#
b0 :#
b111 P
b111 N"
b111 t"
b111 x"
b0 _"
b0 `"
1%#
1}"
0V#
0)#
b0 K"
b111010 >#
b111010 8
b111010 c
b111010 G#
b0 S
b0 `
b0 s"
b1010001000100000000100 Q
b1010001000100000000100 I"
b1 L"
11
#300000
01
#310000
b0 T
b0 Y
b0 (#
b111001 7
b111001 =#
b111001 F#
b0 ]
b1 V
b1 [
b1 {"
b0 R
b0 \
b0 ^
1V#
1)#
0%#
0}"
b1 K"
b111001 6
b111001 v"
b111001 O#
b111001 :#
b0 P
b0 N"
b0 t"
b0 x"
b1001 _"
b1001 `"
b0 U
b0 Z
b0 D#
b1000000100110000000100 Q
b1000000100110000000100 I"
b0 L"
b111001 S
b111001 `
b111001 s"
b0 >#
b0 8
b0 c
b0 G#
11
#320000
01
#330000
b111000 R
b111000 \
b111000 ^
b100111000 ]
b1000 V
b1000 [
b1000 {"
b0 7
b0 =#
b0 F#
b11111111 T
b11111111 Y
b11111111 (#
b111001 U
b111001 Z
b111001 D#
b0 6
b0 v"
b0 O#
b0 :#
b111 P
b111 N"
b111 t"
b111 x"
b0 _"
b0 `"
1%#
1}"
0V#
0)#
b0 K"
b111001 >#
b111001 8
b111001 c
b111001 G#
b0 S
b0 `
b0 s"
b1010001000100000000100 Q
b1010001000100000000100 I"
b1 L"
11
#340000
01
#350000
b0 T
b0 Y
b0 (#
b111000 7
b111000 =#
b111000 F#
b0 ]
b1 V
b1 [
b1 {"
b0 R
b0 \
b0 ^
1V#
1)#
0%#
0}"
b1 K"
b111000 6
b111000 v"
b111000 O#
b111000 :#
b1000 _"
b1000 `"
b0 U
b0 Z
b0 D#
b1000000100110000000100 Q
b1000000100110000000100 I"
b0 L"
b111000 S
b111000 `
b111000 s"
b0 >#
b0 8
b0 c
b0 G#
11
#360000
01
#370000
b110111 R
b110111 \
b110111 ^
b100110111 ]
b1000 V
b1000 [
b1000 {"
b0 7
b0 =#
b0 F#
b11111111 T
b11111111 Y
b11111111 (#
b111000 U
b111000 Z
b111000 D#
b0 6
b0 v"
b0 O#
b0 :#
b0 _"
b0 `"
1%#
1}"
0V#
0)#
b0 K"
b111000 >#
b111000 8
b111000 c
b111000 G#
b0 S
b0 `
b0 s"
b1010001000100000000100 Q
b1010001000100000000100 I"
b1 L"
11
#380000
01
#390000
b0 T
b0 Y
b0 (#
b110111 7
b110111 =#
b110111 F#
b0 ]
b1 V
b1 [
b1 {"
b0 R
b0 \
b0 ^
1V#
1)#
0%#
0}"
b1 K"
b110111 6
b110111 v"
b110111 O#
b110111 :#
b1000 P
b1000 N"
b1000 t"
b1000 x"
b111 _"
b111 `"
b0 U
b0 Z
b0 D#
b1000000100110000000100 Q
b1000000100110000000100 I"
b0 L"
b110111 S
b110111 `
b110111 s"
b0 >#
b0 8
b0 c
b0 G#
11
#400000
01
#410000
b110110 R
b110110 \
b110110 ^
b100110110 ]
b1000 V
b1000 [
b1000 {"
b0 7
b0 =#
b0 F#
b11111111 T
b11111111 Y
b11111111 (#
b110111 U
b110111 Z
b110111 D#
b0 6
b0 v"
b0 O#
b0 :#
b111 P
b111 N"
b111 t"
b111 x"
b0 _"
b0 `"
1%#
1}"
0V#
0)#
b0 K"
b110111 >#
b110111 8
b110111 c
b110111 G#
b0 S
b0 `
b0 s"
b1010001000100000000100 Q
b1010001000100000000100 I"
b1 L"
11
#420000
01
#430000
b0 T
b0 Y
b0 (#
b110110 7
b110110 =#
b110110 F#
b0 ]
b1 V
b1 [
b1 {"
b0 R
b0 \
b0 ^
1V#
1)#
0%#
0}"
b1 K"
b110110 6
b110110 v"
b110110 O#
b110110 :#
b101 P
b101 N"
b101 t"
b101 x"
b110 _"
b110 `"
b0 U
b0 Z
b0 D#
b1000000100110000000100 Q
b1000000100110000000100 I"
b0 L"
b110110 S
b110110 `
b110110 s"
b0 >#
b0 8
b0 c
b0 G#
11
#440000
01
#450000
b110101 R
b110101 \
b110101 ^
b100110101 ]
b1000 V
b1000 [
b1000 {"
b0 7
b0 =#
b0 F#
b11111111 T
b11111111 Y
b11111111 (#
b110110 U
b110110 Z
b110110 D#
b0 6
b0 v"
b0 O#
b0 :#
b111 P
b111 N"
b111 t"
b111 x"
b0 _"
b0 `"
1%#
1}"
0V#
0)#
b0 K"
b110110 >#
b110110 8
b110110 c
b110110 G#
b0 S
b0 `
b0 s"
b1010001000100000000100 Q
b1010001000100000000100 I"
b1 L"
11
#460000
01
#470000
b0 T
b0 Y
b0 (#
b110101 7
b110101 =#
b110101 F#
b0 ]
b1 V
b1 [
b1 {"
b0 R
b0 \
b0 ^
1V#
1)#
0%#
0}"
b1 K"
b110101 6
b110101 v"
b110101 O#
b110101 :#
b100 P
b100 N"
b100 t"
b100 x"
b101 _"
b101 `"
b0 U
b0 Z
b0 D#
b1000000100110000000100 Q
b1000000100110000000100 I"
b0 L"
b110101 S
b110101 `
b110101 s"
b0 >#
b0 8
b0 c
b0 G#
11
#480000
01
#490000
b110100 R
b110100 \
b110100 ^
b100110100 ]
b1000 V
b1000 [
b1000 {"
b0 7
b0 =#
b0 F#
b11111111 T
b11111111 Y
b11111111 (#
b110101 U
b110101 Z
b110101 D#
b0 6
b0 v"
b0 O#
b0 :#
b111 P
b111 N"
b111 t"
b111 x"
b0 _"
b0 `"
1%#
1}"
0V#
0)#
b0 K"
b110101 >#
b110101 8
b110101 c
b110101 G#
b0 S
b0 `
b0 s"
b1010001000100000000100 Q
b1010001000100000000100 I"
b1 L"
11
#500000
01
#510000
b0 T
b0 Y
b0 (#
b110100 7
b110100 =#
b110100 F#
b0 ]
b1 V
b1 [
b1 {"
b0 R
b0 \
b0 ^
1V#
1)#
0%#
0}"
b1 K"
b110100 6
b110100 v"
b110100 O#
b110100 :#
b110 P
b110 N"
b110 t"
b110 x"
b100 _"
b100 `"
b0 U
b0 Z
b0 D#
b1000000100110000000100 Q
b1000000100110000000100 I"
b0 L"
b110100 S
b110100 `
b110100 s"
b0 >#
b0 8
b0 c
b0 G#
11
#520000
01
#530000
b110011 R
b110011 \
b110011 ^
b100110011 ]
b1000 V
b1000 [
b1000 {"
b0 7
b0 =#
b0 F#
b11111111 T
b11111111 Y
b11111111 (#
b110100 U
b110100 Z
b110100 D#
b0 6
b0 v"
b0 O#
b0 :#
b111 P
b111 N"
b111 t"
b111 x"
b0 _"
b0 `"
1%#
1}"
0V#
0)#
b0 K"
b110100 >#
b110100 8
b110100 c
b110100 G#
b0 S
b0 `
b0 s"
b1010001000100000000100 Q
b1010001000100000000100 I"
b1 L"
11
#540000
01
#550000
b0 T
b0 Y
b0 (#
b110011 7
b110011 =#
b110011 F#
b0 ]
b1 V
b1 [
b1 {"
b0 R
b0 \
b0 ^
1V#
1)#
0%#
0}"
b1 K"
b110011 6
b110011 v"
b110011 O#
b110011 :#
b1 P
b1 N"
b1 t"
b1 x"
b11 _"
b11 `"
b0 U
b0 Z
b0 D#
b1000000100110000000100 Q
b1000000100110000000100 I"
b0 L"
b110011 S
b110011 `
b110011 s"
b0 >#
b0 8
b0 c
b0 G#
11
#560000
01
#570000
b110010 R
b110010 \
b110010 ^
b100110010 ]
b1000 V
b1000 [
b1000 {"
b0 7
b0 =#
b0 F#
b11111111 T
b11111111 Y
b11111111 (#
b110011 U
b110011 Z
b110011 D#
b0 6
b0 v"
b0 O#
b0 :#
b111 P
b111 N"
b111 t"
b111 x"
b0 _"
b0 `"
1%#
1}"
0V#
0)#
b0 K"
b110011 >#
b110011 8
b110011 c
b110011 G#
b0 S
b0 `
b0 s"
b1010001000100000000100 Q
b1010001000100000000100 I"
b1 L"
11
#580000
01
#590000
b0 T
b0 Y
b0 (#
b110010 7
b110010 =#
b110010 F#
b0 ]
b1 V
b1 [
b1 {"
b0 R
b0 \
b0 ^
1V#
1)#
0%#
0}"
b1 K"
b110010 6
b110010 v"
b110010 O#
b110010 :#
b10 P
b10 N"
b10 t"
b10 x"
b10 _"
b10 `"
b0 U
b0 Z
b0 D#
b1000000100110000000100 Q
b1000000100110000000100 I"
b0 L"
b110010 S
b110010 `
b110010 s"
b0 >#
b0 8
b0 c
b0 G#
11
#600000
01
