i281_multicycle/dump.vcd
$date
	Sat Nov 22 16:04:51 2025
$end
$version
	Icarus Verilog
$end
$timescale
	1ps
$end
$scope module i281_toplevel_tb $end
$var wire 17 ! switches [16:0] $end
$var wire 8 " datamem9 [7:0] $end
$var wire 8 # datamem8 [7:0] $end
$var wire 8 $ datamem7 [7:0] $end
$var wire 8 % datamem6 [7:0] $end
$var wire 8 & datamem5 [7:0] $end
$var wire 8 ' datamem4 [7:0] $end
$var wire 8 ( datamem3 [7:0] $end
$var wire 8 ) datamem2 [7:0] $end
$var wire 8 * datamem15 [7:0] $end
$var wire 8 + datamem14 [7:0] $end
$var wire 8 , datamem13 [7:0] $end
$var wire 8 - datamem12 [7:0] $end
$var wire 8 . datamem11 [7:0] $end
$var wire 8 / datamem10 [7:0] $end
$var wire 8 0 datamem1 [7:0] $end
$var wire 8 1 datamem0 [7:0] $end
$var reg 1 2 clock $end
$var reg 1 3 reset $end
$var reg 1 4 run $end
$scope module dut $end
$var wire 1 2 clock $end
$var wire 1 3 reset $end
$var wire 1 4 run $end
$var wire 17 5 switches [16:0] $end
$var wire 8 6 register_output_two [7:0] $end
$var wire 8 7 reg_in [7:0] $end
$var wire 8 8 output_to_opcode [7:0] $end
$var wire 8 9 output_to_multicycle_opcode [7:0] $end
$var wire 8 : output_from_multicycle_opcode [7:0] $end
$var wire 1 ; opcode_next_instruction_trigger $end
$var wire 27 < op_in [26:0] $end
$var wire 6 = next_pc [5:0] $end
$var wire 1 > multicycle_flag $end
$var wire 17 ? instruction [16:0] $end
$var wire 4 @ flag_in [3:0] $end
$var wire 8 A dmem_input_mux_out [7:0] $end
$var wire 8 B datamem9 [7:0] $end
$var wire 8 C datamem8 [7:0] $end
$var wire 8 D datamem7 [7:0] $end
$var wire 8 E datamem6 [7:0] $end
$var wire 8 F datamem5 [7:0] $end
$var wire 8 G datamem4 [7:0] $end
$var wire 8 H datamem3 [7:0] $end
$var wire 8 I datamem2 [7:0] $end
$var wire 8 J datamem15 [7:0] $end
$var wire 8 K datamem14 [7:0] $end
$var wire 8 L datamem13 [7:0] $end
$var wire 8 M datamem12 [7:0] $end
$var wire 8 N datamem11 [7:0] $end
$var wire 8 O datamem10 [7:0] $end
$var wire 8 P datamem1 [7:0] $end
$var wire 8 Q datamem0 [7:0] $end
$var wire 8 R data_memory_out [7:0] $end
$var wire 6 S current_pc [5:0] $end
$var wire 18 T ctrl_out [1:18] $end
$var wire 8 U alu_result_mux_out [7:0] $end
$var wire 8 V alu_result [7:0] $end
$var wire 8 W alu_in_two [7:0] $end
$var wire 8 X alu_in_one [7:0] $end
$var wire 4 Y alu_flags [3:0] $end
$scope module ALU $end
$var wire 1 Z c12 $end
$var wire 1 [ c13 $end
$var wire 8 \ alu_in_two [7:0] $end
$var wire 8 ] alu_in_one [7:0] $end
$var reg 4 ^ alu_flags [3:0] $end
$var reg 8 _ alu_result [7:0] $end
$var reg 9 ` catch_flags [8:0] $end
$upscope $end
$scope module ALU_Result_Mux $end
$var wire 8 a a [7:0] $end
$var wire 8 b b [7:0] $end
$var wire 1 c s $end
$var wire 8 d out [7:0] $end
$upscope $end
$scope module ALU_Source_Mux $end
$var wire 8 e b [7:0] $end
$var wire 1 f s $end
$var wire 8 g out [7:0] $end
$var wire 8 h a [7:0] $end
$upscope $end
$scope module CODE_MEMORY $end
$var wire 1 i c1 $end
$var wire 1 2 clock $end
$var wire 17 j inp [16:0] $end
$var wire 1 3 reset $end
$var wire 1 4 run $end
$var wire 6 k write_select [5:0] $end
$var wire 6 l read_select [5:0] $end
$var reg 17 m curr_instruction [16:0] $end
$var reg 1 > multicycle_flag $end
$var integer 32 n i [31:0] $end
$scope module add17to32 $end
$var wire 17 o b0I [16:0] $end
$var wire 17 p b10I [16:0] $end
$var wire 17 q b11I [16:0] $end
$var wire 17 r b12I [16:0] $end
$var wire 17 s b13I [16:0] $end
$var wire 17 t b14I [16:0] $end
$var wire 17 u b15I [16:0] $end
$var wire 17 v b1I [16:0] $end
$var wire 17 w b2I [16:0] $end
$var wire 17 x b3I [16:0] $end
$var wire 17 y b4I [16:0] $end
$var wire 17 z b5I [16:0] $end
$var wire 17 { b6I [16:0] $end
$var wire 17 | b7I [16:0] $end
$var wire 17 } b8I [16:0] $end
$var wire 17 ~ b9I [16:0] $end
$upscope $end
$scope module add1to16 $end
$var wire 17 !" b0I [16:0] $end
$var wire 17 "" b10I [16:0] $end
$var wire 17 #" b11I [16:0] $end
$var wire 17 $" b12I [16:0] $end
$var wire 17 %" b13I [16:0] $end
$var wire 17 &" b14I [16:0] $end
$var wire 17 '" b15I [16:0] $end
$var wire 17 (" b1I [16:0] $end
$var wire 17 )" b2I [16:0] $end
$var wire 17 *" b3I [16:0] $end
$var wire 17 +" b4I [16:0] $end
$var wire 17 ," b5I [16:0] $end
$var wire 17 -" b6I [16:0] $end
$var wire 17 ." b7I [16:0] $end
$var wire 17 /" b8I [16:0] $end
$var wire 17 0" b9I [16:0] $end
$upscope $end
$scope module add33to48 $end
$var wire 17 1" b0I [16:0] $end
$var wire 17 2" b10I [16:0] $end
$var wire 17 3" b11I [16:0] $end
$var wire 17 4" b12I [16:0] $end
$var wire 17 5" b13I [16:0] $end
$var wire 17 6" b14I [16:0] $end
$var wire 17 7" b15I [16:0] $end
$var wire 17 8" b1I [16:0] $end
$var wire 17 9" b2I [16:0] $end
$var wire 17 :" b3I [16:0] $end
$var wire 17 ;" b4I [16:0] $end
$var wire 17 <" b5I [16:0] $end
$var wire 17 =" b6I [16:0] $end
$var wire 17 >" b7I [16:0] $end
$var wire 17 ?" b8I [16:0] $end
$var wire 17 @" b9I [16:0] $end
$upscope $end
$scope module add49to64 $end
$var wire 17 A" b0I [16:0] $end
$var wire 17 B" b10I [16:0] $end
$var wire 17 C" b11I [16:0] $end
$var wire 17 D" b12I [16:0] $end
$var wire 17 E" b13I [16:0] $end
$var wire 17 F" b14I [16:0] $end
$var wire 17 G" b15I [16:0] $end
$var wire 17 H" b1I [16:0] $end
$var wire 17 I" b2I [16:0] $end
$var wire 17 J" b3I [16:0] $end
$var wire 17 K" b4I [16:0] $end
$var wire 17 L" b5I [16:0] $end
$var wire 17 M" b6I [16:0] $end
$var wire 17 N" b7I [16:0] $end
$var wire 17 O" b8I [16:0] $end
$var wire 17 P" b9I [16:0] $end
$upscope $end
$upscope $end
$scope module CONTROL_LOGIC $end
$var wire 27 Q" op_in [26:0] $end
$var wire 4 R" flag_in [3:0] $end
$var reg 18 S" ctrl_out [1:18] $end
$upscope $end
$scope module DATA_MEMORY $end
$var wire 1 T" c17 $end
$var wire 1 2 clock $end
$var wire 8 U" data_memory_output [7:0] $end
$var wire 8 V" datamem0 [7:0] $end
$var wire 8 W" datamem1 [7:0] $end
$var wire 8 X" datamem10 [7:0] $end
$var wire 8 Y" datamem11 [7:0] $end
$var wire 8 Z" datamem12 [7:0] $end
$var wire 8 [" datamem13 [7:0] $end
$var wire 8 \" datamem14 [7:0] $end
$var wire 8 ]" datamem15 [7:0] $end
$var wire 8 ^" datamem2 [7:0] $end
$var wire 8 _" datamem3 [7:0] $end
$var wire 8 `" datamem4 [7:0] $end
$var wire 8 a" datamem5 [7:0] $end
$var wire 8 b" datamem6 [7:0] $end
$var wire 8 c" datamem7 [7:0] $end
$var wire 8 d" datamem8 [7:0] $end
$var wire 8 e" datamem9 [7:0] $end
$var wire 4 f" read_select [3:0] $end
$var wire 1 3 reset $end
$var wire 1 4 run $end
$var wire 4 g" write_select [3:0] $end
$var wire 8 h" inp [7:0] $end
$var integer 32 i" i [31:0] $end
$scope module addr $end
$var wire 8 j" b0I [7:0] $end
$var wire 8 k" b10I [7:0] $end
$var wire 8 l" b11I [7:0] $end
$var wire 8 m" b12I [7:0] $end
$var wire 8 n" b13I [7:0] $end
$var wire 8 o" b14I [7:0] $end
$var wire 8 p" b15I [7:0] $end
$var wire 8 q" b1I [7:0] $end
$var wire 8 r" b2I [7:0] $end
$var wire 8 s" b3I [7:0] $end
$var wire 8 t" b4I [7:0] $end
$var wire 8 u" b5I [7:0] $end
$var wire 8 v" b6I [7:0] $end
$var wire 8 w" b7I [7:0] $end
$var wire 8 x" b8I [7:0] $end
$var wire 8 y" b9I [7:0] $end
$upscope $end
$upscope $end
$scope module DMEM_Input_Mux $end
$var wire 8 z" b [7:0] $end
$var wire 1 {" s $end
$var wire 8 |" out [7:0] $end
$var wire 8 }" a [7:0] $end
$upscope $end
$scope module FLAGS $end
$var wire 1 ~" c14 $end
$var wire 1 2 clock $end
$var wire 4 !# flag_input [3:0] $end
$var wire 1 3 reset $end
$var wire 1 4 run $end
$var reg 4 "# flag_reg [3:0] $end
$upscope $end
$scope module MULTI_DECODER $end
$var wire 9 ## curr_instruction [8:0] $end
$var wire 1 > multicycle_flag $end
$var reg 8 $# output_to_multicycle_opcode [7:0] $end
$var reg 8 %# output_to_opcode [7:0] $end
$upscope $end
$scope module OPCODE_DECODER $end
$var wire 1 &# dec_en $end
$var wire 1 > multicycle_flag $end
$var wire 8 '# opcode_in_singlecycle [7:0] $end
$var wire 1 (# y15 $end
$var wire 1 )# y12 $end
$var wire 1 *# y1 $end
$var wire 27 +# opcode_out [26:0] $end
$var wire 8 ,# opcode_in_multicycle [7:0] $end
$var reg 8 -# opcode_in [7:0] $end
$scope module decoder1 $end
$var wire 1 &# dec_en $end
$var wire 4 .# dec_in [3:0] $end
$var wire 16 /# dec_out [15:0] $end
$upscope $end
$scope module decoder2 $end
$var wire 1 *# dec_en $end
$var wire 2 0# dec_in [1:0] $end
$var wire 4 1# dec_out [3:0] $end
$upscope $end
$scope module decoder3 $end
$var wire 1 )# dec_en $end
$var wire 1 2# dec_in $end
$var wire 2 3# dec_out [1:0] $end
$upscope $end
$scope module decoder4 $end
$var wire 1 (# dec_en $end
$var wire 2 4# dec_in [1:0] $end
$var wire 4 5# dec_out [3:0] $end
$upscope $end
$upscope $end
$scope module OPCODE_MULTICYCLE $end
$var wire 1 2 clock $end
$var wire 4 6# flags_reg [3:0] $end
$var wire 8 7# output_to_multicycle_opcode [7:0] $end
$var wire 1 3 reset $end
$var wire 1 4 run $end
$var reg 4 8# instruction [3:0] $end
$var reg 1 ; opcode_next_instruction_trigger $end
$var reg 8 9# output_from_multicycle_opcode [7:0] $end
$var reg 4 :# state [3:0] $end
$upscope $end
$scope module PC_UPDATE $end
$var wire 1 ;# c2 $end
$var wire 1 > multicycle_flag $end
$var wire 6 <# offset [5:0] $end
$var wire 1 ; opcode_next_instruction_trigger $end
$var wire 6 =# current_pc [5:0] $end
$var reg 6 ># current_pc_plus_1 [5:0] $end
$var reg 6 ?# next_pc [5:0] $end
$upscope $end
$scope module PROGRAM_COUNTER $end
$var wire 1 @# c3 $end
$var wire 1 2 clock $end
$var wire 6 A# pc_input [5:0] $end
$var wire 1 3 reset $end
$var wire 1 4 run $end
$var reg 6 B# pc_reg [5:0] $end
$upscope $end
$scope module REGISTERS $end
$var wire 1 C# c10 $end
$var wire 1 D# c4 $end
$var wire 1 E# c5 $end
$var wire 1 F# c6 $end
$var wire 1 G# c7 $end
$var wire 1 H# c8 $end
$var wire 1 I# c9 $end
$var wire 1 2 clock $end
$var wire 1 3 reset $end
$var wire 1 4 run $end
$var wire 8 J# inp [7:0] $end
$var reg 8 K# A [7:0] $end
$var reg 8 L# B [7:0] $end
$var reg 8 M# C [7:0] $end
$var reg 8 N# D [7:0] $end
$var reg 8 O# output_one [7:0] $end
$var reg 8 P# output_two [7:0] $end
$upscope $end
$scope module REG_Writeback_Mux $end
$var wire 8 Q# a [7:0] $end
$var wire 8 R# b [7:0] $end
$var wire 1 S# s $end
$var wire 8 T# out [7:0] $end
$upscope $end
$upscope $end
$upscope $end
$enddefinitions $end
#0
$dumpvars
b0 T#
0S#
b111 R#
b0 Q#
b0 P#
b0 O#
b0 N#
b0 M#
b0 L#
b0 K#
b0 J#
0I#
0H#
0G#
0F#
0E#
0D#
0C#
b100000 B#
b100000 A#
1@#
b100000 ?#
b100001 >#
b100000 =#
bx <#
0;#
bx :#
b0 9#
bx 8#
bx 7#
b0 6#
bx 5#
bx 4#
bx 3#
x2#
bx 1#
bx 0#
bx /#
bx .#
bx -#
b0 ,#
bx +#
x*#
x)#
x(#
bx '#
1&#
bx %#
bx $#
bx ##
b0 "#
b1 !#
0~"
b0 }"
b0 |"
0{"
b0 z"
b0 y"
b111 x"
b1000 w"
b101 v"
b100 u"
b110 t"
b1 s"
b10 r"
b11 q"
b0 p"
b0 o"
b0 n"
b0 m"
b0 l"
b0 k"
b111 j"
b10000 i"
b0 h"
b0 g"
b0 f"
b0 e"
b111 d"
b1000 c"
b101 b"
b100 a"
b110 `"
b1 _"
b10 ^"
b0 ]"
b0 \"
b0 ["
b0 Z"
b0 Y"
b0 X"
b11 W"
b111 V"
b111 U"
0T"
b1000000000000000 S"
b0 R"
bx Q"
b0 P"
b0 O"
b0 N"
b0 M"
b0 L"
b0 K"
b0 J"
b1110000011101110 I"
b101000000000001 H"
b0 G"
b0 F"
b0 E"
b0 D"
b0 C"
b0 B"
b1110000011110100 A"
b1001100100000000 @"
b1111001100001000 ?"
b1101011100000000 >"
b110110000000000 ="
b1000110000001000 <"
b1111001100001110 ;"
b1101001100000000 :"
b11010000000000 9"
b1000110000001000 8"
b101010000000001 7"
b1011100100000001 6"
b1011110100000000 5"
b1111001100000010 4"
b1101111000000000 3"
b1001110100000001 2"
b11000000000000 1"
b0 0"
b0 /"
b0 ."
b0 -"
b0 ,"
b0 +"
b0 *"
b0 )"
b1110000000011110 ("
b0 '"
b0 &"
b0 %"
b0 $"
b0 #"
b0 ""
b0 !"
b0 ~
b0 }
b0 |
b0 {
b0 z
b0 y
b0 x
b0 w
b0 v
b0 u
b0 t
b0 s
b0 r
b0 q
b0 p
b0 o
b1000000 n
bx m
b100000 l
b0 k
b0 j
0i
b0 h
b0 g
0f
bx e
b0 d
0c
bx b
b0 a
b0 `
b0 _
b1 ^
b0 ]
b0 \
0[
0Z
b1 Y
b0 X
b0 W
b0 V
b0 U
b1000000000000000 T
b100000 S
b111 R
b111 Q
b11 P
b0 O
b0 N
b0 M
b0 L
b0 K
b0 J
b10 I
b1 H
b110 G
b100 F
b101 E
b1000 D
b111 C
b0 B
b0 A
b0 @
bx ?
x>
b100000 =
bx <
0;
b0 :
bx 9
bx 8
b0 7
b0 6
b0 5
04
13
02
b111 1
b11 0
b0 /
b0 .
b0 -
b0 ,
b0 +
b0 *
b10 )
b1 (
b110 '
b100 &
b101 %
b1000 $
b111 #
b0 "
b0 !
$end
#10000
b10000 i"
b1000000 n
12
#20000
02
#30000
b1000000 n
b10000 i"
12
#40000
02
03
#45000
14
#50000
1c
1C#
b1000000100001000 T
b1000000100001000 S"
0*#
0)#
0(#
b0 1#
b0 3#
b0 5#
b1000000 <
b1000000 Q"
b1000000 +#
b1000 /#
b11 .#
b0 0#
02#
b0 4#
b0 :#
b0 8#
b110000 -#
b0 9
b0 $#
b0 7#
b110000 8
b110000 %#
b110000 '#
b100001 =
b100001 ?#
b100001 A#
b0 <#
b0 b
b0 e
b110000 ##
0>
b11000000000000 ?
b11000000000000 m
b0 i"
b0 n
12
#60000
02
#70000
b100010 =
b100010 ?#
b100010 A#
b100010 >#
b100001 S
b100001 l
b100001 =#
b100001 B#
12
#80000
02
#90000
1S#
1I#
1H#
b1000011100001001 T
b1000011100001001 S"
b110000000000000100000000000 <
b110000000000000100000000000 Q"
b110000000000000100000000000 +#
b100000000 /#
b1000 .#
b111 7
b111 J#
b111 T#
b1000 f"
b1000 g"
b1000 k
b10001100 -#
b1000 U
b1000 d
b1000 Q#
b10001100 8
b10001100 %#
b10001100 '#
b100011 =
b100011 ?#
b100011 A#
b100011 >#
b1000 <#
b1000 b
b1000 e
b10001100 ##
b100010 S
b100010 l
b100010 =#
b100010 B#
b1000110000001000 ?
b1000110000001000 m
12
#100000
02
#110000
b0 7
b0 J#
b0 T#
0S#
0H#
b1000001100001000 T
b1000001100001000 S"
b10000000000000000001000000 <
b10000000000000000001000000 Q"
b10000000000000000001000000 +#
b1000 /#
b11 .#
b0 f"
b0 g"
b0 k
b110100 -#
b0 U
b0 d
b0 Q#
b110100 8
b110100 %#
b110100 '#
b0 <#
b0 b
b0 e
b110100 ##
b100100 =
b100100 ?#
b100100 A#
b100100 >#
b11010000000000 ?
b11010000000000 m
b111 N#
b100011 S
b100011 l
b100011 =#
b100011 B#
12
#120000
02
#130000
b11111001 7
b11111001 J#
b11111001 T#
b0 R
b0 U"
b0 R#
b1001 f"
b1001 g"
b111001 k
b11111001 U
b11111001 d
b11111001 Q#
b11111001 V
b11111001 _
b11111001 a
b111 A
b111 h"
b111 |"
b111 W
b111 \
b111 g
b11111001 `
b10 Y
b10 ^
b10 !#
b111 6
b111 h
b111 }"
b111 P#
1~"
1[
1Z
1G#
1F#
0c
0C#
0I#
b1001100001110000 T
b1001100001110000 S"
b1100000100000000000000000 <
b1100000100000000000000000 Q"
b1100000100000000000000000 +#
b10000000000000 /#
b1101 .#
b11 0#
12#
b11 4#
b11010011 -#
b11010011 8
b11010011 %#
b11010011 '#
b100101 =
b100101 ?#
b100101 A#
b100101 >#
b11010011 ##
b100100 S
b100100 l
b100100 =#
b100100 B#
b1101001100000000 ?
b1101001100000000 m
12
#140000
02
#150000
b0 7
b0 J#
b0 T#
b111 R
b111 U"
b111 R#
b0 f"
b0 g"
b0 k
b0 A
b0 h"
b0 |"
b0 W
b0 \
b0 g
b0 U
b0 d
b0 Q#
b0 6
b0 h
b0 }"
b0 P#
b0 `
b1 Y
b1 ^
b1 !#
b0 V
b0 _
b0 a
0G#
0F#
0~"
0[
0Z
b1000 5#
b1110000000000000000000000 <
b1110000000000000000000000 Q"
b1110000000000000000000000 +#
1(#
b1000000000000000 /#
b1111 .#
b11110011 -#
b11110011 8
b11110011 %#
b11110011 '#
b1110 <#
b1110 b
b1110 e
b11110011 ##
b1000000000000000 T
b1000000000000000 S"
b100110 =
b100110 ?#
b100110 A#
b100110 >#
b1111001100001110 ?
b1111001100001110 m
b10 @
b10 R"
b10 "#
b10 6#
b100101 S
b100101 l
b100101 =#
b100101 B#
12
#160000
02
#170000
b1000 f"
b1000 g"
b1000 k
b111 7
b111 J#
b111 T#
b1000 U
b1000 d
b1000 Q#
1S#
1c
1C#
1I#
1H#
b1000011100001001 T
b1000011100001001 S"
0(#
b0 5#
b110000000000000100000000000 <
b110000000000000100000000000 Q"
b110000000000000100000000000 +#
b100000000 /#
b1000 .#
b0 0#
02#
b0 4#
b10001100 -#
b10001100 8
b10001100 %#
b10001100 '#
b100111 =
b100111 ?#
b100111 A#
b100111 >#
b1000 <#
b1000 b
b1000 e
b10001100 ##
b100110 S
b100110 l
b100110 =#
b100110 B#
b1000110000001000 ?
b1000110000001000 m
12
#180000
02
#190000
b1000 R
b1000 U"
b1000 R#
b111 V
b111 _
b111 a
b100000111 `
b1000 Y
b1000 ^
b1000 !#
b111 X
b111 ]
b111 O#
b111 7
b111 J#
b111 T#
1~"
1[
1Z
1E#
1D#
0S#
0c
b1110011101110000 T
b1110011101110000 S"
b110000000000000001000000000 <
b110000000000000001000000000 Q"
b110000000000000001000000000 +#
b1000000 /#
b110 .#
b111 f"
b111 g"
b111 k
b1101100 -#
b111 U
b111 d
b111 Q#
b1101100 8
b1101100 %#
b1101100 '#
b0 <#
b0 b
b0 e
b1101100 ##
b101000 =
b101000 ?#
b101000 A#
b101000 >#
b110110000000000 ?
b110110000000000 m
b100111 S
b100111 l
b100111 =#
b100111 B#
12
#200000
02
#210000
b11111001 7
b11111001 J#
b11111001 T#
b0 R
b0 U"
b0 R#
b1001 f"
b1001 g"
b111001 k
b11111001 U
b11111001 d
b11111001 Q#
b111 A
b111 h"
b111 |"
b111 W
b111 \
b111 g
b11111001 `
b10 Y
b10 ^
b10 !#
b11111001 V
b11111001 _
b11111001 a
b111 6
b111 h
b111 }"
b111 P#
b0 X
b0 ]
b0 O#
1G#
1F#
0D#
0C#
0I#
0H#
b11100000100000000000000000 <
b11100000100000000000000000 Q"
b11100000100000000000000000 +#
b10000000000000 /#
b1101 .#
b11 0#
12#
b11 4#
b11010111 -#
b11010111 8
b11010111 %#
b11010111 '#
b101001 =
b101001 ?#
b101001 A#
b101001 >#
b1011100001110000 T
b1011100001110000 S"
b11010111 ##
b101000 S
b101000 l
b101000 =#
b101000 B#
b1000 @
b1000 R"
b1000 "#
b1000 6#
b1101011100000000 ?
b1101011100000000 m
12
#220000
02
#230000
b0 7
b0 J#
b0 T#
b111 R
b111 U"
b111 R#
b0 f"
b0 g"
b0 k
b0 A
b0 h"
b0 |"
b0 W
b0 \
b0 g
b0 U
b0 d
b0 Q#
b0 6
b0 h
b0 }"
b0 P#
b0 `
b1 Y
b1 ^
b1 !#
b0 V
b0 _
b0 a
0G#
0F#
0E#
0~"
0[
0Z
b1000 5#
1(#
b1110000000000000000000000 <
b1110000000000000000000000 Q"
b1110000000000000000000000 +#
b1000000000000000 /#
b1111 .#
b11110011 -#
b11110011 8
b11110011 %#
b11110011 '#
b1000 <#
b1000 b
b1000 e
b11110011 ##
b1000000000000000 T
b1000000000000000 S"
b101010 =
b101010 ?#
b101010 A#
b101010 >#
b1111001100001000 ?
b1111001100001000 m
b10 @
b10 R"
b10 "#
b10 6#
b101001 S
b101001 l
b101001 =#
b101001 B#
12
#240000
02
#250000
b111 7
b111 J#
b111 T#
b1 Y
b1 ^
b1 !#
1S#
1Z
1f
1C#
1H#
1E#
0;#
b1010010111000001 T
b1010010111000001 S"
0(#
b0 5#
b100100000000001000000000000 <
b100100000000001000000000000 Q"
b100100000000001000000000000 +#
b1000000000 /#
b1001 .#
b1 0#
b1 4#
b10011001 -#
b10011001 8
b10011001 %#
b10011001 '#
b101011 =
b101011 ?#
b101011 A#
b101011 >#
b0 <#
b0 b
b0 e
b10011001 ##
b101010 S
b101010 l
b101010 =#
b101010 B#
b1001100100000000 ?
b1001100100000000 m
12
#260000
02
#270000
b11 7
b11 J#
b11 T#
1I#
b11 R
b11 U"
b11 R#
b1 f"
b1 g"
b1 k
b1010011111000001 T
b1010011111000001 S"
b1 U
b1 d
b1 Q#
b110100000000001000000000000 <
b110100000000001000000000000 Q"
b110100000000001000000000000 +#
b1 V
b1 _
b1 a
b1 `
b0 Y
b0 ^
b0 !#
b10011101 -#
b1 W
b1 \
b1 g
b10011101 8
b10011101 %#
b10011101 '#
b1 <#
b1 b
b1 e
b10011101 ##
b101100 =
b101100 ?#
b101100 A#
b101100 >#
b1001110100000001 ?
b1001110100000001 m
b111 M#
b101011 S
b101011 l
b101011 =#
b101011 B#
12
#280000
02
#290000
b111 A
b111 h"
b111 |"
b111 6
b111 h
b111 }"
b111 P#
b11 X
b11 ]
b11 O#
b11111100 7
b11111100 J#
b11111100 T#
1~"
1[
1F#
1D#
0S#
0f
0C#
0I#
0H#
b0 R
b0 U"
b0 R#
b1100 f"
b1100 g"
b111100 k
b1111000001110000 T
b1111000001110000 S"
b11111100 U
b11111100 d
b11111100 Q#
b111000000100000000000000000 <
b111000000100000000000000000 Q"
b111000000100000000000000000 +#
b10000000000000 /#
b1101 .#
b10 0#
02#
b10 4#
b10 Y
b10 ^
b10 !#
b11111100 `
b11111100 V
b11111100 _
b11111100 a
b11011110 -#
b111 W
b111 \
b111 g
b11011110 8
b11011110 %#
b11011110 '#
b101101 =
b101101 ?#
b101101 A#
b101101 >#
b0 <#
b0 b
b0 e
b11011110 ##
b101100 S
b101100 l
b101100 =#
b101100 B#
b11 N#
b1101111000000000 ?
b1101111000000000 m
12
#300000
02
#310000
b0 7
b0 J#
b0 T#
b111 R
b111 U"
b111 R#
b0 f"
b0 g"
b0 k
b0 A
b0 h"
b0 |"
b0 W
b0 \
b0 g
b0 U
b0 d
b0 Q#
b0 6
b0 h
b0 }"
b0 P#
b0 X
b0 ]
b0 O#
b0 `
b1 Y
b1 ^
b1 !#
b0 V
b0 _
b0 a
0F#
0E#
0D#
0~"
0[
0Z
b1000 5#
b1000000000000000 T
b1000000000000000 S"
1(#
b1110000000000000000000000 <
b1110000000000000000000000 Q"
b1110000000000000000000000 +#
b1000000000000000 /#
b1111 .#
b11 0#
12#
b11 4#
b11110011 -#
b11110011 8
b11110011 %#
b11110011 '#
b10 <#
b10 b
b10 e
b11110011 ##
b101110 =
b101110 ?#
b101110 A#
b101110 >#
b1111001100000010 ?
b1111001100000010 m
b101101 S
b101101 l
b101101 =#
b101101 B#
12
#320000
02
#330000
b11 A
b11 h"
b11 |"
b1 Y
b1 ^
b1 !#
b11 6
b11 h
b11 }"
b11 P#
1T"
1Z
1f
1G#
1F#
1E#
0;#
b1011100011000010 T
b1011100011000010 S"
0(#
b0 5#
b110100000000100000000000000 <
b110100000000100000000000000 Q"
b110100000000100000000000000 +#
b100000000000 /#
b1011 .#
b1 0#
b1 4#
b10111101 -#
b10111101 8
b10111101 %#
b10111101 '#
b101111 =
b101111 ?#
b101111 A#
b101111 >#
b0 <#
b0 b
b0 e
b10111101 ##
b101110 S
b101110 l
b101110 =#
b101110 B#
b1011110100000000 ?
b1011110100000000 m
12
#340000
02
#350000
b111 A
b111 h"
b111 |"
b111 6
b111 h
b111 }"
b111 P#
0G#
b1 7
b1 J#
b1 T#
b1 f"
b1 g"
b1 k
b1011000011000010 T
b1011000011000010 S"
b1 U
b1 d
b1 Q#
b100100000000100000000000000 <
b100100000000100000000000000 Q"
b100100000000100000000000000 +#
b1 V
b1 _
b1 a
b1 `
b0 Y
b0 ^
b0 !#
b10111001 -#
b1 W
b1 \
b1 g
b10111001 8
b10111001 %#
b10111001 '#
b1 <#
b1 b
b1 e
b10111001 ##
b110000 =
b110000 ?#
b110000 A#
b110000 >#
b1011100100000001 ?
b1011100100000001 m
b11 R
b11 U"
b11 R#
b11 1
b11 Q
b11 V"
b101111 S
b101111 l
b101111 =#
b101111 B#
12
#360000
02
#370000
b0 A
b0 h"
b0 |"
b0 6
b0 h
b0 }"
b0 P#
1~"
1C#
1I#
0T"
0F#
b1010001111010000 T
b1010001111010000 S"
b10000000000000000100000000 <
b10000000000000000100000000 Q"
b10000000000000000100000000 +#
b100000 /#
b101 .#
b0 0#
02#
b0 4#
b1010100 -#
b1010100 8
b1010100 %#
b1010100 '#
b110001 =
b110001 ?#
b110001 A#
b110001 >#
b1010100 ##
b110000 S
b110000 l
b110000 =#
b110000 B#
b111 R
b111 U"
b111 R#
b111 0
b111 P
b111 W"
b101010000000001 ?
b101010000000001 m
12
#380000
02
#390000
1;#
0f
0E#
0C#
0I#
0~"
0Z
b0 7
b0 J#
b0 T#
b11 R
b11 U"
b11 R#
b0 f"
b0 g"
b0 k
b0 U
b0 d
b0 Q#
b1000000000000000000 <
b1000000000000000000 Q"
b1000000000000000000 +#
b100000000000000 /#
b1110 .#
b1 Y
b1 ^
b1 !#
b0 `
b0 V
b0 _
b0 a
b11100000 -#
b0 W
b0 \
b0 g
b11100000 8
b11100000 %#
b11100000 '#
b110100 <#
b11110100 b
b11110100 e
b11100000 ##
b11000000000000000 T
b11000000000000000 S"
b100110 =
b100110 ?#
b100110 A#
b110010 >#
b1110000011110100 ?
b1110000011110100 m
b0 @
b0 R"
b0 "#
b0 6#
b1 L#
b110001 S
b110001 l
b110001 =#
b110001 B#
12
#400000
02
#410000
b1 7
b1 J#
b1 T#
b111 R
b111 U"
b111 R#
b1 f"
b1 g"
b1 k
b1 U
b1 d
b1 Q#
b1 V
b1 _
b1 a
b1 `
b0 Y
b0 ^
b0 !#
b1 W
b1 \
b1 g
1~"
1Z
1f
1C#
0;#
b1000000111010000 T
b1000000111010000 S"
b100000000 <
b100000000 Q"
b100000000 +#
b100000 /#
b101 .#
b1010000 -#
b1010000 8
b1010000 %#
b1010000 '#
b100111 =
b100111 ?#
b100111 A#
b100111 >#
b1 <#
b1 b
b1 e
b1010000 ##
b100110 S
b100110 l
b100110 =#
b100110 B#
b101000000000001 ?
b101000000000001 m
12
#420000
02
#430000
b1 A
b1 h"
b1 |"
b1 6
b1 h
b1 }"
b1 P#
b11 X
b11 ]
b11 O#
1[
1I#
1H#
1E#
1D#
0f
b10 7
b10 J#
b10 T#
b10 R
b10 U"
b10 R#
b10 f"
b10 g"
b10 k
b1110011101110000 T
b1110011101110000 S"
b10 U
b10 d
b10 Q#
b110000000000000001000000000 <
b110000000000000001000000000 Q"
b110000000000000001000000000 +#
b1000000 /#
b110 .#
b1000 Y
b1000 ^
b1000 !#
b100000010 `
b10 V
b10 _
b10 a
b1101100 -#
b1 W
b1 \
b1 g
b1101100 8
b1101100 %#
b1101100 '#
b0 <#
b0 b
b0 e
b1101100 ##
b101000 =
b101000 ?#
b101000 A#
b101000 >#
b110110000000000 ?
b110110000000000 m
b1 K#
b100111 S
b100111 l
b100111 =#
b100111 B#
12
#440000
02
